{
    "_id": "pgesyqPUJSHKsbGv",
    "content": "<h1>Butterfly Blade</h1>\n<p>You've trained in one of Goka's oldest traditions of espionage, intimidation, and combat mastery. You use your skills to learn about your enemies and cut them down with your mastery of the butterfly sword.</p>\n<p><strong>Additional Feats</strong>: 4th @Compendium[pf2e.feats-srd.Clever Gambit]{Clever Gambit}, @Compendium[pf2e.feats-srd.Combat Assessment]{Combat Assessment}, @Compendium[pf2e.feats-srd.Quick Draw]{Quick Draw}; 6th @Compendium[pf2e.feats-srd.Dread Striker]{Dread Striker}</p>\n<h2 style=\"text-align:left\">@Compendium[pf2e.feats-srd.Butterfly Blade Dedication]{Butterfly Blade Dedication} Feat 4</h2>\n<p><strong>Prerequisites</strong> trained in @Compendium[pf2e.equipment-srd.Butterfly Sword]{Butterfly Swords}</p>\n<p><strong>Access</strong> Defeat a member of the Butterfly Blades in a sanctioned bout.</p>\n<hr />\n<p>You become trained in Deception and Stealth; if you were already trained, you become an expert instead. Whenever your proficiency rank in any weapon increases to expert or beyond, you also gain that new proficiency rank with butterfly swords. You gain access to butterfly swords.</p>\n<p><strong>Special</strong> You can't select another dedication feat until you have gained two other feats from this archetype.</p>\n<h2>@Compendium[pf2e.feats-srd.Butterfly's Kiss]{Butterfly's Kiss} Feat 6</h2>\n<p><strong>Prerequisites</strong> Butterfly Blade Dedication</p>\n<hr />\n<p>You can make nonlethal Strikes with a butterfly sword without taking a penalty.</p>\n<h2>@Compendium[pf2e.feats-srd.Butterfly's Sting]{Butterfly's Sting} Feat 6</h2>\n<p><strong>Prerequisites</strong> Butterfly Blades Dedication</p>\n<hr />\n<p>You gain the @Compendium[pf2e.classfeatures.Sneak Attack]{Sneak Attack} class feature. You don't increase the number of dice as you gain levels.</p>\n<h2>@Compendium[pf2e.feats-srd.Mastermind's Eye]{Mastermind's Eye} Feat 6</h2>\n<p><strong>Prerequisites</strong> Butterfly Blade Dedication</p>\n<hr />\n<p>When you succeed at identifying a creature using Recall Knowledge, that creature is flat-footed against your attacks until the start of your next turn; if you critically succeed, it's flat-footed against your attacks for 1 minute. This feat serves as the rogue's @Compendium[pf2e.classfeatures.Mastermind Racket]{Mastermind Racket} (Advanced Player's Guide 134) for the purpose of meeting prerequisites.</p>\n<h2>@Compendium[pf2e.feats-srd.Deadly Butterfly]{Deadly Butterfly} Feat 8</h2>\n<p><strong>Prerequisites</strong> Butterfly Blade Dedication</p>\n<hr />\n<p>You gain access to the butterfly sword's critical specialization effect. If you already had access to the critical specialization effect or you gain the effect at a later time, you also gain the critical specialization effect for knives when you critically hit with a butterfly sword. You can benefit from only one critical specialization effect at a time.</p>\n<h2>@Compendium[pf2e.feats-srd.Innocent Butterfly]{Innocent Butterfly} Feat 10</h2>\n<p><strong>Prerequisites</strong> Butterfly Blade Dedication</p>\n<hr />\n<p>You know how to alter the perceptions of others. You can cast aura of the unremarkable once per day as an innate arcane spell. The spell uses your class DC or spell DC, whichever is higher.</p>",
    "flags": {},
    "name": "Butterfly Blade",
    "permission": {
        "default": 0
    }
}
