{
    "_id": "lav3yRNPc7lQ7e9k",
    "data": {
        "boosts": {
            "0": {
                "value": [
                    "int",
                    "wis"
                ]
            },
            "1": {
                "value": [
                    "cha",
                    "con",
                    "dex",
                    "int",
                    "str",
                    "wis"
                ]
            }
        },
        "description": {
            "value": "<p><strong>Prerequisite</strong>: Region - Mwangi Expanse</p>\n<hr />\n<p>As an experienced sailor from Senghor, you know that the only thing saving you from disaster on the high seas is a properly maintained ship. You know boat-building inside and out and you can quickly cobble together a solution in the event that something breaks.</p>\n<p>Choose two ability boosts. One must be to <strong>Intelligence</strong> or <strong>Wisdom</strong>, and one is a free ability boost.</p>\n<p>You're trained in the Crafting skill and the Sailing Lore skill. You gain the @Compendium[pf2e.feats-srd.Quick Repair]{Quick Repair} skill feat.</p>"
        },
        "items": {
            "1k8jz": {
                "id": "ASy9AKEIRxPYUi5o",
                "img": "systems/pf2e/icons/features/feats/feats.webp",
                "level": "1",
                "name": "Quick Repair",
                "pack": "pf2e.feats-srd"
            }
        },
        "rules": [],
        "source": {
            "value": "Pathfinder Lost Omens: World Guide"
        },
        "trainedLore": "Sailing Lore",
        "trainedSkills": {
            "value": [
                "cra"
            ]
        },
        "traits": {
            "custom": "",
            "rarity": {
                "value": "common"
            },
            "value": []
        }
    },
    "effects": [],
    "flags": {},
    "img": "systems/pf2e/icons/default-icons/background.svg",
    "name": "Senghor Sailor",
    "type": "background"
}
