{
    "_id": "P5nasaE0JgvkZyZp",
    "data": {
        "baseItem": null,
        "brokenThreshold": {
            "value": 0
        },
        "bulkCapacity": {
            "value": ""
        },
        "collapsed": {
            "value": false
        },
        "containerId": {
            "value": ""
        },
        "description": {
            "value": "<p>These bracers are made from plates of durable mithral and gleam like the summer sun.</p>\n<p><strong>Activate</strong> <span class=\"pf2-icon\">R</span> Interact</p>\n<p><strong>Frequency</strong> once every 10 minutes</p>\n<p><strong>Trigger</strong> A ranged weapon attack hits you but doesn't critically hit</p>\n<p><strong>Requirements</strong> You are aware of the attack and not flat-footed;</p>\n<p><strong>Effect</strong> The bracers send the missile off-course. You gain a +2 circumstance bonus to AC against the triggering attack. If this would cause the attack to be a failure, the attack misses you.</p>\n<p>@Compendium[pf2e.equipment-effects.Effect: Bracers of Missile Deflection]{Effect: Bracers of Missile Deflection}</p>"
        },
        "equipped": {
            "value": false
        },
        "equippedBulk": {
            "value": ""
        },
        "hardness": {
            "value": 0
        },
        "hp": {
            "value": 0
        },
        "identification": {
            "misidentified": {},
            "status": "identified",
            "unidentified": {
                "data": {
                    "description": {
                        "value": ""
                    }
                },
                "img": "",
                "name": ""
            }
        },
        "invested": {
            "value": false
        },
        "level": {
            "value": 9
        },
        "maxHp": {
            "value": 0
        },
        "negateBulk": {
            "value": "0"
        },
        "preciousMaterial": {
            "value": ""
        },
        "preciousMaterialGrade": {
            "value": ""
        },
        "price": {
            "value": "650 gp"
        },
        "quantity": {
            "value": 1
        },
        "rules": [],
        "size": {
            "value": "med"
        },
        "source": {
            "value": "Pathfinder Core Rulebook"
        },
        "stackGroup": {
            "value": ""
        },
        "traits": {
            "custom": "",
            "rarity": {
                "value": "common"
            },
            "value": [
                "abjuration",
                "invested",
                "magical"
            ]
        },
        "usage": {
            "value": "wornbracers"
        },
        "weight": {
            "value": "L"
        }
    },
    "effects": [],
    "flags": {},
    "img": "systems/pf2e/icons/equipment/worn-items/other-worn-items/bracers-of-missile-deflection.webp",
    "name": "Bracers of Missile Deflection (Greater)",
    "type": "equipment"
}
