{
    "_id": "FUzPnIXLHZenTtYo",
    "data": {
        "baseItem": null,
        "brokenThreshold": {
            "value": 0
        },
        "bulkCapacity": {
            "value": ""
        },
        "collapsed": {
            "value": false
        },
        "containerId": {
            "value": null
        },
        "description": {
            "value": "<p>A series of evenly spaced, unblinking tattooed eyes line your skin. When you enter an area that contains creatures within 60 feet that are unnoticed to you, the GM rolls a secret Perception check for you against the creatures' Stealth DCs. On a success, the creature becomes @Compendium[pf2e.conditionitems.Undetected]{Undetected} by you, rather than @Compendium[pf2e.conditionitems.Unnoticed]{Unnoticed}, and on a critical success, the creature becomes @Compendium[pf2e.conditionitems.Hidden]{Hidden} to you. All creatures in the area are then temporarily immune to your crown of insight for 24 hours. The crown of insight doesn't help you find hidden items or traps, nor can it help you discern a creature hiding in plain sight, such as a gargoyle pretending to be an inanimate statue. Additionally, since the effect occurs when you move to enter an area that contains creatures, it doesn't detect an unnoticed creature Sneaking up on you.</p>"
        },
        "equipped": {
            "value": false
        },
        "equippedBulk": {
            "value": ""
        },
        "hardness": {
            "value": 0
        },
        "hp": {
            "value": 0
        },
        "identification": {
            "misidentified": {},
            "status": "identified",
            "unidentified": {
                "data": {
                    "description": {
                        "value": ""
                    }
                },
                "img": "",
                "name": ""
            }
        },
        "invested": {
            "value": null
        },
        "level": {
            "value": 7
        },
        "maxHp": {
            "value": 0
        },
        "negateBulk": {
            "value": "0"
        },
        "preciousMaterial": {
            "value": null
        },
        "preciousMaterialGrade": {
            "value": null
        },
        "price": {
            "value": "360 gp"
        },
        "quantity": {
            "value": 1
        },
        "rules": [],
        "size": {
            "value": "med"
        },
        "source": {
            "value": "Pathfinder Lost Omens: The Grand Bazaar"
        },
        "stackGroup": {
            "value": ""
        },
        "traits": {
            "custom": "",
            "rarity": {
                "value": "uncommon"
            },
            "value": [
                "abjuration",
                "invested",
                "magical",
                "tattoo"
            ]
        },
        "usage": {
            "value": "tattooed-on-the-body"
        },
        "weight": {
            "value": "-"
        }
    },
    "effects": [],
    "flags": {},
    "img": "systems/pf2e/icons/default-icons/equipment.svg",
    "name": "Crown of Insight",
    "type": "equipment"
}
