{
    "_id": "hYBZK1kaGPeR85CH",
    "data": {
        "armor": {
            "value": 6
        },
        "armorType": {
            "value": "heavy"
        },
        "baseItem": "full-plate",
        "brokenThreshold": {
            "value": null
        },
        "bulkCapacity": {
            "value": ""
        },
        "check": {
            "value": -3
        },
        "collapsed": {
            "value": false
        },
        "containerId": {
            "value": ""
        },
        "description": {
            "value": "<p>Crafted from black iron, this crude suit of +2 resilient full plate is designed to make you look like a horned demon, with your face peering out of the screaming maw of the beast.</p>\n<p>While wearing the armor, you can attack with the helmet's horns. They are a martial melee weapon with the effects of a <em>+2 weapon potency rune</em>. They deal 2d8 piercing damage and have the deadly d12 trait. On a critical hit with the horns, the target must attempt a DC 30 Fortitude save against the Abyssal plague disease. The horns can't be etched with any runes.</p>\n<p>If you aren't evil, you're drained 2 and can't recover from this condition while wearing <em>demon armor</em>.</p>\n<p><strong>Activate</strong> <span class=\"pf2-icon\">D</span> Command; <strong>Frequency</strong> once per day; <strong>Effect</strong> You cast <em>@Compendium[pf2e.spells-srd.Dimension Door]{Dimension Door}</em>.</p>\n<p><strong>Craft Requirements</strong> You are evil; supply one casting of <em>dimension door</em>.</p>"
        },
        "dex": {
            "value": 0
        },
        "equipped": {
            "value": false
        },
        "equippedBulk": {
            "value": "4"
        },
        "group": {
            "value": "plate"
        },
        "hardness": {
            "value": null
        },
        "hp": {
            "value": null
        },
        "identification": {
            "misidentified": {},
            "status": "identified",
            "unidentified": {
                "data": {
                    "description": {
                        "value": ""
                    }
                },
                "img": "",
                "name": ""
            }
        },
        "invested": {
            "value": false
        },
        "level": {
            "value": 13
        },
        "maxHp": {
            "value": null
        },
        "negateBulk": {
            "value": "0"
        },
        "potency": {},
        "potencyRune": {
            "value": 2
        },
        "preciousMaterial": {
            "value": ""
        },
        "preciousMaterialGrade": {
            "value": ""
        },
        "price": {
            "value": "2,500 gp"
        },
        "propertyRune1": {
            "value": ""
        },
        "propertyRune2": {
            "value": ""
        },
        "propertyRune3": {
            "value": ""
        },
        "propertyRune4": {
            "value": ""
        },
        "quantity": {
            "value": 1
        },
        "resiliencyRune": {
            "value": "resilient"
        },
        "rules": [],
        "size": {
            "value": "med"
        },
        "source": {
            "value": "Pathfinder Core Rulebook"
        },
        "speed": {
            "value": -10
        },
        "stackGroup": {
            "value": ""
        },
        "strength": {
            "value": 18
        },
        "traits": {
            "custom": "",
            "rarity": {
                "value": "common"
            },
            "value": [
                "bulwark",
                "divine",
                "evil",
                "invested",
                "necromancy"
            ]
        },
        "usage": {
            "value": "wornarmor"
        },
        "weight": {
            "value": "5"
        }
    },
    "effects": [],
    "flags": {},
    "img": "systems/pf2e/icons/equipment/armor/specific-magic-armor/demon-armor.webp",
    "name": "Demon Armor",
    "type": "armor"
}
