{
    "_id": "xVtyaEnYZ1aJT4ki",
    "data": {
        "activation": {
            "condition": "",
            "cost": 0,
            "type": ""
        },
        "autoDestroy": {
            "_deprecated": true,
            "value": true
        },
        "autoUse": {
            "_deprecated": true,
            "value": true
        },
        "baseItem": null,
        "brokenThreshold": {
            "value": 0
        },
        "bulkCapacity": {
            "value": ""
        },
        "charges": {
            "_deprecated": true,
            "max": 1,
            "value": 1
        },
        "collapsed": {
            "value": false
        },
        "consumableType": {
            "value": "potion"
        },
        "consume": {
            "_deprecated": true,
            "value": ""
        },
        "containerId": {
            "value": ""
        },
        "description": {
            "value": "<p><strong>Activate</strong> <span class=\"pf2-icon\">A</span> Interact</p>\n<hr />\n<p>When created, this mutigen is attuned to one of four energy types: acid, cold, electricity, or fire. When consumed, the mutagen suffuses your body with energy that spills out whenever you attack. At higher levels, it can even grant you the ability to unleash the energy in controlled bursts.</p>\n<p><strong>Benefit</strong> You gain resistance 15 to the attuned energy type. Whenever you score a hit with a melee weapon, add [[/r 1d6]] damage to the attuned energy type. In addition, you can end the benefits of this mutagen to unleash a 30-foot cone of energy that deals [[/r 2d6]] damage of the attuned type for every full 10 minutes of duration remaining (<span data-pf2-check=\"reflex\" data-pf2-dc=\"25\" data-pf2-traits=\"alchemical,consumable,elixir,mutagen,polymorph\" data-pf2-label=\"Greater Energy Mutagen DC\" data-pf2-show-dc=\"gm\">basic Reflex</span> save).</p>\n<p><strong>Drawback</strong> You gain weakness 5 to the other three energy types.</p>\n<p><strong>Duration</strong> 1 hour.</p>"
        },
        "duration": {
            "units": "",
            "value": null
        },
        "equipped": {
            "value": false
        },
        "equippedBulk": {
            "value": ""
        },
        "hardness": {
            "value": 0
        },
        "hp": {
            "value": 0
        },
        "identification": {
            "misidentified": {},
            "status": "identified",
            "unidentified": {
                "data": {
                    "description": {
                        "value": ""
                    }
                },
                "img": "",
                "name": ""
            }
        },
        "level": {
            "value": 11
        },
        "maxHp": {
            "value": 0
        },
        "negateBulk": {
            "value": "0"
        },
        "preciousMaterial": {
            "value": ""
        },
        "preciousMaterialGrade": {
            "value": ""
        },
        "price": {
            "value": "300 gp"
        },
        "quantity": {
            "value": 1
        },
        "range": {
            "long": null,
            "units": "",
            "value": null
        },
        "rules": [],
        "size": {
            "value": "med"
        },
        "source": {
            "value": "Pathfinder Adventure: The Fall of Plaguestone"
        },
        "spell": {
            "data": null,
            "heightenedLevel": null
        },
        "stackGroup": {
            "value": ""
        },
        "target": {
            "type": "",
            "units": "",
            "value": null
        },
        "traits": {
            "custom": "",
            "rarity": {
                "value": "uncommon"
            },
            "value": [
                "alchemical",
                "consumable",
                "elixir",
                "mutagen",
                "polymorph"
            ]
        },
        "usage": {
            "value": "held-in-one-hand"
        },
        "uses": {
            "autoDestroy": true,
            "autoUse": true,
            "max": 0,
            "per": null,
            "value": 0
        },
        "weight": {
            "value": "L"
        }
    },
    "effects": [],
    "flags": {},
    "img": "systems/pf2e/icons/equipment/alchemical-items/alchemical-elixirs/energy-mutagen.webp",
    "name": "Energy Mutagen (Greater)",
    "type": "consumable"
}
