{
    "_id": "2ovu1AioLLff9p8w",
    "data": {
        "baseItem": null,
        "brokenThreshold": {
            "value": 0
        },
        "bulkCapacity": {
            "value": ""
        },
        "collapsed": {
            "value": false
        },
        "containerId": {
            "value": null
        },
        "description": {
            "value": "<p>Hauling weapons are adept at moving creatures around the battlefield after a successful attack.</p>\n<p><strong>Activate</strong> <span class=\"pf2-icon\">R</span> Command;</p>\n<p><strong>Frequency</strong> once per hour;</p>\n<p><strong>Trigger</strong> You succeed at an attack roll to Strike with a weapon with the hauling rune;</p>\n<p><strong>Effect</strong> The target must succeed at a <span data-pf2-check=\"reflex\" data-pf2-traits=\"evocation,magical\" data-pf2-label=\"Hauling Rune DC\" data-pf2-dc=\"20\" data-pf2-show-dc=\"gm\">Reflex</span> save or be moved 5 feet in a direction you choose. This is forced movement.</p>"
        },
        "equipped": {
            "value": false
        },
        "equippedBulk": {
            "value": ""
        },
        "hardness": {
            "value": 0
        },
        "hp": {
            "value": 0
        },
        "identification": {
            "misidentified": {},
            "status": "identified",
            "unidentified": {
                "data": {
                    "description": {
                        "value": ""
                    }
                },
                "img": "",
                "name": ""
            }
        },
        "invested": {
            "value": null
        },
        "level": {
            "value": 6
        },
        "maxHp": {
            "value": 0
        },
        "negateBulk": {
            "value": "0"
        },
        "preciousMaterial": {
            "value": null
        },
        "preciousMaterialGrade": {
            "value": null
        },
        "price": {
            "value": "225 gp"
        },
        "quantity": {
            "value": 1
        },
        "rules": [],
        "size": {
            "value": "med"
        },
        "source": {
            "value": "Pathfinder Lost Omens: The Grand Bazaar"
        },
        "stackGroup": {
            "value": ""
        },
        "traits": {
            "custom": "",
            "rarity": {
                "value": "uncommon"
            },
            "value": [
                "evocation",
                "magical"
            ]
        },
        "usage": {
            "value": "etched-onto-a-weapon"
        },
        "weight": {
            "value": "-"
        }
    },
    "effects": [],
    "flags": {},
    "img": "systems/pf2e/icons/equipment/runes/weapon-property-runes/weapon-property-runes.webp",
    "name": "Hauling",
    "type": "equipment"
}
