{
    "_id": "ws3OXRgAawwYIKK6",
    "data": {
        "activation": {
            "condition": "",
            "cost": 0,
            "type": ""
        },
        "autoDestroy": {
            "_deprecated": true,
            "value": true
        },
        "autoUse": {
            "_deprecated": true,
            "value": true
        },
        "baseItem": null,
        "brokenThreshold": {
            "value": 0
        },
        "bulkCapacity": {
            "value": ""
        },
        "charges": {
            "_deprecated": true,
            "max": "1",
            "value": "1"
        },
        "collapsed": {
            "value": false
        },
        "consumableType": {
            "value": "poison"
        },
        "consume": {
            "_deprecated": true,
            "value": null
        },
        "containerId": {
            "value": ""
        },
        "description": {
            "value": "<p><strong>Activate</strong> <span class=\"pf2-icon\">1</span> Interact;</p>\n<p>This clear, tasteless tar causes the victim to emit waves of harmful mental energy that repel other creatures. Desperate users might consume this poison to keep enemies at bay despite the poison's debilitating effects. While you're @Compendium[pf2e.conditionitems.Stupefied]{Stupefied} from this poison, a creature that starts its turn within 10 feet of you or approaches within 10 feet of you must attempt a <span data-pf2-check=\"will\" data-pf2-dc=\"35\" data-pf2-traits=\"divine,ingested,poison\" data-pf2-label=\"Repulsion Resin DC\" data-pf2-show-dc=\"gm\">Will</span> saving throw. On a failure, the creature can't voluntarily move closer to you; this is a mental effect. Once the approaching creature has attempted to save, it uses the same result for all saves from that dose of repulsion resin.</p>\n<hr />\n<p><strong>Saving Throw</strong> <span data-pf2-check=\"fortitude\" data-pf2-dc=\"38\" data-pf2-traits=\"divine,ingested,poison\" data-pf2-label=\"Repulsion Resin DC\" data-pf2-show-dc=\"gm\">Fortitude</span>;</p>\n<p><strong>Onset</strong> 10 minutes;</p>\n<p><strong>Maximum Duration</strong> 6 minutes;</p>\n<p><strong>Stage 1</strong> [[/r {12d6}[mental]]]{12d6 mental damage} and stupefied 1 (1 minute);</p>\n<p><strong>Stage 2</strong> [[/r {16d6}[poison]]]{16d6 poison damage} and stupefied 1 (1 minute);</p>\n<p><strong>Stage 3</strong> [[/r {20d6}[poison]]]{20d6 poison damage} and stupefied 2 (1 minute)</p>\n<hr />\n<p><strong>Craft Requirements</strong> Supply one casting of <em>@Compendium[pf2e.spells-srd.Repulsion]{Repulsion}</em>.</p>"
        },
        "duration": {
            "units": "",
            "value": null
        },
        "equipped": {
            "value": false
        },
        "equippedBulk": {
            "value": ""
        },
        "hardness": {
            "value": 0
        },
        "hp": {
            "value": 0
        },
        "identification": {
            "misidentified": {},
            "status": "identified",
            "unidentified": {
                "data": {
                    "description": {
                        "value": ""
                    }
                },
                "img": "",
                "name": ""
            }
        },
        "level": {
            "value": 16
        },
        "maxHp": {
            "value": 0
        },
        "negateBulk": {
            "value": "0"
        },
        "preciousMaterial": {
            "value": ""
        },
        "preciousMaterialGrade": {
            "value": ""
        },
        "price": {
            "value": "1,650 gp"
        },
        "quantity": {
            "value": 1
        },
        "range": {
            "long": null,
            "units": "",
            "value": null
        },
        "rules": [],
        "size": {
            "value": "med"
        },
        "source": {
            "value": "Pathfinder #160: Assault on Hunting Lodge Seven"
        },
        "spell": {
            "data": null,
            "heightenedLevel": null
        },
        "stackGroup": {
            "value": ""
        },
        "target": {
            "type": "",
            "units": "",
            "value": null
        },
        "traits": {
            "custom": "",
            "rarity": {
                "value": "uncommon"
            },
            "value": [
                "consumable",
                "divine",
                "ingested",
                "poison"
            ]
        },
        "usage": {
            "value": "held-in-one-hand"
        },
        "uses": {
            "autoDestroy": true,
            "autoUse": true,
            "max": 0,
            "per": null,
            "value": 0
        },
        "weight": {
            "value": "L"
        }
    },
    "effects": [],
    "flags": {},
    "img": "systems/pf2e/icons/equipment/alchemical-items/alchemical-poisons/repulsion-resin.webp",
    "name": "Repulsion Resin",
    "type": "consumable"
}
