{
    "_id": "nz8Cx3SiRWANdlJE",
    "data": {
        "MAP": {
            "value": ""
        },
        "baseItem": null,
        "bonus": {
            "value": 0
        },
        "bonusDamage": {
            "value": 0
        },
        "brokenThreshold": {
            "value": 0
        },
        "bulkCapacity": {
            "value": ""
        },
        "category": "advanced",
        "collapsed": {
            "value": false
        },
        "containerId": {
            "value": null
        },
        "damage": {
            "damageType": "fire",
            "dice": 1,
            "die": "d8",
            "value": ""
        },
        "description": {
            "value": "<p>In a dense forest within Arcadia, djezet fell from the sky millennia ago, even before Earthfall. While this metal was poisonous to most of the plant life growing nearby, one stubborn rowan tree refused to die, its roots slowly absorbing djezet in small particles from the ground until the entire plant was suffused with it. Fey bowyers discovered the remarkable plant and coaxed it into growing into a very particular shape, its branching trunks woven together into a tightly twisted and naturally rifled barrel.</p>\n<p>One of the legendary star guns, Arcadia's greatest treasures, the <em>Rowan Rifle</em> is a <em>+2 greater fearsome speed greater striking</em> advanced firearm with a range of increment of 300 feet. It deals [[/r {1d8}[fire]]]{1d8 fire damage} and has the backstabber, concussive, and fatal d12 traits. As a star gun, the <em>Rowan Rifle</em> runs on magic, and doesn't use ammunition or black powder.</p>\n<p>As a weapon forged to protect the fey peoples of Arcadia, the <em>Rowan Rifle's</em> enchantments prevent it from ever causing harm to a creature with the fey trait; any attempt to shoot a fey with it results in an automatic misfire. This legendary star gun is as much a badge of office as a weapon, as it denotes dominion over all Briarbough. If the <em>Rowan Rifle's</em> wielder is fey, or if they were specifically given the <em>Rowan Rifle</em> by a fey creature who recognized them as a worthy champion, they can use the following activations.</p>\n<hr />\n<p><strong>Activate</strong> <span class=\"pf2-icon\">1</span> envision;</p>\n<p><strong>Effect</strong> You will the <em>Rowan Rifle</em> to change the energy it fires from the white-hot energy of summer that glows like a star to the shivering chill of winter, the crackling electricity of the storm, or even the sonic vibrations of a roar. The <em>Rowan Rifle's</em> damage type changes from its current damage type to cold, electricity, fire, or sonic. On the next sunrise, the <em>Rowan Rifle</em> returns to dealing fire damage.</p>\n<p>@Compendium[pf2e.equipment-effects.Effect: Rowan Rifle (Cold)]{Effect: Rowan Rifle (Cold)}</p>\n<p>@Compendium[pf2e.equipment-effects.Effect: Rowan Rifle (Electricity)]{Effect: Rowan Rifle (Electricity)}</p>\n<p>@Compendium[pf2e.equipment-effects.Effect: Rowan Rifle (Sonic)]{Effect: Rowan Rifle (Sonic)}</p>\n<hr />\n<p><strong>Activate</strong> <span class=\"pf2-icon\">1</span> command, Interact;</p>\n<p><strong>Effect</strong> The <em>Rowan Rifle</em> fires a @Template[type:line|distance:60] of liquid djezet that wraps around all creatures in the affected area before hardening, which impedes them with metallic vines unless the affected creature succeeds at a <span data-pf2-check=\"reflex\" data-pf2-traits=\"enchantment,magical,primal\" data-pf2-label=\"Rowan Rifle Vines DC\" data-pf2-dc=\"35\" data-pf2-show-dc=\"gm\">Reflex</span> save. A creature who fails the save takes a -15-foot circumstance penalty to their Speeds, and a creature who critically fails is @Compendium[pf2e.conditionitems.Immobilized]{Immobilized}. A creature who succeeds at a DC 35 @Compendium[pf2e.actionspf2e.Escape]{Escape} check ends this effect. Otherwise, the djezet vines last for 10 minutes before crumbling away.</p>\n<hr />\n<p><strong>Activate</strong> command, envision, Interact (1 minute);</p>\n<p><strong>Frequency</strong> once per 10 minutes;</p>\n<p><strong>Effect</strong> You hold aloft the <em>Rowan Rifle</em> and step into a tree in Briarbough, and you tree stride to another tree in Briarbough.</p>"
        },
        "equipped": {
            "value": false
        },
        "equippedBulk": {
            "value": ""
        },
        "group": "firearm",
        "hands": {
            "value": false
        },
        "hardness": {
            "value": 0
        },
        "hp": {
            "value": 0
        },
        "identification": {
            "misidentified": {},
            "status": "identified",
            "unidentified": {
                "data": {
                    "description": {
                        "value": ""
                    }
                },
                "img": "",
                "name": ""
            }
        },
        "invested": {
            "value": null
        },
        "level": {
            "value": 16
        },
        "maxHp": {
            "value": 0
        },
        "negateBulk": {
            "value": "0"
        },
        "potencyRune": {
            "value": 2
        },
        "preciousMaterial": {
            "value": null
        },
        "preciousMaterialGrade": {
            "value": null
        },
        "price": {
            "value": "14000 gp"
        },
        "property1": {
            "critDamage": "",
            "critDamageType": "",
            "critDice": 0,
            "critDie": "",
            "criticalConditionType": "",
            "criticalConditionValue": null,
            "damageType": "",
            "dice": 0,
            "die": "",
            "strikeConditionType": "",
            "strikeConditionValue": null,
            "value": ""
        },
        "propertyRune1": {
            "value": "greaterFearsome"
        },
        "propertyRune2": {
            "value": "speed"
        },
        "propertyRune3": {
            "value": null
        },
        "propertyRune4": {
            "value": null
        },
        "quantity": {
            "value": 1
        },
        "range": null,
        "reload": {
            "value": ""
        },
        "rules": [],
        "size": {
            "value": "med"
        },
        "source": {
            "value": "Pathfinder Guns & Gears"
        },
        "specific": {
            "material": null,
            "price": "14000 gp",
            "runes": {
                "potency": 2,
                "striking": "greaterStriking"
            },
            "value": true
        },
        "splashDamage": {
            "value": 0
        },
        "stackGroup": {
            "value": ""
        },
        "strikingRune": {
            "value": "greaterStriking"
        },
        "traits": {
            "custom": "",
            "rarity": {
                "value": "common"
            },
            "value": [
                "backstabber",
                "concussive",
                "fatal-d12"
            ]
        },
        "usage": {
            "value": "held-in-one-hand"
        },
        "weight": {
            "value": "-"
        }
    },
    "effects": [],
    "flags": {},
    "img": "systems/pf2e/icons/default-icons/weapon.svg",
    "name": "Rowan Rifle",
    "type": "weapon"
}
