{
    "_id": "kNvo4FNaiQRnZfO7",
    "data": {
        "MAP": {
            "value": ""
        },
        "baseItem": "staff",
        "bonus": {
            "value": 0
        },
        "bonusDamage": {
            "value": 0
        },
        "brokenThreshold": {
            "value": 0
        },
        "bulkCapacity": {
            "value": ""
        },
        "category": "simple",
        "collapsed": {
            "value": false
        },
        "containerId": {
            "value": ""
        },
        "damage": {
            "damageType": "bludgeoning",
            "dice": 1,
            "die": "d4",
            "value": ""
        },
        "description": {
            "value": "<p>This staff is tapered at the base and carved into a gem-studded twist at the top. While wielding the staff, you gain a +2 circumstance bonus to checks to identify evocation magic.</p>\n<p><strong>Activate</strong> Cast a Spell</p>\n<p><strong>Effect</strong> You expend a number of charges from the staff to cast a spell from its list.</p>\n<ul>\n<li><strong>Cantrip</strong> <em>@Compendium[pf2e.spells-srd.Ray of Frost]{Ray of Frost}</em></li>\n<li><strong>1st</strong> <em>@Compendium[pf2e.spells-srd.Magic Missile]{Magic Missile}</em>, <em>@Compendium[pf2e.spells-srd.Shocking Grasp]{Shocking Grasp}</em></li>\n<li><strong>2nd</strong> <em>@Compendium[pf2e.spells-srd.Acid Arrow]{Acid Arrow}</em>, <em>@Compendium[pf2e.spells-srd.Glitterdust]{Glitterdust}</em></li>\n<li><strong>3rd</strong> <em>@Compendium[pf2e.spells-srd.Lightning Bolt]{Lightning Bolt}</em>, <em>@Compendium[pf2e.spells-srd.Magic Missile]{Magic Missile}</em></li>\n<li><strong>4th</strong> <em>@Compendium[pf2e.spells-srd.Fireball]{Fireball}</em>, <em>@Compendium[pf2e.spells-srd.Weapon Storm]{Weapon Storm}</em></li>\n<li><strong>5th</strong> <em>@Compendium[pf2e.spells-srd.Cone of Cold]{Cone of Cold}</em>, <em>@Compendium[pf2e.spells-srd.Magic Missile]{Magic Missile}</em></li>\n<li><strong>6th</strong> <em>@Compendium[pf2e.spells-srd.Chain Lightning]{Chain Lightning}</em>, <em>@Compendium[pf2e.spells-srd.Wall of Force]{Wall of Force}</em></li>\n</ul>\n<p><strong>Craft Requirements</strong> Supply one casting of all listed levels of all listed spells.</p>\n<hr />\n<p>Automatically applied effects:</p>\n<ul>\n<li>+2 circumstance bonus to checks to identify evocation magic</li>\n</ul>"
        },
        "equipped": {
            "value": false
        },
        "equippedBulk": {
            "value": ""
        },
        "group": "club",
        "hands": {
            "value": ""
        },
        "hardness": {
            "value": 0
        },
        "hp": {
            "value": 0
        },
        "identification": {
            "misidentified": {},
            "status": "identified",
            "unidentified": {
                "data": {
                    "description": {
                        "value": ""
                    }
                },
                "img": "",
                "name": ""
            }
        },
        "invested": {
            "value": false
        },
        "level": {
            "value": 14
        },
        "maxHp": {
            "value": 0
        },
        "negateBulk": {
            "value": "0"
        },
        "potencyRune": {
            "value": null
        },
        "preciousMaterial": {
            "value": ""
        },
        "preciousMaterialGrade": {
            "value": ""
        },
        "price": {
            "value": "4,000 gp"
        },
        "property1": {
            "critDamage": "",
            "critDamageType": "",
            "critDice": null,
            "critDie": "",
            "criticalConditionType": "",
            "criticalConditionValue": null,
            "damageType": "",
            "dice": null,
            "die": "",
            "strikeConditionType": "",
            "strikeConditionValue": null,
            "value": ""
        },
        "propertyRune1": {
            "value": ""
        },
        "propertyRune2": {
            "value": ""
        },
        "propertyRune3": {
            "value": ""
        },
        "propertyRune4": {
            "value": ""
        },
        "quantity": {
            "value": 1
        },
        "range": null,
        "reload": {
            "value": ""
        },
        "rules": [
            {
                "key": "FlatModifier",
                "label": "Staff of Evocation (identify evocation magic)",
                "predicate": {
                    "all": [
                        "action:identify-magic",
                        "evocation"
                    ]
                },
                "selector": "skill-check",
                "type": "circumstance",
                "value": 2
            }
        ],
        "size": {
            "value": "med"
        },
        "source": {
            "value": "Pathfinder Core Rulebook"
        },
        "splashDamage": {
            "value": 0
        },
        "stackGroup": {
            "value": ""
        },
        "strikingRune": {
            "value": ""
        },
        "traits": {
            "custom": "",
            "rarity": {
                "value": "common"
            },
            "value": [
                "evocation",
                "magical",
                "staff",
                "two-hand-d8"
            ]
        },
        "usage": {
            "value": "held-in-one-hand"
        },
        "weight": {
            "value": "1"
        }
    },
    "effects": [],
    "flags": {},
    "img": "systems/pf2e/icons/equipment/staves/staff-of-evocation.webp",
    "name": "Staff of Evocation (Major)",
    "type": "weapon"
}
