{
    "_id": "dRVDcmkaB2p8zPcs",
    "data": {
        "baseItem": null,
        "brokenThreshold": {
            "value": 0
        },
        "bulkCapacity": {
            "value": ""
        },
        "collapsed": {
            "value": false
        },
        "containerId": {
            "value": ""
        },
        "description": {
            "value": "<p>Woven from swaths of rich brocade silk and embroidered with ancient Azlanti script in golden thread, this stole imparts a noble appearance to even the homeliest of individuals when draped over the shoulders.</p>\n<p>While wearing a stole of civility, you receive a +2 item bonus to Diplomacy checks to Make an Impression with humans or Make a Request of humans, and a +2 item bonus to Intimidation checks against humans.</p>\n<p>The stole also grants you full understanding of the Azlanti language.</p>\n<hr />\n<p><strong>Activate</strong> <span class=\"pf2-icon\">A</span> envision</p>\n<p><strong>Frequency</strong> once per day</p>\n<p><strong>Requirements</strong> you are a human</p>\n<p><strong>Effect</strong> You gain 10 temporary Hit Points, which last for 10 minutes.</p>\n<p>@Compendium[pf2e.equipment-effects.Effect: Stole of Civility]{Effect: Stole of Civility}</p>\n<hr />\n<p>Automatically applied effects:</p>\n<ul>\n<li>a +2 item bonus to Diplomacy checks to Make an Impression with humans or Make a Request of humans</li>\n<li>a +2 item bonus to Intimidation checks against humans.</li>\n</ul>"
        },
        "equipped": {
            "value": false
        },
        "equippedBulk": {
            "value": ""
        },
        "hardness": {
            "value": 0
        },
        "hp": {
            "value": 0
        },
        "identification": {
            "misidentified": {},
            "status": "identified",
            "unidentified": {
                "data": {
                    "description": {
                        "value": ""
                    }
                },
                "img": "",
                "name": ""
            }
        },
        "invested": {
            "value": false
        },
        "level": {
            "value": 9
        },
        "maxHp": {
            "value": 0
        },
        "negateBulk": {
            "value": ""
        },
        "preciousMaterial": {
            "value": ""
        },
        "preciousMaterialGrade": {
            "value": ""
        },
        "price": {
            "value": "700 gp"
        },
        "quantity": {
            "value": 1
        },
        "rules": [
            {
                "key": "ToggleProperty",
                "label": "Target is human (Stole of Civility)",
                "property": "flags.pf2e.rollOptions.skill-check.target:human"
            },
            {
                "key": "FlatModifier",
                "label": "Stole of Civility (humans)",
                "predicate": {
                    "all": [
                        "target:human"
                    ]
                },
                "selector": "intimidation",
                "type": "item",
                "value": 2
            },
            {
                "key": "FlatModifier",
                "label": "Stole of Civility (Impress or Request humans)",
                "predicate": {
                    "all": [
                        "target:human"
                    ],
                    "any": [
                        "action:make-a-request",
                        "action:make-an-impression"
                    ]
                },
                "selector": "diplomacy",
                "type": "item",
                "value": 2
            }
        ],
        "size": {
            "value": "med"
        },
        "source": {
            "value": "Pathfinder #152: Legacy of the Lost God"
        },
        "stackGroup": {
            "value": ""
        },
        "traits": {
            "custom": "",
            "rarity": {
                "value": "uncommon"
            },
            "value": [
                "enchantment",
                "invested",
                "magical"
            ]
        },
        "usage": {
            "value": "held-in-one-hand"
        },
        "weight": {
            "value": "L"
        }
    },
    "effects": [],
    "flags": {},
    "img": "systems/pf2e/icons/equipment/worn-items/other-worn-items/stole-of-civility.webp",
    "name": "Stole of Civility",
    "type": "equipment"
}
