{
    "_id": "Gywa8GSJtDCPSjbt",
    "data": {
        "attributes": {
            "ac": {
                "value": 24
            },
            "hardness": 0,
            "hasHealth": true,
            "hp": {
                "details": "",
                "max": 54,
                "temp": 0,
                "value": 54
            },
            "stealth": {
                "details": "<p>(Expert)</p>",
                "value": 15
            }
        },
        "creatureType": "",
        "customModifiers": {},
        "details": {
            "description": "<p>A ghostly pair of teenagers-the Xarwin twins-cry out in pain as their brains are replaced into their heads. As if their trauma reverses, the initial pain fades and they express the desire to play.</p>",
            "disable": "<p>DC 21 Performance (trained) to distract the haunt and entertain it until it becomes soothed or DC 25 Religion (trained) to exorcise the haunt</p>",
            "isComplex": true,
            "level": {
                "value": 6
            },
            "reset": "<p>The haunt resets automatically 1 hour after it's&nbsp;defeated or after no living creatures remain in the area to play with. Removing Marney's and Mira's brains from the brain collector statue in area E9 destroys the haunt.</p>",
            "routine": "<p>(2 actions) The architect (Mira Xarwin) uses Shackled Memories to cause a strange, house-like cage of solid ectoplasm to spring up around a randomly determined target. This house bears an uncanny resemblance to the home the target grew up in. The hunter (Marney Xarwin) then attempts a hunting shot Strike at that target.</p>"
        },
        "saves": {
            "fortitude": {
                "saveDetail": "",
                "value": 11
            },
            "reflex": {
                "saveDetail": "",
                "value": 17
            },
            "will": {
                "saveDetail": "",
                "value": 15
            }
        },
        "source": {
            "value": "Pathfinder Adventure: Malevolence"
        },
        "statusEffects": [],
        "traits": {
            "ci": [],
            "di": {
                "custom": "",
                "selected": {},
                "value": [
                    "precision",
                    "critical-hits",
                    "object-immunities"
                ]
            },
            "dr": [],
            "dv": [
                {
                    "label": "Positive",
                    "type": "positive",
                    "value": "9"
                }
            ],
            "rarity": {
                "value": "common"
            },
            "size": {
                "value": "med"
            },
            "traits": {
                "custom": "",
                "value": [
                    "haunt"
                ]
            }
        }
    },
    "effects": [],
    "flags": {},
    "img": "systems/pf2e/icons/default-icons/hazard.svg",
    "items": [
        {
            "_id": "oK4LvqyDL68kzmhe",
            "data": {
                "actionCategory": {
                    "value": "offensive"
                },
                "actionType": {
                    "value": "reaction"
                },
                "actions": {
                    "value": null
                },
                "description": {
                    "value": "<p data-visibility=\"gm\"><strong>Trigger</strong> One round passes after a living creature opens the door to either of the children's rooms;</p>\n<p><strong>Effect</strong> Both doors to the rooms open violently as the PCs experience visions of the twins having the tops of their heads cut away by unseen blades, followed by the ghastly sight of brains being placed into the empty skulls within. All creatures in either C14a, C14b, or in the hallway outside the rooms must attempt a <span data-pf2-check=\"will\" data-pf2-traits=\"mental,necromancy\" data-pf2-label=\"Brain Pain DC\" data-pf2-dc=\"24\" data-pf2-show-dc=\"gm\">Will</span> save. The haunt then rolls initiative.</p>\n<hr />\n<p><strong>Critical Success</strong> The creature is unaffected.</p>\n<p><strong>Success</strong> The creature is @Compendium[pf2e.conditionitems.Sickened]{Sickened 1} by the pain.</p>\n<p><strong>Failure</strong> The creature takes [[/r {2d8+9}[mental]]]{2d8+9 mental damage} and increases their malevolence value by 1.</p>\n<p><strong>Critical Failure</strong> The creature takes [[/r {4d8+9}[mental]]]{4d8+9 mental damage}, is @Compendium[pf2e.conditionitems.Stunned]{Stunned 1} by the pain, and increases their malevolence value by 2.</p>"
                },
                "requirements": {
                    "value": ""
                },
                "rules": [],
                "slug": null,
                "source": {
                    "value": ""
                },
                "traits": {
                    "custom": "",
                    "rarity": {
                        "value": "common"
                    },
                    "value": [
                        "mental",
                        "necromancy"
                    ]
                },
                "trigger": {
                    "value": ""
                },
                "weapon": {
                    "value": ""
                }
            },
            "effects": [],
            "flags": {},
            "img": "systems/pf2e/icons/actions/Reaction.webp",
            "name": "Brain Pain",
            "sort": 0,
            "type": "action"
        },
        {
            "_id": "32fQ0dIndWnIstKW",
            "data": {
                "actionCategory": {
                    "value": "offensive"
                },
                "actionType": {
                    "value": "action"
                },
                "actions": {
                    "value": null
                },
                "description": {
                    "value": "<p>The target believes a miniature version of their childhood home has built up around them, locking them in place. The target must attempt a <span data-pf2-check=\"will\" data-pf2-label=\"Shackled Memories DC\" data-pf2-dc=\"24\" data-pf2-show-dc=\"gm\">Will</span> save.</p>\n<div data-visibility=\"gm\"><hr />\n<p><strong>Critical Success</strong> The target is unaffected and is temporarily immune to Shackled Memories for 24 hours.</p>\n<p><strong>Success</strong> The target is @Compendium[pf2e.conditionitems.Flat-Footed]{Flat-Footed} until the end of their next turn.</p>\n<p><strong>Failure</strong> The target is flat-footed and @Compendium[pf2e.conditionitems.Immobilized]{Immobilized} until the end of their next turn.</p>\n<p><strong>Critical Failure</strong> The target is @Compendium[pf2e.conditionitems.Restrained]{Restrained} for 1 minute or until they Escape.</p>\n</div>"
                },
                "requirements": {
                    "value": ""
                },
                "rules": [],
                "slug": null,
                "source": {
                    "value": ""
                },
                "traits": {
                    "custom": "",
                    "rarity": {
                        "value": "common"
                    },
                    "value": []
                },
                "trigger": {
                    "value": ""
                },
                "weapon": {
                    "value": ""
                }
            },
            "effects": [],
            "flags": {},
            "img": "systems/pf2e/icons/actions/OneAction.webp",
            "name": "Shackled Memories",
            "sort": 0,
            "type": "action"
        },
        {
            "_id": "oxpej8ulU4Gn399c",
            "data": {
                "attack": {
                    "value": ""
                },
                "attackEffects": {
                    "custom": "",
                    "value": [
                        "1d8-persistent-mental-damage"
                    ]
                },
                "bonus": {
                    "value": 17
                },
                "damageRolls": {
                    "cfe6ome96onmcasv6rpy": {
                        "damage": "3d8",
                        "damageType": "piercing"
                    }
                },
                "description": {
                    "value": "<p>[[/r 1d8 #persistent mental]] @Compendium[pf2e.conditionitems.Persistent Damage]{Persistent Mental Damage} as the target imagines they are bleeding to death.</p>"
                },
                "rules": [],
                "slug": null,
                "source": {
                    "value": ""
                },
                "traits": {
                    "custom": "",
                    "rarity": {
                        "value": "common"
                    },
                    "value": []
                },
                "weaponType": {
                    "value": "ranged"
                }
            },
            "effects": [],
            "flags": {},
            "img": "systems/pf2e/icons/default-icons/melee.svg",
            "name": "Hunting Shot",
            "sort": 0,
            "type": "melee"
        },
        {
            "_id": "LPPvSs0hxEr1SjNX",
            "data": {
                "actionCategory": {
                    "value": "offensive"
                },
                "actionType": {
                    "value": "passive"
                },
                "actions": {
                    "value": null
                },
                "description": {
                    "value": ""
                },
                "requirements": {
                    "value": ""
                },
                "rules": [],
                "slug": null,
                "source": {
                    "value": ""
                },
                "traits": {
                    "custom": "",
                    "rarity": {
                        "value": "common"
                    },
                    "value": []
                },
                "trigger": {
                    "value": ""
                },
                "weapon": {
                    "value": ""
                }
            },
            "effects": [],
            "flags": {},
            "img": "systems/pf2e/icons/actions/Passive.webp",
            "name": "1d8 Persistent Mental Damage",
            "sort": 0,
            "type": "action"
        }
    ],
    "name": "Architect and Hunter",
    "token": {
        "disposition": 0,
        "height": 1,
        "img": "systems/pf2e/icons/default-icons/hazard.svg",
        "name": "Architect and Hunter",
        "width": 1
    },
    "type": "hazard"
}
