{
    "_id": "cWenvBwMHSnN0sHV",
    "data": {
        "attributes": {
            "ac": {
                "value": 13
            },
            "hardness": 7,
            "hasHealth": true,
            "hp": {
                "details": "",
                "max": 24,
                "temp": 0,
                "value": 24
            },
            "stealth": {
                "details": "",
                "value": 4
            }
        },
        "creatureType": "",
        "details": {
            "description": "<p>A burst of abyssal energy ignites the sap in a nearby bruorsivi, which explodes in a burst of fiery splinters.</p>",
            "disable": "<p>DC 17 Arcana, Occultism, or Religion to magically alter the runes, or DC 20 Thievery to physically alter them. A PC that can read Abyssal or Cyclops is better able to identify key runes, gaining a +1 circumstance bonus to these check (+2 if they speak both).</p>\n<p>Each check requires two actions, and disabling the monolith requires three successful checks. A PC that critically succeeds earns two success. On a failed check, the attempting PC is exposed to the burning flames wreathing the monolith, taking [[/r {2d6}[fire]]]{2d6 fire damage}(<span data-pf2-check=\"reflex\" data-pf2-traits=\"damaging-effect\" data-pf2-label=\"Explosive Monolith DC\" data-pf2-dc=\"17\">basic Reflex</span>).</p>",
            "isComplex": true,
            "level": {
                "value": 1
            },
            "reset": "",
            "routine": "<p><span class=\"pf2-icon\">A</span> On the hazard's turn, randomly select a PC within 40 feet of the monolith. A tree near that PC explodes in a 10-foot burst, dealing [[/r {1d6}[piercing]]]{1d6 piercing damage} and [[/r {1d6}[fire]]]{1d6 fire damage}. Each creature in the area must attempt a <span data-pf2-saving-throw=\"reflex\" data-pf2-traits=\"damaging-effect\" data-pf2-label=\"Explosive Monolith DC\" data-pf2-dc=\"17\">Reflex</span> save.</p>\n<hr />\n<p><strong>Critical Success</strong> The creature takes no damage.</p>\n<p><strong>Success</strong> The creature takes half damage.</p>\n<p><strong>Failure</strong> The creature takes full damage and is @Compendium[pf2e.conditionitems.Dazzled]{Dazzled} for 1 round.</p>\n<p><strong>Critical Failure </strong>The creature takes double damage and is @Compendium[pf2e.conditionitems.Blinded]{Blinded} for 1 round.</p>"
        },
        "saves": {
            "fortitude": {
                "saveDetail": "",
                "value": 11
            },
            "reflex": {
                "saveDetail": "",
                "value": 4
            },
            "will": {
                "saveDetail": "",
                "value": 0
            }
        },
        "source": {
            "value": ""
        },
        "statusEffects": [],
        "traits": {
            "ci": [],
            "di": {
                "custom": "",
                "selected": {},
                "value": [
                    "precision",
                    "critical-hits",
                    "object-immunities"
                ]
            },
            "dr": [],
            "dv": [],
            "rarity": {
                "value": "common"
            },
            "size": {
                "value": "med"
            },
            "traits": {
                "custom": "",
                "value": [
                    "fire",
                    "environmental"
                ]
            }
        }
    },
    "effects": [],
    "flags": {},
    "img": "systems/pf2e/icons/default-icons/hazard.svg",
    "items": [
        {
            "_id": "MmVshWo3qRUeXbet",
            "data": {
                "actionCategory": {
                    "value": ""
                },
                "actionType": {
                    "value": "reaction"
                },
                "actions": {
                    "value": null
                },
                "description": {
                    "value": "<p data-visibility=\"gm\"><strong>Trigger</strong> A creature other than the monolith's guardians approaches within 40 feet of the monolith;</p>\n<p><strong>Effect</strong> the flames wreathing the monolith flare with incandescent light. The triggering creature must attempt a <span data-pf2-check=\"fortitude\" data-pf2-dc=\"17\" data-pf2-label=\"Flares DC\" data-pf2-show-dc=\"gm\">Fortitude</span> save.</p>\n<p>On a failure, the creature is @Compendium[pf2e.conditionitems.Dazzled]{Dazzled} for one round./p&gt;</p>\n<p>On a critical failure, the creature is @Compendium[pf2e.conditionitems.Blinded]{Blinded} for one round, then @Compendium[pf2e.conditionitems.Dazzled]{Dazzled} for one round.</p>\n<p>The hazard rolls initiative.</p>"
                },
                "requirements": {
                    "value": ""
                },
                "rules": [],
                "slug": null,
                "source": {
                    "value": ""
                },
                "traits": {
                    "custom": "",
                    "rarity": {
                        "value": "common"
                    },
                    "value": []
                },
                "trigger": {
                    "value": ""
                },
                "weapon": {
                    "value": ""
                }
            },
            "effects": [],
            "flags": {},
            "img": "systems/pf2e/icons/actions/Reaction.webp",
            "name": "Flares",
            "sort": 100000,
            "type": "action"
        }
    ],
    "name": "Explosive Monolith (3-4)",
    "token": {
        "disposition": 0,
        "height": 1,
        "img": "systems/pf2e/icons/default-icons/hazard.svg",
        "name": "Explosive Monolith",
        "width": 1
    },
    "type": "hazard"
}
