{
    "_id": "9KZRWATLOGP7QGyM",
    "data": {
        "abilities": {
            "cha": {
                "mod": 0
            },
            "con": {
                "mod": 2
            },
            "dex": {
                "mod": 3
            },
            "int": {
                "mod": 0
            },
            "str": {
                "mod": 2
            },
            "wis": {
                "mod": 2
            }
        },
        "attributes": {
            "ac": {
                "details": "",
                "value": 16
            },
            "allSaves": {
                "value": null
            },
            "hp": {
                "details": "",
                "max": 18,
                "temp": 0,
                "value": 18
            },
            "initiative": {
                "ability": "perception"
            },
            "perception": {
                "value": 6
            },
            "shield": {
                "ac": 2,
                "brokenThreshold": 0,
                "hardness": 0,
                "max": 0,
                "value": 0
            },
            "speed": {
                "otherSpeeds": [
                    {
                        "exceptions": "",
                        "label": "Fly",
                        "type": "fly",
                        "value": "15"
                    }
                ],
                "value": "40"
            }
        },
        "details": {
            "alignment": {
                "value": "N"
            },
            "blurb": "",
            "creatureType": "",
            "level": {
                "value": 0
            },
            "privateNotes": "",
            "publicNotes": "<p>Wisps are tiny elemental beings that emerged during the creation of the Elemental Planes. The first wisps roamed the Inner Sphere in shifting symphonies that traded members with their every meeting. These symphonies of free wisps created music out of their combined resonances, but when the evil Elemental Lords realized the value of the wisps' resonance, they captured whole symphonies for use as servants.</p>\n<p>Wisps attune to each other and to those they surround themselves with. This attunement makes them naturally supportive allies. Free wisps still roam the Inner Sphere and the Material Plane, but they're usually shy and hide themselves from strangers. However, they happily offer their service to those who show them kindness. They especially find themselves drawn to spellcasters who practice elemental magic; these wisps usually watch from afar but sometimes approach those who seem safe to become familiars or comrades.</p>\n<p>Free wisps who find one another become close almost immediately. They get especially excited when they find wisps of elements other than their own, showing none of the animosity some elementals exhibit toward other types. Instead, they join in an excited dance, emitting resonances that faintly echo the symphonies of ancient days.</p>\n<hr />\n<p>Fire wisps are sizzling spheres of flame and ash, perpetually crackling and shimmering with heat. They're carefree, boisterous, and quick to action-sometimes recklessly so.</p>",
            "source": {
                "value": "Pathfinder Bestiary 3"
            }
        },
        "resources": {},
        "saves": {
            "fortitude": {
                "saveDetail": "",
                "value": 6
            },
            "reflex": {
                "saveDetail": "",
                "value": 7
            },
            "will": {
                "saveDetail": "",
                "value": 4
            }
        },
        "traits": {
            "attitude": {
                "value": "hostile"
            },
            "ci": [],
            "di": {
                "custom": "",
                "value": [
                    "bleed",
                    "fire",
                    "paralyzed",
                    "poison",
                    "sleep"
                ]
            },
            "dr": [],
            "dv": [
                {
                    "exceptions": "",
                    "label": "Cold",
                    "type": "cold",
                    "value": 2
                },
                {
                    "exceptions": "",
                    "label": "Water",
                    "type": "water",
                    "value": 2
                }
            ],
            "languages": {
                "custom": "",
                "selected": [],
                "value": [
                    "ignan"
                ]
            },
            "rarity": {
                "value": "common"
            },
            "senses": {
                "value": "darkvision, smoke vision"
            },
            "size": {
                "value": "tiny"
            },
            "traits": {
                "custom": "",
                "value": [
                    "elemental",
                    "fire"
                ]
            }
        }
    },
    "effects": [],
    "flags": {},
    "img": "systems/pf2e/icons/default-icons/npc.svg",
    "items": [
        {
            "_id": "o9bdzGDtUTzmMtAv",
            "data": {
                "attack": {
                    "value": ""
                },
                "attackEffects": {
                    "custom": "",
                    "value": []
                },
                "bonus": {
                    "value": 6
                },
                "damageRolls": {
                    "0": {
                        "damage": "1d4",
                        "damageType": "fire"
                    }
                },
                "description": {
                    "value": "<p>[[/r 1 #persistent fire]] @Compendium[pf2e.conditionitems.Persistent Damage]{Persistent Fire Damage}</p>"
                },
                "rules": [],
                "slug": null,
                "source": {
                    "value": ""
                },
                "traits": {
                    "custom": "",
                    "rarity": {
                        "value": "common"
                    },
                    "value": [
                        "reach-10"
                    ]
                },
                "weaponType": {
                    "value": "melee"
                }
            },
            "effects": [],
            "flags": {},
            "img": "systems/pf2e/icons/default-icons/melee.svg",
            "name": "Tendril",
            "sort": 100000,
            "type": "melee"
        },
        {
            "_id": "dzHyKmRIrVao4ke0",
            "data": {
                "actionCategory": {
                    "value": "interaction"
                },
                "actionType": {
                    "value": "passive"
                },
                "actions": {
                    "value": null
                },
                "description": {
                    "value": "<p>@Localize[PF2E.NPC.Abilities.Glossary.Darkvision]</p>"
                },
                "requirements": {
                    "value": ""
                },
                "rules": [],
                "slug": "darkvision",
                "source": {
                    "value": ""
                },
                "traits": {
                    "custom": "",
                    "rarity": {
                        "value": "common"
                    },
                    "value": []
                },
                "trigger": {
                    "value": ""
                },
                "weapon": {
                    "value": ""
                }
            },
            "effects": [],
            "flags": {
                "core": {
                    "sourceId": "Compendium.pf2e.bestiary-ability-glossary-srd.qCCLZhnp2HhP3Ex6"
                }
            },
            "img": "systems/pf2e/icons/default-icons/action.svg",
            "name": "Darkvision",
            "sort": 200000,
            "type": "action"
        },
        {
            "_id": "HTapFz8e3dL6LNJc",
            "data": {
                "actionCategory": {
                    "value": "defensive"
                },
                "actionType": {
                    "value": "passive"
                },
                "actions": {
                    "value": null
                },
                "description": {
                    "value": "<p>The fire wisp ignores the @Compendium[pf2e.conditionitems.Concealed]{Concealed} condition from smoke.</p>"
                },
                "requirements": {
                    "value": ""
                },
                "rules": [],
                "slug": null,
                "source": {
                    "value": ""
                },
                "traits": {
                    "custom": "",
                    "rarity": {
                        "value": "common"
                    },
                    "value": []
                },
                "trigger": {
                    "value": ""
                },
                "weapon": {
                    "value": ""
                }
            },
            "effects": [],
            "flags": {},
            "img": "systems/pf2e/icons/actions/Passive.webp",
            "name": "Smoke Vision",
            "sort": 300000,
            "type": "action"
        },
        {
            "_id": "vpPweRPkFLYzku6Q",
            "data": {
                "actionCategory": {
                    "value": "defensive"
                },
                "actionType": {
                    "value": "passive"
                },
                "actions": {
                    "value": null
                },
                "description": {
                    "value": "<p>@Template[type:emanation|distance:30]{30 Feet} @Compendium[pf2e.bestiary-ability-glossary-srd.Aura]{Aura}</p>\n<hr />\n<p>All wisps vibrate at a frequency attuned to their element, resonating with and empowering all creatures and effects sharing that trait.</p>\n<p>A creature in the area gains a +1 status bonus to attack and damage rolls for effects with the fire trait; a creature with the elemental and fire traits gains this bonus to all attack and damage rolls.</p>"
                },
                "requirements": {
                    "value": ""
                },
                "rules": [],
                "slug": null,
                "source": {
                    "value": ""
                },
                "traits": {
                    "custom": "",
                    "rarity": {
                        "value": "common"
                    },
                    "value": [
                        "aura",
                        "fire"
                    ]
                },
                "trigger": {
                    "value": ""
                },
                "weapon": {
                    "value": ""
                }
            },
            "effects": [],
            "flags": {},
            "img": "systems/pf2e/icons/default-icons/mystery-man.svg",
            "name": "Resonance",
            "sort": 400000,
            "type": "action"
        },
        {
            "_id": "ptpsl6OafcvwkgOx",
            "data": {
                "actionCategory": {
                    "value": "defensive"
                },
                "actionType": {
                    "value": "reaction"
                },
                "actions": {
                    "value": null
                },
                "description": {
                    "value": "<p data-visibility=\"gm\"><strong>Trigger</strong> An ally within 30 feet that benefited from the wisp's resonance in the last hour is targeted by an attack;</p>\n<p><strong>Effect</strong> The wisp detonates itself in a small elemental explosion that gives temporary Hit Points equal to half the wisp's current Hit Points to allies within 30 feet that have benefited from the wisp's resonance in the last hour. These temporary Hit Points last 1 hour.</p>\n<p>A wisp that uses this reaction is permanently destroyed, and it can be restored only by a <em>@Compendium[pf2e.spells-srd.Wish]{Wish}</em> spell or similarly powerful effect. If an ability would prevent the wisp's destruction (for instance, if the wisp is summoned and would merely be dismissed), Accord Essence has no effect.</p>"
                },
                "requirements": {
                    "value": ""
                },
                "rules": [],
                "slug": null,
                "source": {
                    "value": ""
                },
                "traits": {
                    "custom": "",
                    "rarity": {
                        "value": "common"
                    },
                    "value": [
                        "fire"
                    ]
                },
                "trigger": {
                    "value": ""
                },
                "weapon": {
                    "value": ""
                }
            },
            "effects": [],
            "flags": {},
            "img": "systems/pf2e/icons/actions/Reaction.webp",
            "name": "Accord Essence",
            "sort": 500000,
            "type": "action"
        },
        {
            "_id": "9Pg0o9SqvEh925xr",
            "data": {
                "actionCategory": {
                    "value": "offensive"
                },
                "actionType": {
                    "value": "passive"
                },
                "actions": {
                    "value": null
                },
                "description": {
                    "value": "<p>When a fire wisp rolls a critical failure on a check to @Compendium[pf2e.actionspf2e.Aid]{Aid}, they get a failure instead, and when they roll a success, they get a critical success instead.</p>"
                },
                "requirements": {
                    "value": ""
                },
                "rules": [],
                "slug": null,
                "source": {
                    "value": ""
                },
                "traits": {
                    "custom": "",
                    "rarity": {
                        "value": "common"
                    },
                    "value": []
                },
                "trigger": {
                    "value": ""
                },
                "weapon": {
                    "value": ""
                }
            },
            "effects": [],
            "flags": {},
            "img": "systems/pf2e/icons/actions/Passive.webp",
            "name": "In Concert",
            "sort": 600000,
            "type": "action"
        },
        {
            "_id": "UIPkXjxUub552359",
            "data": {
                "description": {
                    "value": ""
                },
                "item": {
                    "value": 0
                },
                "mod": {
                    "value": 5
                },
                "proficient": {
                    "value": 0
                },
                "rules": [],
                "slug": null,
                "source": {
                    "value": ""
                },
                "traits": {
                    "custom": "",
                    "rarity": {
                        "value": "common"
                    },
                    "value": []
                }
            },
            "effects": [],
            "flags": {},
            "img": "systems/pf2e/icons/default-icons/lore.svg",
            "name": "Acrobatics",
            "sort": 700000,
            "type": "lore"
        },
        {
            "_id": "4o2YdJckFmrO6XVf",
            "data": {
                "description": {
                    "value": ""
                },
                "item": {
                    "value": 0
                },
                "mod": {
                    "value": 4
                },
                "proficient": {
                    "value": 0
                },
                "rules": [],
                "slug": null,
                "source": {
                    "value": ""
                },
                "traits": {
                    "custom": "",
                    "rarity": {
                        "value": "common"
                    },
                    "value": []
                }
            },
            "effects": [],
            "flags": {},
            "img": "systems/pf2e/icons/default-icons/lore.svg",
            "name": "Plane of Fire Lore",
            "sort": 800000,
            "type": "lore"
        },
        {
            "_id": "BYFD2vgAShG3EoI7",
            "data": {
                "description": {
                    "value": ""
                },
                "item": {
                    "value": 0
                },
                "mod": {
                    "value": 7
                },
                "proficient": {
                    "value": 0
                },
                "rules": [],
                "slug": null,
                "source": {
                    "value": ""
                },
                "traits": {
                    "custom": "",
                    "rarity": {
                        "value": "common"
                    },
                    "value": []
                }
            },
            "effects": [],
            "flags": {},
            "img": "systems/pf2e/icons/default-icons/lore.svg",
            "name": "Stealth",
            "sort": 900000,
            "type": "lore"
        }
    ],
    "name": "Fire Wisp",
    "token": {
        "disposition": -1,
        "height": 0.5,
        "img": "systems/pf2e/icons/default-icons/npc.svg",
        "name": "Fire Wisp",
        "width": 0.5
    },
    "type": "npc"
}
