{
    "_id": "qt2exWwQTzoObKfW",
    "data": {
        "actionCategory": {
            "value": "offensive"
        },
        "actionType": {
            "value": "action"
        },
        "actions": {
            "value": 1
        },
        "description": {
            "value": "<p><span data-pf2-check=\"fortitude\" data-pf2-dc=\"0\" data-pf2-traits=\"damaging-effect\" data-pf2-label=\"Inexorable March DC\" data-pf2-show-dc=\"gm\">Fortitude</span></p>\n<p data-visibility=\"gm\">[save effect]</p>\n<hr />\n<p>The golem Strides up to its Speed, pushing back each creature whose space it moves into and damaging them if they try to stop its movement. A creature can attempt to bar the way by succeeding at a Fortitude save.</p>"
        },
        "requirements": {
            "value": ""
        },
        "rules": [],
        "source": {
            "value": "Pathfinder Bestiary"
        },
        "traits": {
            "custom": "",
            "rarity": {
                "value": "common"
            },
            "value": []
        },
        "trigger": {
            "value": ""
        }
    },
    "effects": [],
    "flags": {},
    "img": "systems/pf2e/icons/actions/OneAction.webp",
    "name": "(Golem) Inexorable March",
    "type": "action"
}
