{
    "_id": "5dbzWZbiTyPKgwKS",
    "data": {
        "actionCategory": {
            "value": "offensive"
        },
        "actionType": {
            "value": "passive"
        },
        "actions": {
            "value": null
        },
        "description": {
            "value": "<div data-visibility=\"gm\">\n<p>This curse affects anyone who wears a graveknight's armor for at least 1 hour.</p>\n<hr /></div>\n<p><strong>Saving Throw</strong> <span data-pf2-check=\"will\" data-pf2-dc=\"\" data-pf2-traits=\"arcane,curse,necromancy\" data-pf2-label=\"Graveknight's Curse DC\" data-pf2-show-dc=\"gm\">Will</span> save;</p>\n<div data-visibility=\"gm\">\n<p><strong>Onset</strong> 1 hour;</p>\n<p><strong>Stage 1</strong> @Compendium[pf2e.conditionitems.Doomed]{Doomed 1} and cannot remove the armor (1 day);</p>\n<p><strong>Stage 2</strong> @Compendium[pf2e.conditionitems.Doomed]{Doomed 2}, the creature's Speed is reduced by 10, and cannot remove the armor (1 day);</p>\n<p><strong>Stage 3</strong> dies and transforms into the armor's graveknight.</p>\n</div>"
        },
        "requirements": {
            "value": ""
        },
        "rules": [],
        "source": {
            "value": "Pathfinder Bestiary"
        },
        "traits": {
            "custom": "",
            "rarity": {
                "value": "common"
            },
            "value": [
                "arcane",
                "curse",
                "necromancy"
            ]
        },
        "trigger": {
            "value": ""
        },
        "weapon": {
            "value": ""
        }
    },
    "effects": [],
    "flags": {},
    "img": "systems/pf2e/icons/actions/Passive.webp",
    "name": "(Graveknight) Graveknight's Curse",
    "type": "action"
}
