{
    "_id": "ICnpftxZEilrYjn0",
    "data": {
        "actionCategory": {
            "value": "offensive"
        },
        "actionType": {
            "value": "passive"
        },
        "actions": {
            "value": null
        },
        "description": {
            "value": "<div data-visibility=\"gm\">\n<p>This curse affects only humanoids.</p>\n<hr /></div>\n<p><strong>Saving Throw</strong> <span data-pf2-check=\"fortitude\" data-pf2-dc=\"\" data-pf2-traits=\"curse,necromancy,primal\" data-pf2-label=\"Curse of the Werecreature DC\" data-pf2-show-dc=\"gm\">Fortitude</span> DC is the standard DC for the werecreature's new level -1.</p>\n<div data-visibility=\"gm\">\n<p>On each full moon, the cursed creature must succeed at another Fortitude save or turn into the same kind of werecreature until dawn.</p>\n<p>The creature is under the GM's control and goes on a rampage for half the night before falling unconscious until dawn.</p>\n</div>"
        },
        "requirements": {
            "value": ""
        },
        "rules": [],
        "source": {
            "value": "Pathfinder Bestiary"
        },
        "traits": {
            "custom": "",
            "rarity": {
                "value": "common"
            },
            "value": [
                "curse",
                "necromancy",
                "primal"
            ]
        },
        "trigger": {
            "value": ""
        },
        "weapon": {
            "value": ""
        }
    },
    "effects": [],
    "flags": {},
    "img": "systems/pf2e/icons/actions/Passive.webp",
    "name": "(Werecreature) Curse of the Werecreature",
    "type": "action"
}
