{
    "_id": "cY3fpFYpmsUK9kKb",
    "content": "<table class=\"pf2-table\">\n<thead>\n<tr>\n<th>\n<h3><strong>Name</strong></h3>\n</th>\n<th>\n<h3><strong>Crit Effect</strong></h3>\n</th>\n<th>\n<h3><strong>Type</strong></h3>\n</th>\n</tr>\n</thead>\n<tbody>\n<tr>\n<td>\n<h3>Off Balance</h3>\n</td>\n<td>\n<h3>Normal damage. The target triggers reactions as if it just used a move action. It is also flat-footed until th end of its next turn.</h3>\n</td>\n<td>\n<h3>Bludgeoning</h3>\n</td>\n</tr>\n<tr>\n<td>\n<h3>Chipped Bone</h3>\n</td>\n<td>\n<h3>The target is clumsy 1 until healed.</h3>\n</td>\n<td>\n<h3>Piercing</h3>\n</td>\n</tr>\n<tr>\n<td>\n<h3>Hack and Slash</h3>\n</td>\n<td>\n<h3>Triple damage. The target is flat-footed until the end of its next turn.</h3>\n</td>\n<td>\n<h3>Slashing</h3>\n</td>\n</tr>\n<tr>\n<td>\n<h3>Shrink Aftereffect</h3>\n</td>\n<td>\n<h3>Normal damage. The target is reduced in size as if subject to a shrink spell until the end of its next turn.</h3>\n</td>\n<td>\n<h3>Bomb or Spell</h3>\n</td>\n</tr>\n</tbody>\n</table>\n<h3 style=\"text-align: left;\"> </h3>",
    "flags": {},
    "name": "Critical Hit Deck #25",
    "permission": {
        "default": 0
    }
}
