{
    "_id": "QCHhZd0F0DmvVxYP",
    "content": "<table class=\"pf2-table\">\n<thead>\n<tr>\n<th>\n<h3><strong>Name</strong></h3>\n</th>\n<th>\n<h3><strong>Crit Effect</strong></h3>\n</th>\n<th>\n<h3><strong>Type</strong></h3>\n</th>\n</tr>\n</thead>\n<tbody>\n<tr>\n<td>Better to Give</td>\n<td>You hit yourself instead of the target.</td>\n<td>\n<h3>Melee</h3>\n</td>\n</tr>\n<tr>\n<td>Weapon Problem</td>\n<td>If the attack used a projectile weapon, something on the weapon malfunctions, requiring you to spend 2 Interact actions to fix.</td>\n<td>\n<h3>Ranged</h3>\n</td>\n</tr>\n<tr>\n<td>Sneeze</td>\n<td>You are slowed 1 until the end of your next turn.</td>\n<td>\n<h3>Unarmed</h3>\n</td>\n</tr>\n<tr>\n<td>Spell Rush</td>\n<td>You are stupefied 1 until healed.</td>\n<td>\n<h3>Spell</h3>\n</td>\n</tr>\n</tbody>\n</table>\n<h3 style=\"text-align: left;\"> </h3>",
    "flags": {},
    "name": "Critical Fumble Deck #37",
    "permission": {
        "default": 0
    }
}
