{
    "_id": "LI8WRDVWPbwr6pcG",
    "content": "<table class=\"pf2-table\">\n<thead>\n<tr>\n<th>\n<h3><strong>Name</strong></h3>\n</th>\n<th>\n<h3><strong>Crit Effect</strong></h3>\n</th>\n<th>\n<h3><strong>Type</strong></h3>\n</th>\n</tr>\n</thead>\n<tbody>\n<tr>\n<td>\n<h3>Lights Out</h3>\n</td>\n<td>\n<h3>The target is blinded until the end of its next turn.</h3>\n</td>\n<td>\n<h3>Bludgeoning</h3>\n</td>\n</tr>\n<tr>\n<td>\n<h3>Bicep Wound</h3>\n</td>\n<td>\n<h3>The target is enfeebled 1 until healed.</h3>\n</td>\n<td>\n<h3>Piercing</h3>\n</td>\n</tr>\n<tr>\n<td>\n<h3>Bewildering Display</h3>\n</td>\n<td>\n<h3>The target is flat-footed until the end of its next turn.</h3>\n</td>\n<td>\n<h3>Slashing</h3>\n</td>\n</tr>\n<tr>\n<td>\n<h3>Roaring Blast</h3>\n</td>\n<td>\n<h3>The target is deafened until healed.</h3>\n</td>\n<td>\n<h3>Bomb or Spell</h3>\n</td>\n</tr>\n</tbody>\n</table>\n<h3 style=\"text-align: left;\"> </h3>",
    "flags": {},
    "name": "Critical Hit Deck #52",
    "permission": {
        "default": 0
    }
}
