{
    "_id": "DeZIaLR9okv231ek",
    "content": "<table class=\"pf2-table\">\n<thead>\n<tr>\n<th>\n<h3><strong>Name</strong></h3>\n</th>\n<th>\n<h3><strong>Crit Effect</strong></h3>\n</th>\n<th>\n<h3><strong>Type</strong></h3>\n</th>\n</tr>\n</thead>\n<tbody>\n<tr>\n<td>Bent</td>\n<td>Your weapon's current Hit Point are reduced to its Broken Threshold. if already broken, the weapon takes 3d6 damage, ignoring Hardness.</td>\n<td>\n<h3>Melee</h3>\n</td>\n</tr>\n<tr>\n<td>Double Miss</td>\n<td>If this attack uses ammunition, you use twice the amount of ammunition on this attack.</td>\n<td>\n<h3>Ranged</h3>\n</td>\n</tr>\n<tr>\n<td>Caught your Attack</td>\n<td>This attack grants and triggers a Trip or Shove as a reaction by your enemy.</td>\n<td>\n<h3>Unarmed</h3>\n</td>\n</tr>\n<tr>\n<td>Left Reeling</td>\n<td>You are stunned 1.</td>\n<td>\n<h3>Spell</h3>\n</td>\n</tr>\n</tbody>\n</table>\n<h3 style=\"text-align: left;\"> </h3>",
    "flags": {},
    "name": "Critical Fumble Deck #32",
    "permission": {
        "default": 0
    }
}
