{
    "_id": "TYTNFtVvFqFBM8oy",
    "content": "<table class=\"pf2-table\">\n<thead>\n<tr>\n<th>\n<h3><strong>Name</strong></h3>\n</th>\n<th>\n<h3><strong>Crit Effect</strong></h3>\n</th>\n<th>\n<h3><strong>Type</strong></h3>\n</th>\n</tr>\n</thead>\n<tbody>\n<tr>\n<td>Shield Crash</td>\n<td>You deal the attack's normal damage to your shield, applying Hardness.</td>\n<td>\n<h3>Melee</h3>\n</td>\n</tr>\n<tr>\n<td>Everything you Got</td>\n<td>You are fatigued.</td>\n<td>\n<h3>Ranged</h3>\n</td>\n</tr>\n<tr>\n<td>Hard-edged Adversary</td>\n<td>You take 2d6 piercing or slashing dmage (determined by the GM).</td>\n<td>\n<h3>Unarmed</h3>\n</td>\n</tr>\n<tr>\n<td>You made 'em Tougher</td>\n<td>The target gains resistance 5 to all damage until the start of its next turn.</td>\n<td>\n<h3>Spell</h3>\n</td>\n</tr>\n</tbody>\n</table>\n<h3 style=\"text-align: left;\"> </h3>",
    "flags": {},
    "name": "Critical Fumble Deck #43",
    "permission": {
        "default": 0
    }
}
