{
    "_id": "XhX99wCRrwB1JFnl",
    "content": "<table class=\"pf2-table\">\n<thead>\n<tr>\n<th>\n<h3><strong>Name</strong></h3>\n</th>\n<th>\n<h3><strong>Crit Effect</strong></h3>\n</th>\n<th>\n<h3><strong>Type</strong></h3>\n</th>\n</tr>\n</thead>\n<tbody>\n<tr>\n<td>\n<h3>Broken Ribs</h3>\n</td>\n<td>\n<h3>Normal damage. The target is slowed 1 until healed.</h3>\n</td>\n<td>\n<h3>Bludgeoning</h3>\n</td>\n</tr>\n<tr>\n<td>\n<h3>Spinal Tap</h3>\n</td>\n<td>\n<h3>Normal damage. The target is sickened 3.</h3>\n</td>\n<td>\n<h3>Piercing</h3>\n</td>\n</tr>\n<tr>\n<td>\n<h3>Never Slice</h3>\n</td>\n<td>\n<h3>The target is slowed 2 for 1 round.</h3>\n</td>\n<td>\n<h3>Slashing</h3>\n</td>\n</tr>\n<tr>\n<td>\n<h3>Forceful Blast</h3>\n</td>\n<td>\n<h3>The bomb or spell deals and additional 1d8 force damage.</h3>\n</td>\n<td>\n<h3>Bomb or Spell</h3>\n</td>\n</tr>\n</tbody>\n</table>\n<h3 style=\"text-align: left;\"> </h3>",
    "flags": {},
    "name": "Critical Hit Deck #33",
    "permission": {
        "default": 0
    }
}
