{
    "_id": "HERWPcFlzK2FTPLJ",
    "content": "<table class=\"pf2-table\">\n<thead>\n<tr>\n<th>\n<h3><strong>Name</strong></h3>\n</th>\n<th>\n<h3><strong>Crit Effect</strong></h3>\n</th>\n<th>\n<h3><strong>Type</strong></h3>\n</th>\n</tr>\n</thead>\n<tbody>\n<tr>\n<td>Decision Paralysis</td>\n<td>You are slowed 1 until the end of your next turn.</td>\n<td>\n<h3>Melee</h3>\n</td>\n</tr>\n<tr>\n<td>Torn Tendon</td>\n<td>Until healed, you are clumsy 2.</td>\n<td>\n<h3>Ranged</h3>\n</td>\n</tr>\n<tr>\n<td>Stinging Failure</td>\n<td>Until healed, you take a -2 circumstance penalty to attack rolls made with this attack.</td>\n<td>\n<h3>Unarmed</h3>\n</td>\n</tr>\n<tr>\n<td>Cursed</td>\n<td>You are doomed 1.</td>\n<td>\n<h3>Spell</h3>\n</td>\n</tr>\n</tbody>\n</table>\n<h3 style=\"text-align: left;\"> </h3>",
    "flags": {},
    "name": "Critical Fumble Deck #47",
    "permission": {
        "default": 0
    }
}
