{
    "_id": "e9kWyI8plxVuMOe3",
    "data": {
        "attributes": {
            "ac": {
                "value": 10
            },
            "hardness": 0,
            "hasHealth": true,
            "hp": {
                "details": "",
                "max": 10,
                "temp": 0,
                "value": 10
            },
            "stealth": {
                "details": "",
                "value": 2
            }
        },
        "creatureType": "",
        "details": {
            "description": "<p>The mud greedily latches onto anything that lands in it, hampering movement.</p>",
            "disable": "<p><span data-pf2-check=\"survival\" data-pf2-traits=\"environmental\" data-pf2-label=\"Navigate Mud DC\" data-pf2-dc=\"15\" data-pf2-show-dc=\"gm\">Survival</span> to navigate a safe path along the remaining bits of stone</p>",
            "isComplex": false,
            "level": {
                "value": -1
            },
            "reset": "",
            "routine": ""
        },
        "saves": {
            "fortitude": {
                "saveDetail": "",
                "value": 0
            },
            "reflex": {
                "saveDetail": "",
                "value": 0
            },
            "will": {
                "saveDetail": "",
                "value": 0
            }
        },
        "source": {
            "value": "Pathfinder Bounty #14: The Blackwood Truce"
        },
        "statusEffects": [],
        "traits": {
            "ci": [],
            "di": {
                "custom": "",
                "selected": {},
                "value": []
            },
            "dr": [],
            "dv": [],
            "rarity": {
                "value": "common"
            },
            "size": {
                "value": "med"
            },
            "traits": {
                "custom": "",
                "value": [
                    "environmental"
                ]
            }
        }
    },
    "effects": [],
    "flags": {},
    "img": "systems/pf2e/icons/default-icons/hazard.svg",
    "items": [
        {
            "_id": "QZRwu3n6Y9c96NmL",
            "data": {
                "actionCategory": {
                    "value": "offensive"
                },
                "actionType": {
                    "value": "reaction"
                },
                "actions": {
                    "value": null
                },
                "description": {
                    "value": "<p data-visibility=\"gm\"><strong>Trigger</strong> A creature steps in the mud</p>\n<p><strong>Effect</strong> Deep mud sucks at the creature's feet. The triggering creature must attempt a <span data-pf2-check=\"reflex\" data-pf2-traits=\"environmental\" data-pf2-label=\"Squelch DC\" data-pf2-dc=\"16\" data-pf2-show-dc=\"gm\">basic Reflex</span> save as they pull against the mud and struggle to stay upright. On a failure, the mud deals [[/r {2d4}[bludgeoning]#Squelch]]{2d4 bludgeoning damage} and the creature falls @Compendium[pf2e.conditionitems.Prone]{Prone}.</p>"
                },
                "requirements": {
                    "value": ""
                },
                "rules": [],
                "slug": null,
                "source": {
                    "value": ""
                },
                "traits": {
                    "custom": "",
                    "rarity": {
                        "value": "common"
                    },
                    "value": []
                },
                "trigger": {
                    "value": ""
                }
            },
            "effects": [],
            "flags": {},
            "img": "systems/pf2e/icons/actions/Reaction.webp",
            "name": "Squelch",
            "sort": 0,
            "type": "action"
        }
    ],
    "name": "Deep Mud",
    "token": {
        "disposition": 0,
        "height": 1,
        "img": "systems/pf2e/icons/default-icons/hazard.svg",
        "name": "Deep Mud",
        "width": 1
    },
    "type": "hazard"
}
