{
    "_id": "PMbdMWc2QroouFGD",
    "data": {
        "actionCategory": {
            "value": ""
        },
        "actionType": {
            "value": "action"
        },
        "actions": {
            "value": 1
        },
        "description": {
            "value": "<p><strong>Requirements</strong> You have at least one free hand or have your target grappled or restrained. Your target isn't more than one size larger than you.</p>\n<hr />\n<p>You attempt to grab a creature or object with your free hand. Attempt an <span data-pf2-action=\"grapple\" data-pf2-glyph=\"A\">Athletics</span> check against the target's Fortitude DC. You can Grapple a target you already have grabbed or restrained without having a hand free.</p>\n<hr />\n<p><strong>Critical Success</strong> Your target is @Compendium[pf2e.conditionitems.Restrained]{Restrained} until the end of your next turn unless you move or your target @Compendium[pf2e.actionspf2e.Escape]{Escapes}.</p>\n<p><strong>Success</strong> Your target is @Compendium[pf2e.conditionitems.Grabbed]{Grabbed} until the end of your next turn unless you move or your target Escapes.</p>\n<p><strong>Failure</strong> You fail to grab your target. If you already had the target grabbed or restrained, it breaks free.</p>\n<p><strong>Critical Failure</strong> If you already had the target grabbed or restrained, it breaks free. Your target can either grab you, as if it succeeded at using the Grapple action against you, or force you to fall and land @Compendium[pf2e.conditionitems.Prone]{Prone}.</p>"
        },
        "requirements": {
            "value": ""
        },
        "rules": [],
        "source": {
            "value": "Pathfinder Core Rulebook"
        },
        "traits": {
            "custom": "",
            "rarity": {
                "value": "common"
            },
            "value": [
                "attack",
                "skill"
            ]
        },
        "trigger": {
            "value": ""
        },
        "weapon": {
            "value": ""
        }
    },
    "effects": [],
    "flags": {},
    "img": "systems/pf2e/icons/actions/OneAction.webp",
    "name": "Grapple",
    "type": "action"
}
