{
    "_id": "mVscmsZWWcVACdU5",
    "data": {
        "actionCategory": {
            "value": ""
        },
        "actionType": {
            "value": "action"
        },
        "actions": {
            "value": 2
        },
        "description": {
            "value": "<p><strong>Frequency</strong> Once per day</p>\n<hr />\n<p>To be a tengu is to be unburdened by the concerns of the world below. You grow a pair of magical wings or expand your existing ones. For 5 minutes, you gain a @Compendium[pf2e.actionspf2e.Fly]{Fly} Speed equal to your land Speed or 20 feet, whichever is greater.</p>"
        },
        "requirements": {
            "value": ""
        },
        "rules": [],
        "source": {
            "value": ""
        },
        "traits": {
            "custom": "",
            "rarity": {
                "value": "common"
            },
            "selected": {
                "morph": "Morph",
                "primal": "Primal",
                "tengu": "tengu",
                "transmutation": "Transmutation"
            },
            "value": [
                "morph",
                "primal",
                "tengu",
                "transmutation"
            ]
        },
        "trigger": {
            "value": ""
        },
        "weapon": {
            "value": ""
        }
    },
    "effects": [],
    "flags": {},
    "img": "systems/pf2e/icons/actions/TwoActions.webp",
    "name": "Soaring Flight",
    "type": "action"
}
