{
    "_id": "sL1J8cFwpy1lI359",
    "data": {
        "actionCategory": {
            "value": "interaction"
        },
        "actionType": {
            "value": "passive"
        },
        "actions": {
            "value": null
        },
        "description": {
            "value": "<p><strong>Requirements</strong> You are an initiate, attendant, or conversant.</p>\n<hr />\n<p>You give everything you have to your studies, in keeping with your branch. Choose either your primary or secondary branch and attempt a skill check with one of the branch's associated skills against a standard DC of the branch's level.</p>\n<hr />\n<p><strong>Critical Success</strong> Incredible results! You ace every exam and cause a stir that all the instructors notice. Increase the level of the branch you chose by 2.</p>\n<p><strong>Success</strong> You succeed in your studies admirably. Increase the level of the branch you chose by 1.</p>\n<p><strong>Failure</strong> You need to work harder and try again. Your branch level remains the same.</p>\n<p><strong>Critical Failure</strong> You make a major mistake that requires you to perform remedial studies. The next time you would get an opportunity to attempt this activity, you must skip that opportunity to catch up.</p>"
        },
        "requirements": {
            "value": ""
        },
        "rules": [],
        "source": {
            "value": "Pathfinder #169: Kindled Magic"
        },
        "traits": {
            "custom": "",
            "rarity": {
                "value": "common"
            },
            "value": [
                "downtime"
            ]
        },
        "trigger": {
            "value": ""
        },
        "weapon": {
            "value": ""
        }
    },
    "effects": [],
    "flags": {},
    "img": "systems/pf2e/icons/actions/Passive.webp",
    "name": "Study",
    "type": "action"
}
