{
    "_id": "ohMdE8BmQHuLs40b",
    "data": {
        "description": {
            "value": "<p>For 1 hour after the meal, you gain a +4 item bonus to your Deception checks to Impersonate, as well as to Lie to convince others that you possess knowledge about the type of item that the cake resembles.</p>"
        },
        "duration": {
            "expiry": "turn-end",
            "sustained": false,
            "unit": "hours",
            "value": 1
        },
        "level": {
            "value": 17
        },
        "rules": [
            {
                "key": "FlatModifier",
                "label": "Impossible Cake",
                "predicate": {
                    "any": [
                        "action:Impersonate",
                        "action:lie"
                    ]
                },
                "selector": "deception",
                "type": "item",
                "value": 4
            }
        ],
        "source": {
            "value": ""
        },
        "start": {
            "initiative": null,
            "value": 0
        },
        "target": null,
        "tokenIcon": {
            "show": true
        },
        "traits": {
            "custom": "",
            "rarity": {
                "value": "common"
            },
            "value": []
        }
    },
    "effects": [],
    "flags": {},
    "img": "systems/pf2e/icons/default-icons/effect.svg",
    "name": "Effect: Impossible Cake (Major)",
    "type": "effect"
}
