{
    "_id": "U53RUprcBtfMmkFs",
    "data": {
        "attributes": {
            "ac": {
                "value": 15
            },
            "hardness": 5,
            "hasHealth": true,
            "hp": {
                "details": "",
                "max": 30,
                "temp": 0,
                "value": 30
            },
            "stealth": {
                "details": "<p>(trained, or 0 if the trapdoor is disabled or broken)</p>",
                "value": 10
            }
        },
        "creatureType": "",
        "details": {
            "description": "<p>A wooden trapdoor covers a pit that's 10 feet square and 20 feet deep. Sharp spikes line the bottom of the pit.</p>",
            "disable": "<p><span data-pf2-check=\"skill\" data-pf2-traits=\"mechanical,trap\" data-pf2-label=\"Remove Trap Door DC\" data-pf2-dc=\"14\" data-pf2-show-dc=\"gm\">Thievery</span> to remove the trapdoor</p>",
            "isComplex": false,
            "level": {
                "value": 2
            },
            "reset": "<p>Creatures can still fall into the trap, but the trapdoor must be reset manually for the trap to become hidden again.</p>",
            "routine": ""
        },
        "saves": {
            "fortitude": {
                "saveDetail": "",
                "value": 5
            },
            "reflex": {
                "saveDetail": "",
                "value": 5
            },
            "will": {
                "saveDetail": "",
                "value": 0
            }
        },
        "source": {
            "value": "Pathfinder Society Quest #10: The Broken Scales"
        },
        "statusEffects": [],
        "traits": {
            "ci": [],
            "di": {
                "custom": "",
                "selected": {},
                "value": [
                    "critical-hits",
                    "object-immunities",
                    "precision"
                ]
            },
            "dr": [],
            "dv": [],
            "rarity": {
                "value": "common"
            },
            "size": {
                "value": "med"
            },
            "traits": {
                "custom": "",
                "value": [
                    "mechanical",
                    "trap"
                ]
            }
        }
    },
    "effects": [],
    "flags": {},
    "img": "systems/pf2e/icons/default-icons/hazard.svg",
    "items": [
        {
            "_id": "Dtg1uXMVG1kcNoI2",
            "data": {
                "actionCategory": {
                    "value": "offensive"
                },
                "actionType": {
                    "value": "reaction"
                },
                "actions": {
                    "value": null
                },
                "description": {
                    "value": "<p data-visibility=\"gm\"><strong>Trigger</strong> A creature walks onto the trapdoor;</p>\n<p><strong>Effect</strong> The triggering creature falls in and takes [[/r {10}[bludgeoning]]]{10 bludgeoning damage} plus [[/r {2d6}[piercing]]]{1d4 piercing damage} from sharp implements at the bottom of the pit. That creature can use the @Compendium[pf2e.actionspf2e.Grab an Edge]{Grab an Edge} reaction to avoid falling.</p>"
                },
                "requirements": {
                    "value": ""
                },
                "rules": [],
                "slug": null,
                "source": {
                    "value": ""
                },
                "traits": {
                    "custom": "",
                    "rarity": {
                        "value": "common"
                    },
                    "value": []
                },
                "trigger": {
                    "value": ""
                },
                "weapon": {
                    "value": ""
                }
            },
            "effects": [],
            "flags": {},
            "img": "systems/pf2e/icons/actions/Reaction.webp",
            "name": "Pitfall",
            "sort": 0,
            "type": "action"
        }
    ],
    "name": "Spiked Pit",
    "token": {
        "disposition": 0,
        "height": 1,
        "img": "systems/pf2e/icons/default-icons/hazard.svg",
        "name": "Spiked Pit",
        "width": 1
    },
    "type": "hazard"
}
