{
    "_id": "PooDdJo4wmkBvETW",
    "data": {
        "attributes": {
            "ac": {
                "value": 36
            },
            "hardness": 20,
            "hasHealth": true,
            "hp": {
                "details": "",
                "max": 40,
                "temp": 0,
                "value": 40
            },
            "stealth": {
                "details": "<p>+23 (expert) or DC 38 (master) to notice the four sensors</p>",
                "value": 23
            }
        },
        "creatureType": "",
        "details": {
            "description": "<p>Four remote sensors at each corner of the arena cause bursts of freezing magic to erupt from random tiles on the arena and stop creatures in their tracks.</p>",
            "disable": "<p><span data-pf2-check=\"thievery\" data-pf2-label=\"Freezing Floor Tiles Disable DC\" data-pf2-dc=\"40\" data-pf2-show-dc=\"gm\">Thievery</span> (legendary) or dispel magic (6th level; counteract DC 38) to disable one of the sensors</p>",
            "isComplex": true,
            "level": {
                "value": 16
            },
            "reset": "",
            "routine": "<p>(4 actions) The trap loses 1 action per disabled sensor. On each action, the trap causes a random 10-foot-by-10-foot space in the arena to suddenly freeze. Each creature that begins its turn in a frozen space takes [[/r {2d6+2}[cold]]]{2d6+2 cold damage} (<span data-pf2-saving-throw=\"reflex\" data-pf2-traits=\"damaging-effect\" data-pf2-label=\"Freezing Floor Tiles DC\" data-pf2-dc=\"40\" data-pf2-show-dc=\"gm\">basic Reflex</span> save). A creature that critically fails its save also becomes @Compendium[pf2e.conditionitems.Slowed]{Slowed 1} for 1 round; if it was already slowed, the creature instead becomes @Compendium[pf2e.conditionitems.Immobilized]{Immobilized} for 1 round. Any amount of fire damage dealt to a slowed or immobilized creature removes the condition. Frozen tiles become unfrozen at the beginning of the trap's next turn.</p>"
        },
        "saves": {
            "fortitude": {
                "saveDetail": "",
                "value": 33
            },
            "reflex": {
                "saveDetail": "",
                "value": 30
            },
            "will": {
                "saveDetail": "",
                "value": 0
            }
        },
        "source": {
            "value": "Pathfinder #167: Ready? Fight!"
        },
        "statusEffects": [],
        "traits": {
            "ci": [],
            "di": {
                "custom": "",
                "selected": {},
                "value": [
                    "cold"
                ]
            },
            "dr": [],
            "dv": [
                {
                    "label": "Fire",
                    "type": "fire",
                    "value": "15"
                }
            ],
            "rarity": {
                "value": "common"
            },
            "size": {
                "value": "med"
            },
            "traits": {
                "custom": "",
                "value": [
                    "cold",
                    "magical",
                    "trap"
                ]
            }
        }
    },
    "effects": [],
    "flags": {},
    "img": "systems/pf2e/icons/default-icons/hazard.svg",
    "items": [
        {
            "_id": "rxzKPSkZ4m2BBbQJ",
            "data": {
                "actionCategory": {
                    "value": "interaction"
                },
                "actionType": {
                    "value": "reaction"
                },
                "actions": {
                    "value": null
                },
                "description": {
                    "value": "<p data-visibility=\"gm\"><strong>Trigger</strong> Hao Jin signals the beginning of the match.</p>\n<p><strong>Effect</strong> The trap rolls initiative.</p>"
                },
                "requirements": {
                    "value": ""
                },
                "rules": [],
                "slug": null,
                "source": {
                    "value": ""
                },
                "traits": {
                    "custom": "",
                    "rarity": {
                        "value": "common"
                    },
                    "value": [
                        "cold"
                    ]
                },
                "trigger": {
                    "value": ""
                },
                "weapon": {
                    "value": ""
                }
            },
            "effects": [],
            "flags": {},
            "img": "systems/pf2e/icons/actions/Reaction.webp",
            "name": "Frigid Floor",
            "sort": 0,
            "type": "action"
        }
    ],
    "name": "Freezing Floor Tiles",
    "token": {
        "disposition": 0,
        "height": 1,
        "img": "systems/pf2e/icons/default-icons/hazard.svg",
        "name": "Freezing Floor Tiles",
        "width": 1
    },
    "type": "hazard"
}
