{
    "_id": "fIpzDpuwLdIS4tW5",
    "data": {
        "description": {
            "value": "<p>Granted by @Compendium[pf2e.equipment-srd.Bestial Mutagen (Lesser)]{Bestial Mutagen (Lesser)}</p>\n<p>Implemented effects:</p>\n<ul>\n<li>+1 item bonus to Athletics checks</li>\n<li>+1 item bonus to unarmed attack rolls</li>\n<li>Gain a claw unarmed attack</li>\n<li>Gain a jaws unarmed attack</li>\n<li>-1 penalty to AC</li>\n<li>-2 to penalty Reflex saves</li>\n</ul>"
        },
        "duration": {
            "expiry": "turn-start",
            "sustained": false,
            "unit": "minutes",
            "value": 1
        },
        "level": {
            "value": 1
        },
        "rules": [
            {
                "key": "FlatModifier",
                "label": "Bestial Mutagen (Lesser)",
                "selector": "athletics",
                "type": "item",
                "value": 1
            },
            {
                "key": "FlatModifier",
                "label": "Bestial Mutagen (Lesser)",
                "selector": "ac",
                "type": "untyped",
                "value": -1
            },
            {
                "key": "FlatModifier",
                "label": "Bestial Mutagen (Lesser)",
                "selector": "reflex",
                "type": "untyped",
                "value": -2
            },
            {
                "key": "FlatModifier",
                "label": "Bestial Mutagen, Lesser (Unarmed attacks)",
                "predicate": {
                    "all": [
                        "unarmed"
                    ]
                },
                "selector": "attack",
                "type": "item",
                "value": 1
            },
            {
                "category": "unarmed",
                "damage": {
                    "base": {
                        "damageType": "piercing",
                        "dice": 1,
                        "die": "d6"
                    }
                },
                "group": "brawling",
                "key": "Strike",
                "label": "Jaws",
                "range": null,
                "traits": [
                    "unarmed"
                ]
            },
            {
                "category": "unarmed",
                "damage": {
                    "base": {
                        "damageType": "slashing",
                        "dice": 1,
                        "die": "d4"
                    }
                },
                "group": "brawling",
                "key": "Strike",
                "label": "Claws",
                "range": null,
                "traits": [
                    "unarmed",
                    "agile"
                ]
            }
        ],
        "source": {
            "value": ""
        },
        "start": {
            "initiative": null,
            "value": 0
        },
        "target": null,
        "tokenIcon": {
            "show": true
        },
        "traits": {
            "custom": "",
            "rarity": {
                "value": "common"
            },
            "value": []
        }
    },
    "effects": [],
    "flags": {},
    "img": "systems/pf2e/icons/equipment/alchemical-items/alchemical-elixirs/bestial-mutagen.webp",
    "name": "Effect: Bestial Mutagen (Lesser)",
    "type": "effect"
}
