{
    "_id": "5YUNikBpJZ596MRD",
    "content": "<h1>Anubis (Guardian of the Tomb) [LN]</h1><p>Anubis is the son of Osiris and Nephthys, born out of wedlock and he assisted Isis in the mummification of his father. He frequently works with Isis, Neith, Nephthys, and Selket in the protection of the dead, and is an enemy of Set due to his association with undead.</p><p><strong>Edicts</strong> Lay bodies to rest, destroy undead, be impartial in judgment</p><p><strong>Anathema</strong> Desecrate a corpse, rob a tomb, trap a soul</p><p><strong>Follower Alignments</strong> LG, LN, N</span></p><p></span></p><h2>Devotee Benefits</h2><div><div><strong>Divine Ability</strong> Dexterity or Wisdom</div><div><strong>Divine Font</strong> harm or heal</div><div><strong>Divine Skill</strong> Occultism</div><div><strong>Favored Weapon</strong> flail</div><div><strong>Domains</strong> death, protection, soul, vigil</div><div><strong>Cleric Spells</strong> 1st: unseen servant, 3rd: shifting sand, 5th: wall of stone</div></div><p></p>",
    "flags": {},
    "name": "Anubis",
    "permission": {
        "default": 0
    }
}
