{
    "_id": "Dm8qlzpUj7g82QFv",
    "content": "<h1>Erecura (Queen of Dis) [LN]</h1><p><strong>Erecura</strong> is the queen of Dis, second layer of Hell, and the wife of its ruler, the archdevil Dispater. Despite being an authority figure in Hell, her outlook and motivation are far removed from that of devils, and unclear to even her own husband.</p><p></span><strong>Edicts</strong> Manipulate dangerous beings and opportunities to your benefit, thrive in hostile conditions, divine the future</p><p><strong>Anathema</strong> Despoil nature, kill a natural plant or animal that has managed to thrive outside of its intended environment</p><p><strong>Follower Alignments</strong> LG, LN, N</span></p><p></span></p><h2>Devotee Benefits</h2><div><div><strong>Divine Ability</strong> Wisdom or Charisma</div><div><strong>Divine Font</strong> harm or heal</div><div><strong>Divine Skill</strong> Deception</div><div><strong>Favored Weapon</strong> light mace</div><div><strong>Domains</strong> fate, secrecy, trickery, truth</div><div><strong>Cleric Spells</strong> 1st: anticipate peril, 2nd: misdirection, 3rd: nondetection</div></div>",
    "flags": {},
    "name": "Erecura",
    "permission": {
        "default": 0
    }
}
