{
    "_id": "3ffVxwgtvR1imHm8",
    "content": "<h1>Gendowyn (Lady of the Fangwood) [CN]</h1><p><strong>Gendowyn</strong> is the queen of the fey Accressiel court in the Fangwood.</p><p></span><strong>Edicts</strong> Preserve primal areas, destroy blighted fey and agents of Cyth V'sug, protect those who placate you with offerings</p><p><strong>Anathema</strong> Parley or make a deal with fiends, forgive those who deceive you, harm an innocent child</p><p><strong>Follower Alignments</strong> CG, N, CN, CE</span></p><p></span></p><h2>Devotee Benefits</h2><div><div><strong>Divine Ability</strong> Dexterity or Charisma</div><div><strong>Divine Font</strong> heal</div><div><strong>Divine Skill</strong> Stealth</div><div><strong>Favored Weapon</strong> whip</div><div><strong>Domains</strong> earth, family, luck, nature</div><div><strong>Cleric Spells</strong> 1st: summon fey, 2nd: barkskin, 5th: tree stride</div></div>",
    "flags": {},
    "name": "Gendowyn",
    "permission": {
        "default": 0
    }
}
