{
    "_id": "o9tK1T28LNEVzpFV",
    "content": "<h1>Ragdya (The Sage on the Mountain) [N]</h1><p><strong>Edicts</strong> Seek enlightenment through worldly experience, create humor in life, use harmless pranks to teach others</p><p><strong>Anathema</strong> Make a joke out of someone's suffering, own a slave, discriminate based on social status</p><p><strong>Follower Alignments</strong> NG, LN, N, CN</span></p><p></span></p><h2>Devotee Benefits</h2><div><div><strong>Divine Ability</strong> Dexterity or Wisdom</div><div><strong>Divine Font</strong> heal</div><div><strong>Divine Skill</strong> Acrobatics</div><div><strong>Favored Weapon</strong> mace</div><div><strong>Domains</strong> air, confidence, might, perfection</div><div><strong>Cleric Spells</strong> 1st: shockwave, 3rd: abyssal plague (mad monkeys (Advanced Player's Guide, coming soon)), 4th: gaseous form</div></div>",
    "flags": {},
    "name": "Ragdya",
    "permission": {
        "default": 0
    }
}
