{
    "_id": "iJyhAFmHOLZBvWnJ",
    "content": "<h1>Sivanah (The Seventh Veil) [N]</h1><p></span>No ancient record reveals the truth of Sivanah's origins; in fact, only recent documents record her existence at all. The Seventh Veil is widely regarded as the goddess of illusion magic, often portrayed as a figure disguised by seven veils. Legends state that each face underneath the first six of her seven veils is of a different ancestry-human, elf, halfling, gnome, anadi, and naga- but the seventh face is never shown, believed to mask the goddess's true form. Some theologians believe Sivanah hails from the Shadow Plane, though the goddess's true nature and form continue to be topics of debate. Even her female visage, while agreed upon by her followers, could likewise be an illusion. Her goals are hidden from even her most faithful, which some believe to have hampered the faith's growth and influence beyond the level of a cult.</p><p><strong>Edicts</strong> show the beauty in illusions, pursue the nature of truth, respect the need for secrets</p><p><strong>Anathema</strong> use illusions and shadows to harm another creature, reveal a secret you have sworn to keep</p><p><strong>Areas of Concern</strong> illusions, mysteries, reflections, secrets</p><p><strong>Follower Alignments</strong> NG, LN, N, CN, NE</span></p><p></span></p><h2>Devotee Benefits</h2><div><div><strong>Divine Ability</strong> Wisdom or Charisma</div><div><strong>Divine Font</strong> harm or heal</div><div><strong>Divine Skill</strong> Deception</div><div><strong>Favored Weapon</strong> bladed scarf</div><div><strong>Domains</strong> delirium, magic, secrecy, trickery</div><div><strong>Alternate Domains</strong> glyph</div><div><strong>Cleric Spells</strong> 1st: illusory disguise, 4th: veil, 5th: shadow siphon</div></div><h2>Divine Intercession</h2><p>The Seventh Veil abhors the use of illusion to cause harm and detests anyone who discourages or corrupts the process of truth-seeking. The goddess works actively against the faith of Zon-Kuthon and his clerics' use of shadow.</p><p><strong>Minor Boon</strong>: Sivanah prevents your enemies from pulling off your veil. Once, when a foe rolls a success on a Perception check to disbelieve your illusion, it gets a critical failure instead. Sivanah typically grants this benefit to protect an elaborate or consequential illusory deception, and she never uses it to improve the effect of a harmful illusion.</p><p><strong>Moderate Boon</strong>: You wear a veil of illusion wherever you go. You can cast illusory disguise at will as an innate divine spell.</p><p><strong>Major Boon</strong>: You spread your illusions over a larger area. You can designate an area to permanently gain the effects of hallucinatory terrain. All creatures within this area gain the effects of <em>illusory disguise</em>, changing their forms as you wish. You can designate a new area as a 1-minute activity, but doing so dismisses any previously designated areas.</p><p><strong>Minor Curse</strong>: Your hair becomes a wild variety of colors, which cannot be altered with mundane or magical means, and it somehow grows out from under any cap, scarf, or other headwear intended to disguise it. You gain a -2 status penalty to Deception skill checks to Impersonate anyone else.</p><p><strong>Moderate Curse</strong>: Those who betray the secrets of others find their own secrets laid bare. Each person from whom you are keeping a secret immediately learns one of your secrets involving that person. This curse doesn't give away other people's secrets you are keeping, only your own.</p><p><strong>Major Curse</strong>: Those who betray the secrets of others find their own secrets laid bare. Each person from whom you are keeping a secret immediately learns one of your secrets involving that person. This curse doesn't give away other people's secrets you are keeping, only your own.</span></p>",
    "flags": {},
    "name": "Sivanah",
    "permission": {
        "default": 0
    }
}
