{
    "_id": "TvxsVRztDlGcWpcI",
    "content": "<h1>Sobek (The Raging Torrent) [CN]</h1><p><strong>Edicts</strong> Take what you want, indulge in base desires, feast on luxurious food, kill demons and evil creatures</p><p><strong>Anathema</strong> Cower from fights, despoil the land, kill the innocent</p><p><strong>Follower Alignments</strong> CG, N, CN, CE</span></p><p></span></p><h2>Devotee Benefits</h2><div><div><strong>Divine Ability</strong> Strength or Constitution</div><div><strong>Divine Font</strong> harm or heal</div><div><strong>Divine Skill</strong> Athletics</div><div><strong>Favored Weapon</strong> falchion</div><div><strong>Domains</strong> might, protection, water, wyrmkin</div><div><strong>Cleric Spells</strong> 1st: hydraulic push, 3rd: feet to fins, 4th: dinosaur form (appears as crocodile)</div></div>",
    "flags": {},
    "name": "Sobek",
    "permission": {
        "default": 0
    }
}
