{
    "_id": "DFxbPmQLOqcmbPTz",
    "content": "<h1>Tanagaar (The Aurulent Eye) [LG]</h1><p><strong>Edicts</strong> Defend lawful borders, scout or patrol for evil, wait to strike until you have the advantage</p><p><strong>Anathema</strong> Abandon your post, tolerate poaching, torment animals</p><p><strong>Follower Alignments</strong> LG, LN</span></p><h2>Devotee Benefits</h2><div><div><strong>Divine Ability</strong> Strength or Wisdom</div><div><strong>Divine Font</strong> heal</div><div><strong>Divine Skill</strong> Stealth</div><div><strong>Favored Weapon</strong> kukri</div><div><strong>Domains</strong> darkness, duty, nature, zeal</div><div><strong>Cleric Spells</strong> 1st: pass without trace, 3rd: animal vision, 4th: aerial form (bird only)</div></div>",
    "flags": {},
    "name": "Tanagaar",
    "permission": {
        "default": 0
    }
}
