{
    "_id": "8roijlQ03l9rWFFe",
    "content": "<h1>Zevgavizeb (The Beast of Gluttondark ) [CE]</h1><p>The Beast of Gluttondark's sphere of influence encompasses caverns, reptiles, the strong, and all-consuming hunger. A primordial qlippoth-turned-demon lord, Zevgavizeb seems to care little for his followers, and so he is more often propitiated than worshipped.</p><p><strong>Edicts</strong> expand your clutch's domain, dominate your enemies, demonstrate mastery over your crafts and environment, devour the weak</p><p><strong>Anathema</strong> surrender in combat, express weakness in the face of adversity, show mercy to the weak</p><p><strong>Areas of Concern</strong> caverns, reptiles, and troglodytes</p><p><strong>Follower Alignments</strong> NE, CE</span></p><h2>Devotee Benefits</h2><div><div><div><strong>Divine Ability</strong> Strength or Constitution</div><div><strong>Divine Font</strong> harm</div><div><strong>Divine Skill</strong> Survival</div><div><strong>Favored Weapon</strong> spiked gauntlet</div><div><strong>Domains</strong> might, nature, trickery, tyranny</div><div><strong>Alternate Domains</strong> destruction, indulgence, wyrmkin</div><div><strong>Cleric Spells</strong> 1st: ray of enfeeblement, 3rd: meld into stone, 5th: ravening maw</div></div></div>",
    "flags": {},
    "name": "Zevgavizeb",
    "permission": {
        "default": 0
    }
}
