{
    "_id": "BlovCvjhk4Ag07w2",
    "content": "<p><strong>Deities </strong>@Compendium[pf2e.deities.Desna]{Desna}, @Compendium[pf2e.deities.Imbrex]{Imbrex}, @Compendium[pf2e.deities.Luhar]{Luhar}, @Compendium[pf2e.deities.Xhamen-Dor]{Xhamen-Dor}</p><p><strong>Domain Spell</strong> @Compendium[pf2e.spells-srd.Sweet Dream]{Sweet Dream}; <strong>Advanced Domain Spell</strong> @Compendium[pf2e.spells-srd.Dreamer's Call]{Dreamer's Call}</p><p></span><span id=\"ctl00_MainContent_DetailedOutput\">You have the power to enter and manipulate dreams.</p>",
    "flags": {},
    "name": "Dreams Domain",
    "permission": {
        "default": 0
    }
}
