{
    "_id": "8ITGLquhimrr9CNv",
    "content": "<p><strong>Deities</strong> @Compendium[pf2e.deities.Baphomet]{Baphomet}, @Compendium[pf2e.deities.Cayden Cailean]{Cayden Cailean}, @Compendium[pf2e.deities.Gogunta]{Gogunta}, @Compendium[pf2e.deities.Halcamora]{Halcamora}, @Compendium[pf2e.deities.Hei Feng]{Hei Feng}, @Compendium[pf2e.deities.Kabriri]{Kabriri}, @Compendium[pf2e.deities.Lahkgya]{Lahkgya}, @Compendium[pf2e.deities.Sekhmet]{Sekhmet}, @Compendium[pf2e.deities.Sun Wukong]{Sun Wukong}, @Compendium[pf2e.deities.The Green Mother]{The Green Mother}, @Compendium[pf2e.deities.Urgathoa]{Urgathoa}, @Compendium[pf2e.deities.Ydersius]{Ydersius}, @Compendium[pf2e.deities.Zura]{Zura}</p><p><strong>Domain Spell</strong> @Compendium[pf2e.spells-srd.Overstuff]{Overstuff}; <strong>Advanced Domain Spell</strong> @Compendium[pf2e.spells-srd.Take its Course]{Take its Course}</p><p><span id=\"ctl00_MainContent_DetailedOutput\">You feast mightily and can shake off the effects of overindulging.</span></p><p></p>",
    "flags": {},
    "name": "Indulgence Domain",
    "permission": {
        "default": 0
    }
}
