{
    "_id": "Y2kOBQydrsSqGCyn",
    "content": "<p><strong>Deities</strong> @Compendium[pf2e.deities.Abraxas]{Abraxas}, @Compendium[pf2e.deities.Alseta]{Alseta}, @Compendium[pf2e.deities.Arundhat]{Arundhat}, @Compendium[pf2e.deities.Baalzebul]{Baalzebul}, @Compendium[pf2e.deities.Barbatos]{Barbatos}, @Compendium[pf2e.deities.Elven Pantheon]{Elven Pantheon}, @Compendium[pf2e.deities.Irez]{Irez}, @Compendium[pf2e.deities.Isis]{Isis}, @Compendium[pf2e.deities.Korada]{Korada}, @Compendium[pf2e.deities.Lissala]{Lissala}, @Compendium[pf2e.deities.Nalinivati]{Nalinivati}, @Compendium[pf2e.deities.Nethys]{Nethys}, @Compendium[pf2e.deities.Ng]{Ng}, @Compendium[pf2e.deities.Nyarlathotep]{Nyarlathotep}, @Compendium[pf2e.deities.Qi Zhong]{Qi Zhong}, @Compendium[pf2e.deities.Selket]{Selket}, @Compendium[pf2e.deities.Sivanah]{Sivanah}, @Compendium[pf2e.deities.Soralyon]{Soralyon}, @Compendium[pf2e.deities.Urgathoa]{Urgathoa}, @Compendium[pf2e.deities.Valmallos]{Valmallos}, @Compendium[pf2e.deities.Wards of the Pharaoh]{Wards of the Pharaoh}, @Compendium[pf2e.deities.Yuelral]{Yuelral}</p><p><strong>Domain Spell</strong> @Compendium[pf2e.spells-srd.Magic's Vessel]{Magic's Vessel}; <strong>Advanced Domain Spell</strong> @Compendium[pf2e.spells-srd.Mystic Beacon]{Mystic Beacon}</p><p><span id=\"ctl00_MainContent_DetailedOutput\">You perform the unexpected and inexplicable.</span></p>",
    "flags": {},
    "name": "Magic Domain",
    "permission": {
        "default": 0
    }
}
