{
    "_id": "udASTZy5jJWFCt5w",
    "content": "<p><strong>Deities</strong> @Compendium[pf2e.deities.Alseta]{Alseta}, @Compendium[pf2e.deities.Brigh]{Brigh}, @Compendium[pf2e.deities.Pharasma]{Pharasma}, @Compendium[pf2e.deities.Pillars of Knowledge]{Pillars of Knowledge}, @Compendium[pf2e.deities.Ra]{Ra}, @Compendium[pf2e.deities.Shyka]{Shyka}, @Compendium[pf2e.deities.Yog-Sothoth]{Yog-Sothoth}</p><p><strong>Domain Spell</strong> @Compendium[pf2e.spells-srd.Delay Consequence]{Delay Consequence}; <strong>Advanced Domain Spell</strong> @Compendium[pf2e.spells-srd.Stasis]{Stasis}</p><p><span id=\"ctl00_MainContent_DetailedOutput\">You reign over the flow of time.</span></p><p></p>",
    "flags": {},
    "name": "Time Domain",
    "permission": {
        "default": 0
    }
}
