{
    "_id": "DBWfPOYZaupwo3rz",
    "data": {
        "actionCategory": {
            "value": ""
        },
        "actionType": {
            "value": "passive"
        },
        "actions": {
            "value": null
        },
        "description": {
            "value": "<p>You've continued adapting your magic to blend your class's tradition with your adapted tradition. Choose a cantrip or 1st-level spell from the same magical tradition as your cantrip from Adapted Cantrip. You gain that spell, adding it to your spell repertoire, spellbook, or prepared spells just like the cantrip from Adapted Spell. You can cast this spell as a spell of your class's magical tradition. If you choose a 1st-level spell, you don't gain access to the heightened versions of that spell, meaning you can't prepare them if you prepare spells and you can't learn them or select the spell as a signature spell if you have a spell repertoire.</p>"
        },
        "featType": {
            "value": "ancestry"
        },
        "level": {
            "value": 5
        },
        "prerequisites": {
            "value": [
                {
                    "value": "Adapted Cantrip"
                },
                {
                    "value": "can cast 3rd level spells"
                }
            ]
        },
        "rules": [],
        "source": {
            "value": "Pathfinder Core Rulebook"
        },
        "traits": {
            "custom": "",
            "rarity": {
                "value": "common"
            },
            "value": [
                "human"
            ]
        }
    },
    "effects": [],
    "flags": {},
    "img": "systems/pf2e/icons/features/feats/feats.webp",
    "name": "Adaptive Adept",
    "type": "feat"
}
