{
    "_id": "Lc4dJZivRwU3QEmT",
    "data": {
        "actionCategory": {
            "value": ""
        },
        "actionType": {
            "value": "passive"
        },
        "actions": {
            "value": null
        },
        "description": {
            "value": "<p>After your service aiding armored combatants, you are practiced in helping yourself and others don heavy gear.</p>\n<p>You can attempt an Athletics or Warfare Lore check with a DC determined by the GM (but usually 15 for common armor, DC 20 for uncommon armor, and DC 25 for rare armor) to halve the time you take to don armor.</p>\n<p>You can halve an ally's time to don armor by working with them to don the armor and succeeding at an Athletics or Warfare Lore check against the same DC.</p>"
        },
        "featType": {
            "value": "skill"
        },
        "level": {
            "value": 1
        },
        "prerequisites": {
            "value": [
                {
                    "value": "trained in Athletics or Warfare Lore"
                }
            ]
        },
        "rules": [],
        "source": {
            "value": "Pathfinder Advanced Player's Guide"
        },
        "traits": {
            "custom": "",
            "rarity": {
                "value": "common"
            },
            "value": [
                "general",
                "skill"
            ]
        }
    },
    "effects": [],
    "flags": {},
    "img": "systems/pf2e/icons/features/feats/feats.webp",
    "name": "Armor Assist",
    "type": "feat"
}
