{
    "_id": "7sFhBYoz5GSBFNbY",
    "data": {
        "actionCategory": {
            "value": ""
        },
        "actionType": {
            "value": "passive"
        },
        "actions": {
            "value": null
        },
        "description": {
            "value": "<p>You radiate an aura of pure belief that imbues your attacks and those of nearby allies with holy power.</p>\n<p>Your Strikes deal an extra 1 good damage against evil creatures. Also, each good-aligned ally within 15 feet gains this benefit on their first Strike that hits an evil creature each round.</p>\n<p>@Compendium[pf2e.feat-effects.Effect: Aura of Faith]{Effect: Aura of Faith}</p>"
        },
        "featType": {
            "value": "class"
        },
        "level": {
            "value": 12
        },
        "location": "",
        "prerequisites": {
            "value": [
                {
                    "value": "tenets of good"
                }
            ]
        },
        "rules": [
            {
                "damageType": "good",
                "key": "FlatModifier",
                "label": "Aura of Faith (Self)",
                "selector": "damage",
                "value": 1
            }
        ],
        "source": {
            "value": "Pathfinder Core Rulebook"
        },
        "traits": {
            "custom": "",
            "rarity": {
                "value": "common"
            },
            "value": [
                "champion"
            ]
        }
    },
    "effects": [],
    "flags": {},
    "img": "systems/pf2e/icons/features/feats/feats.webp",
    "name": "Aura of Faith",
    "type": "feat"
}
