{
    "_id": "rCnaBbk0M1gBVHjG",
    "data": {
        "actionCategory": {
            "value": ""
        },
        "actionType": {
            "value": "passive"
        },
        "actions": {
            "value": null
        },
        "description": {
            "value": "<p>Your attacks are so powerful, they can flatten your opponents. When you use Knockback, you can attempt an Athletics check against your target's Fortitude DC.</p>\n<hr />\n<p><strong>Critical Success</strong> You gain the critical success effect of a Shove, then the critical success effect of a Trip against the target.</p>\n<p><strong>Success</strong> You gain the success effect of a Shove, then the success effect of a Trip against the target.</p>\n<p><strong>Failure</strong> You gain the normal effect of Knockback.</p>"
        },
        "featType": {
            "value": "class"
        },
        "level": {
            "value": 14
        },
        "prerequisites": {
            "value": [
                {
                    "value": "Knockback"
                }
            ]
        },
        "rules": [],
        "source": {
            "value": "Pathfinder Core Rulebook"
        },
        "traits": {
            "custom": "",
            "rarity": {
                "value": "common"
            },
            "value": [
                "barbarian",
                "concentrate",
                "rage"
            ]
        }
    },
    "effects": [],
    "flags": {},
    "img": "systems/pf2e/icons/features/feats/feats.webp",
    "name": "Awesome Blow",
    "type": "feat"
}
