{
    "_id": "vPZxFpq7XkRmE3Uc",
    "data": {
        "actionCategory": {
            "value": ""
        },
        "actionType": {
            "value": "action"
        },
        "actions": {
            "value": 1
        },
        "description": {
            "value": "<p><strong>Requirements</strong> You're wielding a loaded firearm. You fire your weapon as you jump, using the kickback to go farther.</p>\n<hr />\n<p>You @Compendium[pf2e.actionspf2e.Leap]{Leap} and discharge your firearm to add a +10-foot status bonus to the distance traveled. If you spend 2 actions for Black Powder Boost, you @Compendium[pf2e.actionspf2e.High Jump]{High Jump} or @Compendium[pf2e.actionspf2e.Long Jump]{Long Jump} instead.</p>\n<p><strong>Special</strong> An ability that allows you to High Jump or Long Jump as a single action (like the @Compendium[pf2e.feats-srd.Quick Jump]{Quick Jump} skill feat) lets you use Black Powder Boost as a single action for those jumps as well.</p>"
        },
        "featType": {
            "value": "class"
        },
        "level": {
            "value": 4
        },
        "location": "",
        "prerequisites": {
            "value": []
        },
        "rules": [],
        "source": {
            "value": ""
        },
        "traits": {
            "custom": "",
            "rarity": {
                "value": "common"
            },
            "value": [
                "gunslinger"
            ]
        }
    },
    "effects": [],
    "flags": {},
    "img": "systems/pf2e/icons/default-icons/feats.webp",
    "name": "Black Powder Boost",
    "type": "feat"
}
