{
    "_id": "pph43ZrfvEnQjJXE",
    "data": {
        "actionCategory": {
            "value": ""
        },
        "actionType": {
            "value": "passive"
        },
        "actions": {
            "value": null
        },
        "description": {
            "value": "<p>By loading special ammunition in a particular way, you can make your siege weapons do all manner of tricks that other siege engineers can barely even imagine. If you personally contribute an additional Load action to the siege weapon's loading, above the minimum, you can change a burst into a line twice as long as the size of the burst, or vice versa (so a <span data-pf2-effect-area=\"burst\" data-pf2-distance=\"10\" data-pf2-traits=\"\">10-foot burst</span> turns into a <span data-pf2-effect-area=\"line\" data-pf2-distance=\"20\" data-pf2-traits=\"\">20-foot line</span>, or a 20-foot line turns into a 10-foot burst).</p>"
        },
        "featType": {
            "value": "archetype"
        },
        "level": {
            "value": 6
        },
        "location": "",
        "prerequisites": {
            "value": [
                {
                    "value": "Artillerist Dedication"
                }
            ]
        },
        "rules": [],
        "source": {
            "value": ""
        },
        "traits": {
            "custom": "",
            "rarity": {
                "value": "common"
            },
            "value": [
                "archetype"
            ]
        }
    },
    "effects": [],
    "flags": {},
    "img": "systems/pf2e/icons/default-icons/feats.webp",
    "name": "Cannon Corner Shot",
    "type": "feat"
}
