{
    "_id": "o5q9FBrPsAYqEl5w",
    "data": {
        "actionCategory": {
            "value": ""
        },
        "actionType": {
            "value": "action"
        },
        "actions": {
            "value": 2
        },
        "description": {
            "value": "<p><strong>Cost</strong> Expend a <em>@Compendium[pf2e.spells-srd.Harm]{Harm}</em> or <em>@Compendium[pf2e.spells-srd.Heal]{Heal}</em> spell.</p>\n<hr />\n<p>You siphon the destructive energies of positive or negative energy through a melee attack and into your foe.</p>\n<p>Make a melee Strike and add the spell's damage to the Strike's damage.</p>\n<p>This is negative damage if you expended a <em>harm</em> spell or positive damage if you expended a <em>heal</em> spell. The spell is expended with no effect if your Strike fails or hits a creature that isn't damaged by that energy type (such as if you hit a non-undead creature with a <em>heal</em> spell).</p>"
        },
        "featType": {
            "value": "class"
        },
        "level": {
            "value": 4
        },
        "location": "",
        "prerequisites": {
            "value": [
                {
                    "value": "harmful font or healing font"
                }
            ]
        },
        "rules": [],
        "source": {
            "value": "Pathfinder Core Rulebook"
        },
        "traits": {
            "custom": "",
            "rarity": {
                "value": "common"
            },
            "value": [
                "cleric",
                "divine",
                "necromancy"
            ]
        }
    },
    "effects": [],
    "flags": {},
    "img": "systems/pf2e/icons/features/feats/feats.webp",
    "name": "Channel Smite",
    "type": "feat"
}
