{
    "_id": "SzZFmcfLoHMAS0gt",
    "data": {
        "actionCategory": {
            "value": ""
        },
        "actionType": {
            "value": "passive"
        },
        "actions": {
            "value": null
        },
        "description": {
            "value": "<p>Your connection to air allows you to see through obscuring mists. You can see well enough through fog, mist, and clouds that would normally cause creatures to be @Compendium[pf2e.conditionitems.Concealed]{Concealed} that you don't need to succeed at a flat check to target creatures benefiting from such concealment.</p>"
        },
        "featType": {
            "value": "ancestry"
        },
        "level": {
            "value": 5
        },
        "location": "",
        "prerequisites": {
            "value": []
        },
        "rules": [],
        "source": {
            "value": "Pathfinder Lost Omens: Ancestry Guide"
        },
        "traits": {
            "custom": "",
            "rarity": {
                "value": "common"
            },
            "value": [
                "sylph"
            ]
        }
    },
    "effects": [],
    "flags": {},
    "img": "systems/pf2e/icons/features/feats/feats.webp",
    "name": "Cloud Gazer",
    "type": "feat"
}
