{
    "_id": "9uvymmdphxsD3yEd",
    "data": {
        "actionCategory": {
            "value": ""
        },
        "actionType": {
            "value": "passive"
        },
        "actions": {
            "value": null
        },
        "description": {
            "value": "<p><strong>Requirements</strong> You are in Arcane Cascade stance.</p>\n<hr />\n<p>When you use @Compendium[pf2e.feats-srd.Shield Block]{Shield Block}, you can create a flash of brilliant, multicolored light in a <span data-pf2-effect-area=\"cone\" data-pf2-distance=\"15\">15-foot cone</span>. Each creature in the area must attempt a <span data-pf2-check=\"fortitude\" data-pf2-traits=\"evocation,light,magus,visual\" data-pf2-label=\"Dazzling Block DC\" data-pf2-show-dc=\"gm\">Fortitude</span> save, with the following effects.</p>\n<hr />\n<p><strong>Critical Success</strong> The creature is unaffected.</p>\n<p><strong>Success</strong> The creature is @Compendium[pf2e.conditionitems.Dazzled]{Dazzled} for 1 round.</p>\n<p><strong>Failure</strong> The creature is @Compendium[pf2e.conditionitems.Blinded]{Blinded} for 1 round and dazzled for 1 minute. The creature can spend an Interact action rubbing its eyes to end this blinded condition.</p>\n<p><strong>Critical Failure</strong> The creature is blinded for 1 round and dazzled for 1 hour.</p>"
        },
        "featType": {
            "value": "class"
        },
        "level": {
            "value": 10
        },
        "location": "",
        "prerequisites": {
            "value": [
                {
                    "value": "Arcane Cascade"
                },
                {
                    "value": "sparkling targe hybrid study"
                }
            ]
        },
        "rules": [],
        "source": {
            "value": ""
        },
        "traits": {
            "custom": "",
            "rarity": {
                "value": "common"
            },
            "value": [
                "evocation",
                "light",
                "magus",
                "visual"
            ]
        }
    },
    "effects": [],
    "flags": {},
    "img": "systems/pf2e/icons/features/feats/feats.webp",
    "name": "Dazzling Block",
    "type": "feat"
}
