{
    "_id": "515N9nl9ChZwLWKR",
    "data": {
        "actionCategory": {
            "value": ""
        },
        "actionType": {
            "value": "action"
        },
        "actions": {
            "value": 1
        },
        "description": {
            "value": "<p>Like the storied heroes who persist in the face of overwhelming odds, you and your allies will hold the line.</p>\n<p>If your next action is to cast the <em>@Compendium[pf2e.spells-srd.Inspire Defense]{Inspire Defense}</em> composition cantrip, you can @Compendium[pf2e.actionspf2e.Raise a Shield]{Raise a Shield}, and one ally who gains a status bonus from the spell can immediately use a reaction to Raise a Shield.</p>"
        },
        "featType": {
            "value": "class"
        },
        "level": {
            "value": 6
        },
        "location": "",
        "prerequisites": {
            "value": [
                {
                    "value": "warrior muse"
                },
                {
                    "value": "Inspire Defense"
                }
            ]
        },
        "rules": [],
        "source": {
            "value": "Pathfinder Advanced Player's Guide"
        },
        "traits": {
            "custom": "",
            "rarity": {
                "value": "common"
            },
            "value": [
                "auditory",
                "bard",
                "concentrate",
                "metamagic"
            ]
        }
    },
    "effects": [],
    "flags": {},
    "img": "systems/pf2e/icons/features/feats/feats.webp",
    "name": "Defensive Coordination",
    "type": "feat"
}
