{
    "_id": "tIeVe9jOmxW7NgCK",
    "data": {
        "actionCategory": {
            "value": "offensive"
        },
        "actionType": {
            "value": "action"
        },
        "actions": {
            "value": 2
        },
        "description": {
            "value": "<p><strong>Requirements</strong> You're in Arcane Cascade stance and have a hand free.</p>\n<hr />\n<p>You weave distracting magic with one hand to enhance your Spellstrike. Make a Spellstrike and @Compendium[pf2e.actionspf2e.Feint]{Feint} against the target of your Strike. Do this immediately before making the Strike, but after choosing your target.</p>\n<p>The Feint gains the arcane, illusion, and visual traits, and it always has the basic effects of a Feint, rather than applying any adjustments or alternate effects from other feats or abilities.</p>"
        },
        "featType": {
            "value": "class"
        },
        "level": {
            "value": 4
        },
        "location": "",
        "prerequisites": {
            "value": [
                {
                    "value": "laughing shadow hybrid study"
                },
                {
                    "value": "Spellstrike"
                }
            ]
        },
        "rules": [],
        "source": {
            "value": ""
        },
        "traits": {
            "custom": "",
            "rarity": {
                "value": "common"
            },
            "value": [
                "magus"
            ]
        }
    },
    "effects": [],
    "flags": {},
    "img": "systems/pf2e/icons/features/feats/feats.webp",
    "name": "Distracting Spellstrike",
    "type": "feat"
}
