{
    "_id": "9EqUTnbV8WHE2aKm",
    "data": {
        "actionCategory": {
            "value": ""
        },
        "actionType": {
            "value": "action"
        },
        "actions": {
            "value": 1
        },
        "description": {
            "value": "<p>If your next action is to Cast a Spell from your spell slots, you gain a benefit. If the spell is arcane, you can attempt a skill check to @Compendium[pf2e.actionspf2e.Recall Knowledge (Lore)]{Recall Knowledge} with a +1 status bonus to the check after casting the spell, or a +2 status bonus if the spell is 7th level or higher. If the spell is primal, you gain a number of temporary Hit Points equal to the spell's level for 1 round. If the spell is a halcyon spell, you gain both benefits.</p>"
        },
        "featType": {
            "value": "class"
        },
        "level": {
            "value": 8
        },
        "prerequisites": {
            "value": [
                {
                    "value": "Halcyon Speaker Dedication"
                }
            ]
        },
        "rules": [],
        "source": {
            "value": "Pathfinder Lost Omens: Character Guide"
        },
        "traits": {
            "custom": "",
            "rarity": {
                "value": "common"
            },
            "value": [
                "archetype",
                "metamagic"
            ]
        }
    },
    "effects": [],
    "flags": {},
    "img": "systems/pf2e/icons/features/feats/feats.webp",
    "name": "Dualistic Synergy",
    "type": "feat"
}
