{
    "_id": "AJVx3sHm6f6i8ZQW",
    "data": {
        "actionCategory": {
            "value": ""
        },
        "actionType": {
            "value": "passive"
        },
        "actions": {
            "value": null
        },
        "description": {
            "value": "<p>The magic of your efreeti ancestors flows through you. You can cast <em>@Compendium[pf2e.spells-srd.Enlarge]{Enlarge}</em> and <em>@Compendium[pf2e.spells-srd.Illusory Object]{Illusory Object}</em> once per day each as 2nd-level arcane innate spells.</p>"
        },
        "featType": {
            "value": "ancestry"
        },
        "level": {
            "value": 9
        },
        "location": "",
        "prerequisites": {
            "value": []
        },
        "rules": [],
        "source": {
            "value": "Pathfinder Lost Omens: Ancestry Guide"
        },
        "traits": {
            "custom": "",
            "rarity": {
                "value": "common"
            },
            "value": [
                "ifrit"
            ]
        }
    },
    "effects": [],
    "flags": {},
    "img": "systems/pf2e/icons/features/feats/feats.webp",
    "name": "Efreeti Magic",
    "type": "feat"
}
