{
    "_id": "011wnYpjIwCEzFtl",
    "data": {
        "actionCategory": {
            "value": ""
        },
        "actionType": {
            "value": "passive"
        },
        "actions": {
            "value": null
        },
        "description": {
            "value": "<p>You can call the four elements to you.</p>\n<p>You can spend 10 minutes in concert with nature to replace one of the spells you've prepared in one of your druid spell slots with a <em>@Compendium[pf2e.spells-srd.Summon Elemental]{Summon Elemental}</em> spell of the same level.</p>"
        },
        "featType": {
            "value": "class"
        },
        "level": {
            "value": 4
        },
        "prerequisites": {
            "value": []
        },
        "rules": [],
        "source": {
            "value": "Pathfinder Advanced Player's Guide"
        },
        "traits": {
            "custom": "",
            "rarity": {
                "value": "common"
            },
            "value": [
                "druid"
            ]
        }
    },
    "effects": [],
    "flags": {},
    "img": "systems/pf2e/icons/features/feats/feats.webp",
    "name": "Elemental Summons",
    "type": "feat"
}
