{
    "_id": "EZ24QwnFteLCrgLg",
    "data": {
        "actionCategory": {
            "value": ""
        },
        "actionType": {
            "value": "passive"
        },
        "actions": {
            "value": null
        },
        "description": {
            "value": "<p>You are comfortable and socially capable in almost any cultural context. When you use the Society skill to Subsist, if you roll a critical failure, you get a failure instead; if you roll a success, you get a critical success instead; and if you roll a critical success, you can provide for another additional creature. Furthermore, when you attempt a Society check to Recall Knowledge about cultural practices and roll a critical failure, you get a failure instead.</p>"
        },
        "featType": {
            "value": "archetype"
        },
        "level": {
            "value": 6
        },
        "prerequisites": {
            "value": [
                {
                    "value": "Magaambyan Attendant Dedication"
                },
                {
                    "value": "Emerald Boughs Affiliation"
                },
                {
                    "value": "expert in Society"
                }
            ]
        },
        "rules": [],
        "source": {
            "value": "Pathfinder Lost Omens: Character Guide"
        },
        "traits": {
            "custom": "",
            "rarity": {
                "value": "common"
            },
            "value": [
                "skill",
                "archetype"
            ]
        }
    },
    "effects": [],
    "flags": {},
    "img": "systems/pf2e/icons/features/feats/feats.webp",
    "name": "Emerald Boughs Accustomation",
    "type": "feat"
}
