{
    "_id": "9SdFlVQW4vM8ggh8",
    "data": {
        "actionCategory": {
            "value": ""
        },
        "actionType": {
            "value": "action"
        },
        "actions": {
            "value": 2
        },
        "description": {
            "value": "<p><strong>Requirements</strong> You have a deck of playing cards in your possession.</p>\n<hr />\n<p>A good getaway requires a good distraction. You Interact to draw a deck of cards and flip it in a fluttering explosion, causing you to become briefly @Compendium[pf2e.conditionitems.Hidden]{Hidden} to all other creatures using vision as their precise sense, and then you Sneak. You have enough cover to Sneak until the end of your turn. This leaves all of the cards from the deck scattered about the room; collecting them into a deck again takes several minutes.</p>"
        },
        "featType": {
            "value": "skill"
        },
        "level": {
            "value": 4
        },
        "prerequisites": {
            "value": [
                {
                    "value": "expert in Stealth"
                }
            ]
        },
        "rules": [],
        "source": {
            "value": "Pathfinder Lost Omens: Pathfinder Society Guide"
        },
        "traits": {
            "custom": "",
            "rarity": {
                "value": "uncommon"
            },
            "value": [
                "general",
                "skill"
            ]
        }
    },
    "effects": [],
    "flags": {},
    "img": "systems/pf2e/icons/features/feats/feats.webp",
    "name": "Fane's Escape",
    "type": "feat"
}
