{
    "_id": "kceciNwoldkzAMbq",
    "data": {
        "actionCategory": {
            "value": ""
        },
        "actionType": {
            "value": "passive"
        },
        "actions": {
            "value": null
        },
        "description": {
            "value": "<p>You have combined two stances into a single stance all your own. When you take this feat, choose two stances you know and combine them into a single fused stance. Give your new fused stance a unique name. When you enter your fused stance, you gain all the effects of both stances, including the requirements and restrictions. You can't fuse stances with fundamentally incompatible requirements or restrictions (such as @Compendium[pf2e.feats-srd.Mountain Stance]{Mountain Stance} and @Compendium[pf2e.feats-srd.Crane Stance]{Crane Stance}, which both require using only one type of Strike).</p>"
        },
        "featType": {
            "value": "class"
        },
        "level": {
            "value": 20
        },
        "prerequisites": {
            "value": [
                {
                    "value": "at least two stances"
                }
            ]
        },
        "rules": [],
        "source": {
            "value": "Pathfinder Core Rulebook"
        },
        "traits": {
            "custom": "",
            "rarity": {
                "value": "common"
            },
            "value": [
                "monk"
            ]
        }
    },
    "effects": [],
    "flags": {},
    "img": "systems/pf2e/icons/features/feats/feats.webp",
    "name": "Fuse Stance",
    "type": "feat"
}
