{
    "_id": "MJW4VP7PjVAX131C",
    "data": {
        "actionCategory": {
            "value": ""
        },
        "actionType": {
            "value": "action"
        },
        "actions": {
            "value": 1
        },
        "description": {
            "value": "<p>You tap into the collected lore of the divine, accessing a variety of potentially useful information.</p>\n<p>Attempt a Religion check to understand the information you gain. The GM sets the DC (similar to the DC to @Compendium[pf2e.actionspf2e.Recall Knowledge (Lore)]{Recall Knowledge}), potentially adjusting the DC of the check for topics far removed from your mystery.</p>\n<hr />\n<p><strong>Critical Success</strong> You comprehend the lore accurately or gain a</p>\n<p>useful clue from the divine about your situation.</p>\n<p><strong>Success</strong> You learn two pieces of information about the topic,</p>\n<p>one true and one erroneous, but you don't know which is which.</p>\n<p><strong>Failure</strong> You recall incorrect information or gain an erroneous</p>\n<p>or misleading clue.</p>\n<p><strong>Critical Failure</strong> You recall two pieces of incorrect information</p>\n<p>or gain two erroneous or misleading clues.</p>"
        },
        "featType": {
            "value": "class"
        },
        "level": {
            "value": 1
        },
        "prerequisites": {
            "value": []
        },
        "rules": [],
        "source": {
            "value": "Pathfinder Advanced Player's Guide"
        },
        "traits": {
            "custom": "",
            "rarity": {
                "value": "common"
            },
            "value": [
                "divination",
                "divine",
                "oracle",
                "secret"
            ]
        }
    },
    "effects": [],
    "flags": {},
    "img": "systems/pf2e/icons/features/feats/feats.webp",
    "name": "Glean Lore",
    "type": "feat"
}
