{
    "_id": "Bj0GvPgyPiC2kDH1",
    "data": {
        "actionCategory": {
            "value": "interaction"
        },
        "actionType": {
            "value": "action"
        },
        "actions": {
            "value": 1
        },
        "description": {
            "value": "<p>Your eidolon evolves wings, a buoyant body, or some other means to control descent.</p>\n<p>It glides slowly toward the ground, 5 feet down and up to 25 feet forward through the air.</p>\n<p>As long as it spends at least 1 action gliding each round and has not yet reached the ground, it remains in the air at the end of your turn.</p>"
        },
        "featType": {
            "value": "class"
        },
        "level": {
            "value": 1
        },
        "location": "",
        "prerequisites": {
            "value": []
        },
        "rules": [],
        "source": {
            "value": ""
        },
        "traits": {
            "custom": "",
            "rarity": {
                "value": "common"
            },
            "value": [
                "eidolon",
                "evolution",
                "move",
                "summoner"
            ]
        }
    },
    "effects": [],
    "flags": {},
    "img": "systems/pf2e/icons/default-icons/feat.svg",
    "name": "Glider Form",
    "type": "feat"
}
