{
    "_id": "aLgb1x3azE4IKz0o",
    "data": {
        "actionCategory": {
            "value": "offensive"
        },
        "actionType": {
            "value": "passive"
        },
        "actions": {
            "value": null
        },
        "description": {
            "value": "<p>Whenever you critically hit using @Compendium[pf2e.equipment-srd.Flail]{Flail}, @Compendium[pf2e.equipment-srd.Khopesh]{Khopesh}, @Compendium[pf2e.equipment-srd.Mambele]{Mambele}, @Compendium[pf2e.equipment-srd.Spear]{Spear}, and @Compendium[pf2e.equipment-srd.War Flail]{War Flail}, you apply the weapon's critical specialization effect.</p>"
        },
        "featType": {
            "value": "ancestry"
        },
        "level": {
            "value": 5
        },
        "location": "",
        "prerequisites": {
            "value": [
                {
                    "value": "Gnoll Weapon Familiarity"
                }
            ]
        },
        "rules": [],
        "source": {
            "value": "Pathfinder Lost Omens: The Mwangi Expanse"
        },
        "traits": {
            "custom": "",
            "rarity": {
                "value": "common"
            },
            "value": [
                "gnoll"
            ]
        }
    },
    "effects": [],
    "flags": {},
    "img": "systems/pf2e/icons/default-icons/feat.svg",
    "name": "Gnoll Weapon Practicality",
    "type": "feat"
}
