{
    "_id": "jTOxxy19o2VRJTbH",
    "data": {
        "actionCategory": {
            "value": ""
        },
        "actionType": {
            "value": "passive"
        },
        "actions": {
            "value": null
        },
        "description": {
            "value": "<p>You are a xun for the Golden League, aiding the organization. You gain expert proficiency in two of the following skills (or in two other skills of your choice in which you're trained, if you were already an expert in the listed skills): Athletics, Deception, Intimidation, or Stealth. In addition, if you use Underworld Lore to Earn Income or Recall Knowledge, when you get a success, you get a critical success instead.</p>\n<p><strong>Special</strong> You can't select another dedication feat until you've gained two other feats from the Golden League Xun archetype.</p>"
        },
        "featType": {
            "value": "archetype"
        },
        "level": {
            "value": 8
        },
        "location": "",
        "prerequisites": {
            "value": [
                {
                    "value": "master in Underworld Lore"
                }
            ]
        },
        "rules": [],
        "source": {
            "value": "Pathfinder #167: Ready? Fight!"
        },
        "traits": {
            "custom": "",
            "rarity": {
                "value": "uncommon"
            },
            "value": [
                "archetype",
                "dedication"
            ]
        }
    },
    "effects": [],
    "flags": {},
    "img": "systems/pf2e/icons/default-icons/feats.webp",
    "name": "Golden League Xun Dedication",
    "type": "feat"
}
