{
    "_id": "nyhQ9xB0rkoAoNbf",
    "data": {
        "actionCategory": {
            "value": ""
        },
        "actionType": {
            "value": "passive"
        },
        "actions": {
            "value": null
        },
        "description": {
            "value": "<p>Your lineage traces back to a daemon, one of the manifestations of horrific forms of death that devour souls within their foul home of Abaddon. As a result, you cling tenaciously to the last shreds of your own life force.</p>\n<p>You gain the @Compendium[pf2e.feats-srd.Diehard]{Diehard} feat.</p>"
        },
        "featType": {
            "value": "ancestry"
        },
        "level": {
            "value": 1
        },
        "prerequisites": {
            "value": []
        },
        "rules": [],
        "source": {
            "value": "Pathfinder Advanced Player's Guide"
        },
        "traits": {
            "custom": "",
            "rarity": {
                "value": "common"
            },
            "value": [
                "lineage",
                "tiefling"
            ]
        }
    },
    "effects": [],
    "flags": {},
    "img": "systems/pf2e/icons/features/feats/feats.webp",
    "name": "Grimspawn",
    "type": "feat"
}
