{
    "_id": "9lyFxaoZjF1ZjVN9",
    "data": {
        "actionCategory": {
            "value": ""
        },
        "actionType": {
            "value": "passive"
        },
        "actions": {
            "value": null
        },
        "description": {
            "value": "<p>You become trained in your choice of Guild Lore, Legal Lore, Mercantile Lore, or Underworld Lore. You gain a +1 circumstance bonus to Diplomacy checks to Gather Information and to checks made to investigate crimes.</p>"
        },
        "featType": {
            "value": "archetype"
        },
        "level": {
            "value": 3
        },
        "location": "",
        "prerequisites": {
            "value": [
                {
                    "value": "Zephyr Guard Dedication"
                }
            ]
        },
        "rules": [
            {
                "key": "FlatModifier",
                "label": "to Gather Information (Know the Beat)",
                "predicate": {
                    "any": [
                        "action:gather-information"
                    ]
                },
                "selector": "diplomacy",
                "type": "circumstance",
                "value": 1
            }
        ],
        "source": {
            "value": "Pathfinder #149: Against the Scarlet Triad"
        },
        "traits": {
            "custom": "",
            "rarity": {
                "value": "common"
            },
            "value": [
                "archetype",
                "skill"
            ]
        }
    },
    "effects": [],
    "flags": {},
    "img": "systems/pf2e/icons/features/feats/feats.webp",
    "name": "Know the Beat",
    "type": "feat"
}
