{
    "_id": "bWYnjNa2RknMoibg",
    "data": {
        "actionCategory": {
            "value": ""
        },
        "actionType": {
            "value": "passive"
        },
        "actions": {
            "value": null
        },
        "description": {
            "value": "<p><strong>Access</strong> You are from the Eye of Dread region.</p>\n<hr />\n<p>You've sworn yourself as a sentry for the Knights of Lastwall, the first line of defense against incursions by the Whispering Tyrant throughout Golarion. You become trained in Athletics and in Undead Lore; if you were already trained, you become an expert instead. Finally, you gain the Reactive Shield fighter feat.</p>\n<p><strong>Special</strong> You can't select another dedication feat until you have gained two other feats from the Lastwall sentry archetype.</p>"
        },
        "featType": {
            "value": "archetype"
        },
        "level": {
            "value": 2
        },
        "location": "",
        "prerequisites": {
            "value": [
                {
                    "value": "member of the Knights of Lastwall"
                },
                {
                    "value": "Shield Block"
                }
            ]
        },
        "rules": [
            {
                "key": "ActiveEffectLike",
                "mode": "upgrade",
                "path": "data.skills.ath.rank",
                "value": 1
            }
        ],
        "source": {
            "value": "Pathfinder Lost Omens: World Guide"
        },
        "traits": {
            "custom": "",
            "rarity": {
                "value": "uncommon"
            },
            "value": [
                "archetype",
                "dedication"
            ]
        }
    },
    "effects": [],
    "flags": {},
    "img": "systems/pf2e/icons/features/feats/feats.webp",
    "name": "Lastwall Sentry Dedication",
    "type": "feat"
}
