{
    "_id": "Vk7BzAb3D9r226sI",
    "data": {
        "actionCategory": {
            "value": ""
        },
        "actionType": {
            "value": "passive"
        },
        "actions": {
            "value": null
        },
        "description": {
            "value": "<p>You know the wilderness so well that you can help your party travel through it with ease.</p>\n<p>When you are setting the path for your party through wilderness terrain, your party gains a +10-foot circumstance bonus to its Speed for the purpose of calculating the party's travel speed, your party's travel speed doesn't decrease in difficult terrain, and greater difficult terrain halves your party's travel speed instead of reducing it to a third.</p>\n<p>This doesn't increase your party's Speed during an encounter or allow your party to ignore difficult terrain during an encounter.</p>"
        },
        "featType": {
            "value": "skill"
        },
        "level": {
            "value": 15
        },
        "prerequisites": {
            "value": [
                {
                    "value": "legendary in Survival"
                }
            ]
        },
        "rules": [],
        "source": {
            "value": "Pathfinder Advanced Player's Guide"
        },
        "traits": {
            "custom": "",
            "rarity": {
                "value": "common"
            },
            "value": [
                "general",
                "skill"
            ]
        }
    },
    "effects": [],
    "flags": {},
    "img": "systems/pf2e/icons/features/feats/feats.webp",
    "name": "Legendary Guide",
    "type": "feat"
}
