{
    "_id": "505CCsBRft1P53gP",
    "data": {
        "actionCategory": {
            "value": ""
        },
        "actionType": {
            "value": "passive"
        },
        "actions": {
            "value": null
        },
        "description": {
            "value": "<p>When you cast fireball, you can modify its effects, decreasing the base damage to 5d6 and causing it to deal 2 persistent fire damage to creatures that fail their save, doubled as normal on a critical failure. If you do, replace its heightened entry with the following.</p>\n<hr />\n<p><strong>Heightened (+1)</strong> The damage is increased by 1d6 and the persistent fire damage is increased by 2.</p>"
        },
        "featType": {
            "value": "archetype"
        },
        "level": {
            "value": 8
        },
        "location": "",
        "prerequisites": {
            "value": [
                {
                    "value": "Spell Trickster Dedication"
                },
                {
                    "value": "ability to cast fireball"
                }
            ]
        },
        "rules": [],
        "source": {
            "value": ""
        },
        "traits": {
            "custom": "",
            "rarity": {
                "value": "common"
            },
            "value": [
                "archetype"
            ]
        }
    },
    "effects": [],
    "flags": {},
    "img": "systems/pf2e/icons/default-icons/feats.webp",
    "name": "Lingering Flames",
    "type": "feat"
}
