{
    "_id": "ZDO7foRCMd9niGsK",
    "data": {
        "actionCategory": {
            "value": ""
        },
        "actionType": {
            "value": "passive"
        },
        "actions": {
            "value": null
        },
        "description": {
            "value": "<p>You were crafted in a form with four legs rather than two. Your Speed is 30 feet.</p>\n<p><strong>Special</strong> You can take this feat only at 1st level, and you can't retrain into or out of this feat.</p>"
        },
        "featType": {
            "value": "ancestry"
        },
        "level": {
            "value": 1
        },
        "location": "",
        "prerequisites": {
            "value": []
        },
        "rules": [
            {
                "key": "BaseSpeed",
                "selector": "land",
                "value": 30
            }
        ],
        "source": {
            "value": ""
        },
        "traits": {
            "custom": "",
            "rarity": {
                "value": "common"
            },
            "value": [
                "poppet"
            ]
        }
    },
    "effects": [],
    "flags": {},
    "img": "systems/pf2e/icons/default-icons/feats.webp",
    "name": "Quadruped",
    "type": "feat"
}
