{
    "_id": "llWnSLYALh88iRGQ",
    "data": {
        "actionCategory": {
            "value": "offensive"
        },
        "actionType": {
            "value": "action"
        },
        "actions": {
            "value": 2
        },
        "description": {
            "value": "<p><strong>Frequency</strong> once per day Throughout the day, your body produces powerful projectiles within your chassis.</p>\n<hr />\n<p>You fire them all at once in either a <span data-pf2-effect-area=\"Cone\" data-pf2-distance=\"30\">30-foot cone</span> or a <span data-pf2-effect-area=\"emanation\" data-pf2-distance=\"10\">10-foot emanation</span>. Foes in the area take [[/r {6d6}[piercing]]]{6d6 piercing damage}. This increases to 7d6 at 12th level, 8d6 at 15th level, and 9d6 at 18th level.</p>\n<p><strong>Enhancement</strong> The projectiles regenerate quicker, they are much more powerful, and you can refine the metallic content to harm certain creatures. You can use Rain of Bolts once per hour instead of once per day. The damage increases to 12d6 and each time you use the action, you can choose adamantine, cold iron, or silver. The damage from Rain of Bolts is treated as the metal you chose. At 20th level, the damage increases to 13d6.</p>"
        },
        "featType": {
            "value": "ancestry"
        },
        "level": {
            "value": 9
        },
        "location": "",
        "prerequisites": {
            "value": [
                {
                    "value": "Sharpshooter automation"
                }
            ]
        },
        "rules": [],
        "source": {
            "value": ""
        },
        "traits": {
            "custom": "",
            "rarity": {
                "value": "common"
            },
            "value": [
                "automaton"
            ]
        }
    },
    "effects": [],
    "flags": {},
    "img": "systems/pf2e/icons/default-icons/feats.webp",
    "name": "Rain of Bolts",
    "type": "feat"
}
