{
    "_id": "xZrTjUub7V09sXZF",
    "data": {
        "actionCategory": {
            "value": ""
        },
        "actionType": {
            "value": "passive"
        },
        "actions": {
            "value": null
        },
        "description": {
            "value": "<p>Your healing energies linger after you cast, providing continual benefits.</p>\n<p>An ally that recovers Hit Points from your <em>@Compendium[pf2e.spells-srd.Lay on Hands]{Lay on Hands}</em> gains 10 temporary Hit Points at the start of their turn during each of the next 10 rounds. This effect ends if the ally is knocked @Compendium[pf2e.conditionitems.Unconscious]{Unconscious}.</p>\n<p>@Compendium[pf2e.spell-effects.Spell Effect: Rejuvenating Touch]{Spell Effect: Rejuvenating Touch}</p>"
        },
        "featType": {
            "value": "class"
        },
        "level": {
            "value": 18
        },
        "location": "",
        "prerequisites": {
            "value": [
                {
                    "value": "devotion spell (lay on hands)"
                }
            ]
        },
        "rules": [],
        "source": {
            "value": "Pathfinder Advanced Player's Guide"
        },
        "traits": {
            "custom": "",
            "rarity": {
                "value": "common"
            },
            "value": [
                "champion"
            ]
        }
    },
    "effects": [],
    "flags": {},
    "img": "systems/pf2e/icons/features/feats/feats.webp",
    "name": "Rejuvenating Touch",
    "type": "feat"
}
