{
    "_id": "dHJw5Yv0gY3suBZo",
    "data": {
        "actionCategory": {
            "value": "interaction"
        },
        "actionType": {
            "value": "reaction"
        },
        "actions": {
            "value": null
        },
        "description": {
            "value": "<p><strong>Frequency</strong> once per 10 minutes</p>\n<p><strong>Trigger</strong> Another creature within 30 feet of you that can see you would gain the @Compendium[pf2e.conditionitems.Frightened]{Frightened} condition.</p>\n<hr />\n<p>You give a target a stern glower to remind them that it is you, and no one else, they should truly fear. Reduce the value of the frightened condition the creature would take by 1.</p>"
        },
        "featType": {
            "value": "archetype"
        },
        "level": {
            "value": 8
        },
        "location": "",
        "prerequisites": {
            "value": [
                {
                    "value": "Vigilante Dedication"
                },
                {
                    "value": "master in Intimidation"
                }
            ]
        },
        "rules": [],
        "source": {
            "value": ""
        },
        "traits": {
            "custom": "",
            "rarity": {
                "value": "common"
            },
            "value": [
                "archetype",
                "vigilante"
            ]
        }
    },
    "effects": [],
    "flags": {},
    "img": "systems/pf2e/icons/default-icons/feats.webp",
    "name": "Reminder of the Greater Fear",
    "type": "feat"
}
