{
    "_id": "PMRfunXzC9YizHNZ",
    "data": {
        "actionCategory": {
            "value": ""
        },
        "actionType": {
            "value": "passive"
        },
        "actions": {
            "value": null
        },
        "description": {
            "value": "<p>Long ago, qlippoth marked someone in your lineage, most likely through their ancient runestones that dot Golarion's surface. Yours is an old lineage, primordial and twisted, and you have a sense for similarly twisted things. You're trained in Occultism. If you're already trained in Occultism (from your background or class, for example), you instead become trained in a skill of your choice. You also gain the @Compendium[pf2e.feats-srd.Oddity Identification]{Oddity Identification} skill feat.</p>\n<hr />\n<p><em>Note: If you are already trained in the skill provided by this feat, you need to manually select an alternative skill. You also need to manually enter the granted Lore skill.</em></p>"
        },
        "featType": {
            "value": "ancestry"
        },
        "level": {
            "value": 1
        },
        "location": "",
        "prerequisites": {
            "value": []
        },
        "rules": [
            {
                "key": "ActiveEffectLike",
                "mode": "upgrade",
                "path": "data.skills.occ.rank",
                "value": 1
            }
        ],
        "source": {
            "value": "Pathfinder Lost Omens: Ancestry Guide"
        },
        "traits": {
            "custom": "",
            "rarity": {
                "value": "common"
            },
            "value": [
                "lineage",
                "tiefling"
            ]
        }
    },
    "effects": [],
    "flags": {},
    "img": "systems/pf2e/icons/features/feats/feats.webp",
    "name": "Riftmarked",
    "type": "feat"
}
