{
    "_id": "KRMdfPcNCE7AVsEo",
    "data": {
        "actionCategory": {
            "value": ""
        },
        "actionType": {
            "value": "passive"
        },
        "actions": {
            "value": null
        },
        "description": {
            "value": "<p>Your parents devoted themselves to alchemical experiments involving elemental energy. You gain the trained proficiency rank in Crafting. If you would automatically become trained in Crafting (from your background or class, for example), you instead become trained in a skill of your choice. You also gain the @Compendium[pf2e.feats-srd.Alchemical Crafting]{Alchemical Crafting} skill feat.</p>"
        },
        "featType": {
            "value": "ancestry"
        },
        "level": {
            "value": 1
        },
        "location": "",
        "prerequisites": {
            "value": []
        },
        "rules": [],
        "source": {
            "value": "Pathfinder Lost Omens: Ancestry Guide"
        },
        "traits": {
            "custom": "",
            "rarity": {
                "value": "common"
            },
            "value": [
                "suli"
            ]
        }
    },
    "effects": [],
    "flags": {},
    "img": "systems/pf2e/icons/features/feats/feats.webp",
    "name": "Scholar's Inheritance",
    "type": "feat"
}
