{
    "_id": "gepQGtV8Ftr0JJ6O",
    "data": {
        "actionCategory": {
            "value": ""
        },
        "actionType": {
            "value": "action"
        },
        "actions": {
            "value": 2
        },
        "description": {
            "value": "<p><strong>Requirements</strong> You are in Sky and Heaven Stance.</p>\n<hr />\n<p>You @Compendium[pf2e.actionspf2e.Leap]{Leap} toward an opponent. At any point in the Leap, you can make a single Strike against a creature within your reach. At 12th level, if you hit with this Strike, instead of finishing your Leap, you can immediately attempt a second Leap from the space where you struck the target of your Strike. You can make a single Strike against a target within your reach during this second Leap as well. At 16th level, you can attempt a third Leap if your second Strike hits, and you can attack a target at any point during this third Leap. All Leaps made during this activity gain a +10-foot status bonus to the total height or distance of your leap, and no two Strikes can target the same creature.</p>"
        },
        "featType": {
            "value": "archetype"
        },
        "level": {
            "value": 8
        },
        "prerequisites": {
            "value": [
                {
                    "value": "Sky and Heaven Stance"
                }
            ]
        },
        "rules": [],
        "source": {
            "value": "Pathfinder #158: Sixty Feet Under"
        },
        "traits": {
            "custom": "",
            "rarity": {
                "value": "common"
            },
            "selected": {
                "archetype": "Archetype",
                "open": "Open"
            },
            "value": [
                "archetype",
                "open"
            ]
        }
    },
    "effects": [],
    "flags": {},
    "img": "systems/pf2e/icons/features/feats/feats.webp",
    "name": "Skyseeker",
    "type": "feat"
}
