{
    "_id": "2KBKXkRthBXpw48X",
    "data": {
        "actionCategory": {
            "value": ""
        },
        "actionType": {
            "value": "reaction"
        },
        "actions": {
            "value": null
        },
        "description": {
            "value": "<p><strong>Trigger</strong> A @Compendium[pf2e.conditionitems.Prone]{Prone} foe within your reach @Compendium[pf2e.actionspf2e.Stand]{Stands}.</p>\n<hr />\n<p>You have ways of keeping your foes down. Attempt an Athletics check against the triggering foe's Fortitude DC. On a success, they don't stand up and remain prone. On a critical success, they can't Stand until their next turn.</p>"
        },
        "featType": {
            "value": "class"
        },
        "level": {
            "value": 14
        },
        "prerequisites": {
            "value": [
                {
                    "value": "master in Athletics"
                }
            ]
        },
        "rules": [],
        "source": {
            "value": ""
        },
        "traits": {
            "custom": "",
            "rarity": {
                "value": "common"
            },
            "value": [
                "rogue"
            ]
        }
    },
    "effects": [],
    "flags": {},
    "img": "systems/pf2e/icons/features/feats/feats.webp",
    "name": "Stay Down!",
    "type": "feat"
}
