{
    "_id": "kYA6LkDw4AzKI156",
    "data": {
        "actionCategory": {
            "value": ""
        },
        "actionType": {
            "value": "passive"
        },
        "actions": {
            "value": null
        },
        "description": {
            "value": "<p><strong>Requirements</strong> You are in @Compendium[pf2e.feats-srd.Stumbling Stance]{Stumbling Stance}.</p>\n<hr />\n<p>You lash out confusingly with what seems to be a weak move but instead allows you to unleash a dangerous flurry of blows upon your unsuspecting foe.</p>\n<p>When you use @Compendium[pf2e.actionspf2e.Flurry of Blows]{Flurry of Blows}, you can attempt a check to @Compendium[pf2e.actionspf2e.Feint]{Feint} as a free action just before the first Strike.</p>\n<p>On a success, instead of making the target @Compendium[pf2e.conditionitems.Flat-Footed]{Flat-Footed} against your next attack, they become flat-footed against both attacks from the Flurry of Blows.</p>"
        },
        "featType": {
            "value": "class"
        },
        "level": {
            "value": 6
        },
        "location": "",
        "prerequisites": {
            "value": [
                {
                    "value": "expert in Deception"
                },
                {
                    "value": "Stumbling Stance"
                }
            ]
        },
        "rules": [],
        "source": {
            "value": "Pathfinder Advanced Player's Guide"
        },
        "traits": {
            "custom": "",
            "rarity": {
                "value": "common"
            },
            "value": [
                "monk"
            ]
        }
    },
    "effects": [],
    "flags": {},
    "img": "systems/pf2e/icons/features/feats/feats.webp",
    "name": "Stumbling Feint",
    "type": "feat"
}
