{
    "_id": "exVjUkpAdbzJsxxg",
    "data": {
        "actionCategory": {
            "value": "offensive"
        },
        "actionType": {
            "value": "action"
        },
        "actions": {
            "value": 2
        },
        "description": {
            "value": "<p><strong>Requirements</strong> A creature is in your and your eidolon's reach.</p>\n<p>You and your eidolon each attack, seamlessly targeting the same foe without interfering with each other's movements. Your eidolon makes a melee Strike, and then you make a melee Strike against the same creature. Both attacks count toward your multiple attack penalty, but the penalty doesn't increase until after both attacks have been made.</p>"
        },
        "featType": {
            "value": "class"
        },
        "level": {
            "value": 6
        },
        "location": "",
        "prerequisites": {
            "value": []
        },
        "rules": [],
        "source": {
            "value": ""
        },
        "traits": {
            "custom": "",
            "rarity": {
                "value": "common"
            },
            "value": [
                "summoner",
                "tandem"
            ]
        }
    },
    "effects": [],
    "flags": {},
    "img": "systems/pf2e/icons/default-icons/feat.svg",
    "name": "Tandem Strike",
    "type": "feat"
}
