{
    "_id": "I7S8Snq8FlrBHmbf",
    "data": {
        "actionCategory": {
            "value": ""
        },
        "actionType": {
            "value": "passive"
        },
        "actions": {
            "value": null
        },
        "description": {
            "value": "<p>When your character would die, you can attempt a <span data-pf2-check=\"flat\" data-pf2-dc=\"17\" data-pf2-label=\"Ten Lives\">DC 17 flat check</span>. On a success, you're instead reduced to 0 HP and a @Compendium[pf2e.conditionitems.Dying]{Dying} value 1 less than would normally kill you (typically dying 3). This doesn't change the result for any other creature affected.</p>"
        },
        "featType": {
            "value": "ancestry"
        },
        "level": {
            "value": 17
        },
        "location": "",
        "prerequisites": {
            "value": [
                {
                    "value": "Evade Doom"
                }
            ]
        },
        "rules": [],
        "source": {
            "value": "Pathfinder Lost Omens: Ancestry Guide"
        },
        "traits": {
            "custom": "",
            "rarity": {
                "value": "common"
            },
            "value": [
                "catfolk"
            ]
        }
    },
    "effects": [],
    "flags": {},
    "img": "systems/pf2e/icons/features/feats/feats.webp",
    "name": "Ten Lives",
    "type": "feat"
}
