{
    "_id": "EHorYedQ8r05qAtk",
    "data": {
        "actionCategory": {
            "value": ""
        },
        "actionType": {
            "value": "passive"
        },
        "actions": {
            "value": null
        },
        "description": {
            "value": "<p>You can divide your attention three ways when hunting. When you use @Compendium[pf2e.actionspf2e.Hunt Prey]{Hunt Prey}, you can designate three creatures as prey, designate two creatures as prey and share the effect with one ally (as @Compendium[pf2e.feats-srd.Shared Prey]{Shared Prey}), or designate one creature as prey and share the effect with two allies.</p>\n<ul>\n<li>@Compendium[pf2e.feat-effects.Effect: Hunter's Edge, Flurry]{Effect: Hunter's Edge, Flurry}</li>\n<li>@Compendium[pf2e.feat-effects.Effect: Hunter's Edge, Outwit]{Effect: Hunter's Edge, Outwit}</li>\n<li>@Compendium[pf2e.feat-effects.Effect: Hunter's Edge, Precision]{Effect: Hunter's Edge, Precision}</li>\n</ul>"
        },
        "featType": {
            "value": "class"
        },
        "level": {
            "value": 20
        },
        "location": "",
        "prerequisites": {
            "value": [
                {
                    "value": "Shared Prey"
                }
            ]
        },
        "rules": [],
        "source": {
            "value": "Pathfinder Core Rulebook"
        },
        "traits": {
            "custom": "",
            "rarity": {
                "value": "common"
            },
            "value": [
                "ranger"
            ]
        }
    },
    "effects": [],
    "flags": {},
    "img": "systems/pf2e/icons/features/feats/feats.webp",
    "name": "Triple Threat",
    "type": "feat"
}
