{
    "_id": "KXUVAI6SDtxwjO7t",
    "data": {
        "actionCategory": {
            "value": "defensive"
        },
        "actionType": {
            "value": "passive"
        },
        "actions": {
            "value": null
        },
        "description": {
            "value": "<p>You have plenty of practice navigating webs. You gain a +2 circumstance bonus to saves and AC against the web spell, natural webbing, and effects that entrap you in webbing, as well as a +1 circumstance bonus against other effects that snare and entangle you, like the entangle spell. Whenever you roll a success on a saving throw against an effect involving a web, you get a critical success instead.</p>"
        },
        "featType": {
            "value": "ancestry"
        },
        "level": {
            "value": 1
        },
        "location": "",
        "prerequisites": {
            "value": []
        },
        "rules": [
            {
                "key": "FlatModifier",
                "label": "Web Walker (vs. webs)",
                "predicate": {
                    "all": [
                        "webbing"
                    ]
                },
                "selector": "saving-throw",
                "type": "circumstance",
                "value": 2
            },
            {
                "key": "FlatModifier",
                "label": "Web Walker (vs. webs)",
                "predicate": {
                    "all": [
                        "webbing"
                    ]
                },
                "selector": "ac",
                "type": "circumstance",
                "value": 2
            },
            {
                "key": "FlatModifier",
                "label": "Web Walker (vs. snares and entanglement)",
                "predicate": {
                    "all": [
                        "entanglement"
                    ]
                },
                "selector": "saving-throw",
                "type": "circumstance",
                "value": 1
            },
            {
                "adjustment": {
                    "success": "one-degree-better"
                },
                "key": "AdjustDegreeOfSuccess",
                "predicate": {
                    "all": [
                        "web"
                    ]
                },
                "selector": "saving-throw"
            },
            {
                "key": "Note",
                "selector": "saving-throw",
                "text": "<p class='compact-text'><strong>{item|name}</strong> Whenever you roll a success on a saving throw against an effect involving a web, you get a critical success instead.</p>"
            }
        ],
        "source": {
            "value": "Pathfinder Lost Omens: The Mwangi Expanse"
        },
        "traits": {
            "custom": "",
            "rarity": {
                "value": "common"
            },
            "value": [
                "anadi"
            ]
        }
    },
    "effects": [],
    "flags": {},
    "img": "systems/pf2e/icons/default-icons/feats.webp",
    "name": "Web Walker",
    "type": "feat"
}
