{
    "_id": "cFz09CWKzff2cC73",
    "data": {
        "actionCategory": {
            "value": ""
        },
        "actionType": {
            "value": "passive"
        },
        "actions": {
            "value": null
        },
        "description": {
            "value": "<p><strong>Major Boon</strong>: You can crack the surface of Golarion, accelerating the release of the Rough Beast. You gain the @Compendium[pf2e.feats-srd.Quaking Stomp]{Quaking Stomp} barbarian feat.</p>"
        },
        "featType": {
            "value": "deityboon"
        },
        "level": {
            "value": 0
        },
        "prerequisites": {
            "value": []
        },
        "rules": [],
        "source": {
            "value": ""
        },
        "traits": {
            "custom": "",
            "rarity": {
                "value": "common"
            },
            "selected": {},
            "value": []
        }
    },
    "effects": [],
    "flags": {},
    "img": "systems/pf2e/icons/deity/Rovagug.webp",
    "name": "Rovagug - Major Boon",
    "type": "feat"
}
