{
    "_id": "81TfqzTfIqkQA4Dy",
    "data": {
        "description": {
            "value": "<p>You shroud the target in a powerful predatory aura and amplify its vocalizations. It gains a +1 status bonus to Intimidation checks. Once during this spell's duration, it can take the Thundering Roar action.</p>\n<hr />\n<p><strong>Heightened (+2)</strong> The status bonus to Intimidation checks increases by 1 (to a maximum of a +4 status bonus for an 8th-level spell), and the damage from the roar increases by 2d8.</p>"
        },
        "duration": {
            "expiry": "turn-start",
            "sustained": false,
            "unit": "minutes",
            "value": 1
        },
        "level": {
            "value": 2
        },
        "rules": [
            {
                "key": "FlatModifier",
                "selector": "intimidation",
                "type": "status",
                "value": {
                    "brackets": [
                        {
                            "end": 3,
                            "start": 2,
                            "value": 1
                        },
                        {
                            "end": 5,
                            "start": 4,
                            "value": 2
                        },
                        {
                            "end": 7,
                            "start": 6,
                            "value": 3
                        },
                        {
                            "start": 8,
                            "value": 4
                        }
                    ],
                    "field": "item|data.level.value"
                }
            }
        ],
        "source": {
            "value": ""
        },
        "start": {
            "initiative": null,
            "value": 0
        },
        "target": null,
        "tokenIcon": {
            "show": true
        },
        "traits": {
            "custom": "",
            "rarity": {
                "value": "common"
            },
            "value": []
        }
    },
    "effects": [],
    "flags": {},
    "img": "systems/pf2e/icons/spells/thundering-dominance.webp",
    "name": "Spell Effect: Thundering Dominance",
    "type": "effect"
}
