{
    "_id": "P9Wg0sGcNkemOvm3",
    "data": {
        "abilities": {
            "cha": {
                "mod": -5
            },
            "con": {
                "mod": 7
            },
            "dex": {
                "mod": -2
            },
            "int": {
                "mod": -5
            },
            "str": {
                "mod": 9
            },
            "wis": {
                "mod": 0
            }
        },
        "attributes": {
            "ac": {
                "details": "(27 from inside the Dimensional Pit)",
                "value": 31
            },
            "allSaves": {
                "value": ""
            },
            "hp": {
                "details": "",
                "max": 535,
                "temp": 0,
                "value": 535
            },
            "initiative": {
                "ability": "perception"
            },
            "perception": {
                "value": 30
            },
            "shield": {
                "ac": 0,
                "brokenThreshold": 0,
                "hardness": 0,
                "max": 0,
                "value": 0
            },
            "speed": {
                "otherSpeeds": [],
                "value": "20"
            }
        },
        "details": {
            "alignment": {
                "value": "N"
            },
            "blurb": "",
            "creatureType": "",
            "level": {
                "value": 18
            },
            "privateNotes": "",
            "publicNotes": "",
            "sidebarText": "",
            "source": {
                "value": "Pathfinder #162: Ruins of the Radiant Siege"
            }
        },
        "resources": {},
        "saves": {
            "fortitude": {
                "saveDetail": "",
                "value": 33
            },
            "reflex": {
                "saveDetail": "",
                "value": 20
            },
            "will": {
                "saveDetail": "",
                "value": 26
            }
        },
        "traits": {
            "ci": [],
            "di": {
                "custom": "",
                "value": [
                    "unconscious",
                    "acid",
                    "mental",
                    "piercing",
                    "precision",
                    "critical-hits",
                    "visual"
                ]
            },
            "dr": [
                {
                    "label": "Bludgeoning",
                    "type": "bludgeoning",
                    "value": "20"
                }
            ],
            "dv": [],
            "languages": {
                "custom": "",
                "selected": [],
                "value": []
            },
            "rarity": {
                "value": "rare"
            },
            "senses": {
                "value": "no vision, tremorsense (imprecise) 120 feet"
            },
            "size": {
                "value": "huge"
            },
            "traits": {
                "custom": "",
                "value": [
                    "mindless",
                    "ooze"
                ]
            }
        }
    },
    "effects": [],
    "flags": {},
    "img": "systems/pf2e/icons/default-icons/npc.svg",
    "items": [
        {
            "_id": "KZ4Ixv66QE0EQIct",
            "data": {
                "attack": {
                    "value": ""
                },
                "attackEffects": {
                    "custom": "",
                    "value": [
                        "improved-grab"
                    ]
                },
                "bonus": {
                    "total": 35,
                    "value": 35
                },
                "damageRolls": {
                    "0": {
                        "damage": "4d10+18",
                        "damageType": "piercing"
                    }
                },
                "description": {
                    "value": ""
                },
                "rules": [],
                "slug": null,
                "source": {
                    "value": ""
                },
                "traits": {
                    "custom": "",
                    "rarity": {
                        "value": "common"
                    },
                    "value": [
                        "magical",
                        "reach-15"
                    ]
                },
                "weaponType": {
                    "value": "melee"
                }
            },
            "effects": [],
            "flags": {},
            "img": "systems/pf2e/icons/default-icons/melee.svg",
            "name": "Pseudopod",
            "sort": 100000,
            "type": "melee"
        },
        {
            "_id": "yyZMl8O8UfRO0cwF",
            "data": {
                "actionCategory": {
                    "value": "interaction"
                },
                "actionType": {
                    "value": "passive"
                },
                "actions": {
                    "value": null
                },
                "description": {
                    "value": "<p>@Localize[PF2E.NPC.Abilities.Glossary.Tremorsense]</p>"
                },
                "requirements": {
                    "value": ""
                },
                "rules": [],
                "slug": "tremorsense",
                "source": {
                    "value": ""
                },
                "traits": {
                    "custom": "",
                    "rarity": {
                        "value": "common"
                    },
                    "value": []
                },
                "trigger": {
                    "value": ""
                },
                "weapon": {
                    "value": ""
                }
            },
            "effects": [],
            "flags": {
                "core": {
                    "sourceId": "Compendium.pf2e.bestiary-ability-glossary-srd.j2wsK6IsW5yMW1jW"
                }
            },
            "img": "systems/pf2e/icons/actions/Passive.webp",
            "name": "Tremorsense (Imprecise) 120 feet",
            "sort": 200000,
            "type": "action"
        },
        {
            "_id": "igIwGgzOBvjtlLdx",
            "data": {
                "actionCategory": {
                    "value": "interaction"
                },
                "actionType": {
                    "value": "passive"
                },
                "actions": {
                    "value": null
                },
                "description": {
                    "value": "<p>A slithering rift is so clear that it's difficult to spot. A successful <span data-pf2-check=\"perception\" data-pf2-label=\"Transparent DC\" data-pf2-dc=\"48\" data-pf2-show-dc=\"gm\">Perception</span> check is required to notice a stationary slithering rift, and a creature must be @Compendium[pf2e.actionspf2e.Search]{Searching} to attempt this check.</p>\n<p>A creature that walks into the rift's space might fall into any pit currently in effect due to Dimensional Pit.</p>"
                },
                "requirements": {
                    "value": ""
                },
                "rules": [],
                "slug": null,
                "source": {
                    "value": ""
                },
                "traits": {
                    "custom": "",
                    "rarity": {
                        "value": "common"
                    },
                    "value": []
                },
                "trigger": {
                    "value": ""
                },
                "weapon": {
                    "value": ""
                }
            },
            "effects": [],
            "flags": {},
            "img": "systems/pf2e/icons/actions/Passive.webp",
            "name": "Transparent",
            "sort": 300000,
            "type": "action"
        },
        {
            "_id": "nyahaCV93O7YYyau",
            "data": {
                "actionCategory": {
                    "value": "defensive"
                },
                "actionType": {
                    "value": "passive"
                },
                "actions": {
                    "value": null
                },
                "description": {
                    "value": "<p>Ingesting an extradimensional space like that found in a <em>bag of holding</em> deals [[/r {12d8}[force]]]{12d8 force damage} to the slithering rift and its occupants.</p>\n<p>The slithering rift then immediately uses Out You Go.</p>"
                },
                "requirements": {
                    "value": ""
                },
                "rules": [],
                "slug": null,
                "source": {
                    "value": ""
                },
                "traits": {
                    "custom": "",
                    "rarity": {
                        "value": "common"
                    },
                    "value": []
                },
                "trigger": {
                    "value": ""
                },
                "weapon": {
                    "value": ""
                }
            },
            "effects": [],
            "flags": {},
            "img": "systems/pf2e/icons/actions/Passive.webp",
            "name": "Breach Vulnerability",
            "sort": 400000,
            "type": "action"
        },
        {
            "_id": "zvkxJ9ZreNjX3yJL",
            "data": {
                "actionCategory": {
                    "value": "offensive"
                },
                "actionType": {
                    "value": "action"
                },
                "actions": {
                    "value": 2
                },
                "description": {
                    "value": "<p>The slithering rift makes a single pseudopod Strike against each target within range it hasn't already @Compendium[pf2e.conditionitems.Grabbed]{Grabbed}.</p>\n<p>These attacks count toward the slithering rift's multiple attack penalty, but this penalty doesn't increase until after all of these attacks.</p>"
                },
                "requirements": {
                    "value": ""
                },
                "rules": [],
                "slug": null,
                "source": {
                    "value": ""
                },
                "traits": {
                    "custom": "",
                    "rarity": {
                        "value": "common"
                    },
                    "value": []
                },
                "trigger": {
                    "value": ""
                },
                "weapon": {
                    "value": ""
                }
            },
            "effects": [],
            "flags": {},
            "img": "systems/pf2e/icons/actions/TwoActions.webp",
            "name": "Flurry of Pods",
            "sort": 500000,
            "type": "action"
        },
        {
            "_id": "M7E6dxLskMLaX43G",
            "data": {
                "actionCategory": {
                    "value": "offensive"
                },
                "actionType": {
                    "value": "action"
                },
                "actions": {
                    "value": 2
                },
                "description": {
                    "value": "<p>The slithering rift opens an extradimensional, 20-foot-deep pit that covers its own space and all adjacent squares unless they are walls or similarly blocking terrain.</p>\n<p>Any other creature occupying spaces in the pit must succeed at a <span data-pf2-check=\"reflex\" data-pf2-traits=\"conjuration,extradimensional,damaging-effect\" data-pf2-label=\"Dimensional Pit DC\" data-pf2-dc=\"40\" data-pf2-show-dc=\"gm\">Reflex</span> save or fall into the pit, taking damage from the fall (typically [[/r {10}[bludgeoning]]]{10 bludgeoning damage}). Any creature grabbed by the ooze is released from the @Compendium[pf2e.bestiary-ability-glossary-srd.Improved Grab]{Grab} and falls in, even if it was outside the pit squares.</p>\n<div data-visibility=\"gm\">\n<p>While the pit is open, the slithering rift is @Compendium[pf2e.conditionitems.Immobilized]{Immobilized} and can't be forced to move. It can make pseudopod Strikes originating from the walls of the pit. A creature that starts its turn at the bottom of the pit takes [[/r {5d6}[acid]]]{5d6 acid damage}.</p>\n</div>\n<p>Creatures can climb the walls with a <span data-pf2-check=\"athletics\" data-pf2-traits=\"action:climb\" data-pf2-label=\"Climb Out of the Rift DC\" data-pf2-dc=\"40\" data-pf2-show-dc=\"gm\">Athletics</span> check. When the slithering rift dies, the pit closes and creatures inside are ejected, as Out you Go.</p>"
                },
                "requirements": {
                    "value": ""
                },
                "rules": [
                    {
                        "key": "ToggleProperty",
                        "label": "Inside a Dimensional Pit",
                        "property": "flags.pf2e.rollOptions.all.dimensional-pit"
                    },
                    {
                        "key": "FlatModifier",
                        "label": "Inside a Dimensional Pit",
                        "predicate": {
                            "all": [
                                "dimensional-pit"
                            ]
                        },
                        "selector": "ac",
                        "value": -4
                    }
                ],
                "slug": null,
                "source": {
                    "value": ""
                },
                "traits": {
                    "custom": "",
                    "rarity": {
                        "value": "common"
                    },
                    "value": [
                        "conjuration",
                        "extradimensional"
                    ]
                },
                "trigger": {
                    "value": ""
                },
                "weapon": {
                    "value": ""
                }
            },
            "effects": [],
            "flags": {},
            "img": "systems/pf2e/icons/actions/TwoActions.webp",
            "name": "Dimensional Pit",
            "sort": 600000,
            "type": "action"
        },
        {
            "_id": "IH1SiADzFCDakX8w",
            "data": {
                "actionCategory": {
                    "value": "offensive"
                },
                "actionType": {
                    "value": "action"
                },
                "actions": {
                    "value": 1
                },
                "description": {
                    "value": "<p>The slithering rift closes all pit spaces it created using Dimensional Pit, ejecting all its occupants onto the ground into random free spaces where the opening of the pit was.</p>\n<p>Each occupant takes [[/r {9d6}[bludgeoning]]]{9d6 bludgeoning damage} (<span data-pf2-check=\"reflex\" data-pf2-traits=\"damaging-effect\" data-pf2-label=\"Out You Go DC\" data-pf2-dc=\"40\" data-pf2-show-dc=\"gm\">basic Reflex</span> save).</p>"
                },
                "requirements": {
                    "value": ""
                },
                "rules": [],
                "slug": null,
                "source": {
                    "value": ""
                },
                "traits": {
                    "custom": "",
                    "rarity": {
                        "value": "common"
                    },
                    "value": []
                },
                "trigger": {
                    "value": ""
                },
                "weapon": {
                    "value": ""
                }
            },
            "effects": [],
            "flags": {},
            "img": "systems/pf2e/icons/actions/OneAction.webp",
            "name": "Out You Go",
            "sort": 700000,
            "type": "action"
        },
        {
            "_id": "HhajioTT4qQe67v3",
            "data": {
                "actionCategory": {
                    "value": "offensive"
                },
                "actionType": {
                    "value": "free"
                },
                "actions": {
                    "value": null
                },
                "description": {
                    "value": "<p>@Localize[PF2E.NPC.Abilities.Glossary.ImprovedGrab]</p>"
                },
                "requirements": {
                    "value": ""
                },
                "rules": [],
                "slug": "improved-grab",
                "source": {
                    "value": ""
                },
                "traits": {
                    "custom": "",
                    "rarity": {
                        "value": "common"
                    },
                    "value": []
                },
                "trigger": {
                    "value": ""
                },
                "weapon": {
                    "value": ""
                }
            },
            "effects": [],
            "flags": {
                "core": {
                    "sourceId": "Compendium.pf2e.bestiary-ability-glossary-srd.i18TlebMzwONyPhI"
                }
            },
            "img": "systems/pf2e/icons/actions/FreeAction.webp",
            "name": "Improved Grab",
            "sort": 800000,
            "type": "action"
        },
        {
            "_id": "LZOXsjkgq3FE18x6",
            "data": {
                "description": {
                    "value": ""
                },
                "item": {
                    "value": 0
                },
                "mod": {
                    "value": 35
                },
                "proficient": {
                    "value": 0
                },
                "rules": [],
                "slug": null,
                "source": {
                    "value": ""
                },
                "traits": {
                    "custom": "",
                    "rarity": {
                        "value": "common"
                    },
                    "value": []
                }
            },
            "effects": [],
            "flags": {},
            "img": "systems/pf2e/icons/default-icons/lore.svg",
            "name": "Athletics",
            "sort": 900000,
            "type": "lore"
        },
        {
            "_id": "ebbiTBQcD7UcRipG",
            "data": {
                "description": {
                    "value": ""
                },
                "item": {
                    "value": 0
                },
                "mod": {
                    "value": 38
                },
                "proficient": {
                    "value": 0
                },
                "rules": [],
                "slug": null,
                "source": {
                    "value": ""
                },
                "traits": {
                    "custom": "",
                    "rarity": {
                        "value": "common"
                    },
                    "value": []
                }
            },
            "effects": [],
            "flags": {},
            "img": "systems/pf2e/icons/default-icons/lore.svg",
            "name": "Stealth",
            "sort": 1000000,
            "type": "lore"
        }
    ],
    "name": "Slithering Rift",
    "token": {
        "disposition": -1,
        "height": 3,
        "img": "systems/pf2e/icons/default-icons/npc.svg",
        "name": "Slithering Rift",
        "width": 3
    },
    "type": "npc"
}
