{
    "_id": "o39zQMIdERWtmBSB",
    "data": {
        "actionCategory": {
            "value": ""
        },
        "actionType": {
            "value": "passive"
        },
        "actions": {
            "value": null
        },
        "description": {
            "value": "<p>Devils are evil with a silver tongue, and one of your ancestors dallied in darkness or made an infernal pact.</p>\n<p><strong>Spell List</strong> divine</p>\n<p><strong>Bloodline Skills</strong> Deception, Religion</p>\n<p><strong>Granted Spells</strong> cantrip <em>@Compendium[pf2e.spells-srd.Produce Flame]{Produce Flame}</em>, 1st: <em>@Compendium[pf2e.spells-srd.Charm]{Charm}</em>, 2nd: <em>@Compendium[pf2e.spells-srd.Flaming Sphere]{Flaming Sphere}</em>, 3rd: <em>@Compendium[pf2e.spells-srd.Enthrall]{Enthrall}</em>, 4th: <em>@Compendium[pf2e.spells-srd.Suggestion]{Suggestion}</em>, 5th: <em>@Compendium[pf2e.spells-srd.Crushing Despair]{Crushing Dispair}</em>, 6th: <em>@Compendium[pf2e.spells-srd.True Seeing]{True Seeing}</em>, 7th: <em>@Compendium[pf2e.spells-srd.Divine Decree]{Divine Decree}</em>, 8th: <em>@Compendium[pf2e.spells-srd.Divine Aura]{Divine Aura}</em>, 9th: <em>@Compendium[pf2e.spells-srd.Meteor Swarm]{Meteor Swarm}</em></p>\n<p><strong>Bloodline Spells</strong> initial: <em>@Compendium[pf2e.spells-srd.Diabolic Edict]{Diabolic Edict}</em>, advanced: <em>@Compendium[pf2e.spells-srd.Embrace the Pit]{Embrace the Pit}</em>, greater: <em>@Compendium[pf2e.spells-srd.Hellfire Plume]{Hellfire Plume}</em></p>\n<p><strong>Blood Magic</strong> Hellfire scorches a target or fills your tongue with lies. Either a target takes 1 fire damage per spell level (if the spell already deals initial fire damage, combine this with the spell's initial damage before determining weaknesses and resistances), or you gain a +1 status bonus to Deception checks for 1 round.</p>\n<p>@Compendium[pf2e.feature-effects.Effect: Diabolic Blood Magic (Self)]{Effect: Diabolic Blood Magic (Self)}</p>"
        },
        "featType": {
            "value": "classfeature"
        },
        "level": {
            "value": 1
        },
        "location": "",
        "prerequisites": {
            "value": []
        },
        "rules": [
            {
                "key": "ActiveEffectLike",
                "mode": "upgrade",
                "path": "data.resources.focus.max",
                "priority": 10,
                "value": 1
            },
            {
                "key": "ActiveEffectLike",
                "mode": "upgrade",
                "path": "data.skills.dec.rank",
                "value": 1
            },
            {
                "key": "ActiveEffectLike",
                "mode": "upgrade",
                "path": "data.skills.rel.rank",
                "value": 1
            },
            {
                "key": "ActiveEffectLike",
                "mode": "override",
                "path": "data.proficiencies.aliases.sorcerer",
                "priority": 39,
                "value": "divine"
            }
        ],
        "source": {
            "value": ""
        },
        "traits": {
            "custom": "",
            "rarity": {
                "value": "common"
            },
            "value": [
                "sorcerer"
            ]
        }
    },
    "effects": [],
    "flags": {},
    "img": "systems/pf2e/icons/features/classes/diabolic.webp",
    "name": "Bloodline: Diabolic",
    "type": "feat"
}
