{
    "_id": "oCnyGRvkfjTsZXcX",
    "data": {
        "actionCategory": {
            "value": ""
        },
        "actionType": {
            "value": "passive"
        },
        "actions": {
            "value": null
        },
        "description": {
            "value": "<p>Your eidolon has learned how to inflict greater injuries with its unarmed attacks. It deals 2 additional damage with unarmed attacks in which it's an expert. This damage increases to 3 if it's a master, and 4 if it's legendary.</p>"
        },
        "featType": {
            "value": "classfeature"
        },
        "level": {
            "value": 7
        },
        "location": "",
        "prerequisites": {
            "value": []
        },
        "rules": [],
        "source": {
            "value": ""
        },
        "traits": {
            "custom": "",
            "rarity": {
                "value": "common"
            },
            "value": [
                "summoner"
            ]
        }
    },
    "effects": [],
    "flags": {},
    "img": "systems/pf2e/icons/features/classes/eidolon-weapon-specialization.webp",
    "name": "Eidolon Weapon Specialization",
    "type": "feat"
}
