{
    "_id": "zpFmqOpZ9IiWodsh",
    "data": {
        "actionCategory": {
            "value": ""
        },
        "actionType": {
            "value": "passive"
        },
        "actions": {
            "value": null
        },
        "description": {
            "value": "<p>You notice things that most people can't detect. Your proficiency rank for Perception increases to legendary.</p>"
        },
        "featType": {
            "value": "classfeature"
        },
        "level": {
            "value": 19
        },
        "location": "",
        "prerequisites": {
            "value": []
        },
        "rules": [],
        "source": {
            "value": ""
        },
        "traits": {
            "custom": "",
            "rarity": {
                "value": "common"
            },
            "value": [
                "gunslinger"
            ]
        }
    },
    "effects": [],
    "flags": {},
    "img": "systems/pf2e/icons/default-icons/feat.svg",
    "name": "Incredible Senses",
    "type": "feat"
}
