{
    "_id": "wySB9VHOW1v3TX1L",
    "data": {
        "actionCategory": {
            "value": ""
        },
        "actionType": {
            "value": "passive"
        },
        "actions": {
            "value": null
        },
        "description": {
            "value": "<p>You infuse reagents with your own alchemical essence, allowing you to create alchemical items at no cost. Each day during your daily preparations, you gain a number of batches of infused reagents equal to your level + your Intelligence modifier. You can use these reagents for either advanced alchemy or Quick Alchemy, described below. Together, these infused reagents have light Bulk.</p>\n<p>As soon as you make your next daily preparations, your infused reagents from the previous day's preparations are instantly destroyed, and nonpermanent effects of your previous day's infused items immediately end. While infused reagents are physical objects, they can't be duplicated, preserved, or created in any way other than your daily preparations. Any such artificial reagents lack the infusion and are useless for advanced alchemy or Quick Alchemy.</p>"
        },
        "featType": {
            "value": "classfeature"
        },
        "level": {
            "value": 1
        },
        "location": "",
        "prerequisites": {
            "value": []
        },
        "rules": [
            {
                "key": "ActiveEffectLike",
                "mode": "upgrade",
                "path": "data.resources.crafting.infusedReagents.max",
                "predicate": {
                    "all": [
                        "self:class:alchemist"
                    ]
                },
                "value": "@details.level.value  + floor((@abilities.int.value - 10) / 2)"
            },
            {
                "key": "ActiveEffectLike",
                "mode": "upgrade",
                "path": "data.resources.crafting.infusedReagents.max",
                "predicate": {
                    "not": [
                        "self:class:alchemist"
                    ]
                },
                "value": "@details.level.value"
            }
        ],
        "source": {
            "value": ""
        },
        "traits": {
            "custom": "",
            "rarity": {
                "value": "common"
            },
            "value": [
                "alchemist"
            ]
        }
    },
    "effects": [],
    "flags": {},
    "img": "systems/pf2e/icons/features/classes/infused-reagents.webp",
    "name": "Infused Reagents",
    "type": "feat"
}
