{
    "_id": "RyOkmu0W9svavuAB",
    "data": {
        "actionCategory": {
            "value": ""
        },
        "actionType": {
            "value": "passive"
        },
        "actions": {
            "value": null
        },
        "description": {
            "value": "<p>Where others might use sleight of hand or a silver tongue to achieve their objectives, you rely on your intellect to craft intricate schemes. You likely view your operations as a chess game, always planning 10 steps ahead where others might plan three. You might be a detective determined to solve crimes or a spymaster in the service of a powerful family or nation. If you operate outside the law, you might be an aspiring crime lord or information broker, excellent at directing others toward suitable jobs.</p>\n<p>If you successfully identify a creature using @Compendium[pf2e.actionspf2e.Recall Knowledge (Arcana)]{Recall Knowledge}, that creature is @Compendium[pf2e.conditionitems.Flat-Footed]{Flat-Footed} against your attacks until the start of your next turn; if you critically succeed, it's flat-footed against your attacks for 1 minute.</p>\n<p>You're trained in Society and one of the following skills of your choice: Arcana, Nature, Occultism, or Religion. You can choose Intelligence as your key ability score.</p>"
        },
        "featType": {
            "value": "classfeature"
        },
        "level": {
            "value": 1
        },
        "location": "",
        "prerequisites": {
            "value": []
        },
        "rules": [
            {
                "key": "ActiveEffectLike",
                "mode": "upgrade",
                "path": "data.skills.soc.rank",
                "value": 1
            }
        ],
        "source": {
            "value": ""
        },
        "traits": {
            "custom": "",
            "rarity": {
                "value": "common"
            },
            "value": [
                "rogue"
            ]
        }
    },
    "effects": [],
    "flags": {},
    "img": "systems/pf2e/icons/features/classes/mastermind.webp",
    "name": "Mastermind Racket",
    "type": "feat"
}
