{
    "_id": "zu9PcxvfoZlqQVk5",
    "data": {
        "actionCategory": {
            "value": ""
        },
        "actionType": {
            "value": "passive"
        },
        "actions": {
            "value": null
        },
        "description": {
            "value": "<p><strong>Magus</strong>: You fortify your spells with masterful prowess. Your proficiency ranks for arcane spell attack rolls and spell DCs increase to master.</p>\n<hr />\n<p><strong>Summoner</strong>: Your connection to your eidolon is strong enough to grant you mastery over associated spells. Your proficiency ranks for spell attack rolls and spell DCs for spells of your eidolon's tradition increase to master.</p>"
        },
        "featType": {
            "value": "classfeature"
        },
        "level": {
            "value": 17
        },
        "location": "",
        "prerequisites": {
            "value": []
        },
        "rules": [],
        "source": {
            "value": ""
        },
        "traits": {
            "custom": "",
            "rarity": {
                "value": "common"
            },
            "value": [
                "magus",
                "summoner"
            ]
        }
    },
    "effects": [],
    "flags": {},
    "img": "systems/pf2e/icons/features/classes/master-spellcaster.webp",
    "name": "Master Spellcaster (Level 17)",
    "type": "feat"
}
