{
    "_id": "EyRDvDy5hWX7fUFR",
    "data": {
        "abilities": {
            "cha": {
                "mod": 7,
                "value": 24
            },
            "con": {
                "mod": 8,
                "value": 26
            },
            "dex": {
                "mod": 1,
                "value": 12
            },
            "int": {
                "mod": 1,
                "value": 12
            },
            "str": {
                "mod": 5,
                "value": 20
            },
            "wis": {
                "mod": 3,
                "value": 16
            }
        },
        "attributes": {
            "ac": {
                "details": "",
                "value": 35
            },
            "allSaves": {
                "value": ""
            },
            "hp": {
                "details": "",
                "max": 255,
                "temp": 0,
                "value": 255
            },
            "initiative": {
                "ability": "perception"
            },
            "perception": {
                "value": 25
            },
            "shield": {
                "ac": 2,
                "brokenThreshold": 0,
                "hardness": 0,
                "max": 0,
                "value": 0
            },
            "speed": {
                "otherSpeeds": [],
                "special": "",
                "value": "35"
            }
        },
        "details": {
            "alignment": {
                "value": "NE"
            },
            "blurb": "",
            "creatureType": "",
            "level": {
                "value": 14
            },
            "privateNotes": "",
            "publicNotes": "",
            "source": {
                "author": "",
                "value": ""
            }
        },
        "resources": {},
        "saves": {
            "fortitude": {
                "saveDetail": "",
                "value": 28
            },
            "reflex": {
                "saveDetail": "",
                "value": 21
            },
            "will": {
                "saveDetail": "",
                "value": 25
            }
        },
        "traits": {
            "ci": [],
            "di": {
                "custom": "",
                "value": [
                    "blinded",
                    "dazzled",
                    "fire"
                ]
            },
            "dr": [],
            "dv": [
                {
                    "exceptions": "",
                    "label": "Cold",
                    "type": "cold",
                    "value": 10
                }
            ],
            "languages": {
                "custom": "can't speak any languages",
                "selected": [],
                "value": [
                    "common"
                ]
            },
            "rarity": {
                "value": "uncommon"
            },
            "senses": {
                "value": "darkvision"
            },
            "size": {
                "value": "med"
            },
            "traits": {
                "custom": "",
                "value": [
                    "undead"
                ]
            }
        }
    },
    "effects": [],
    "flags": {},
    "img": "systems/pf2e/icons/default-icons/npc.svg",
    "items": [
        {
            "_id": "50nir7g9fad1mcwl",
            "data": {
                "attack": {
                    "value": ""
                },
                "attackEffects": {
                    "custom": "",
                    "value": [
                        "grab",
                        "residual-light"
                    ]
                },
                "bonus": {
                    "value": 29
                },
                "damageRolls": {
                    "JJQwTeCvZPYUzNtV": {
                        "damage": "3d6+13",
                        "damageType": "slashing"
                    },
                    "ho7zkvkl8ca1i9vn5nqx": {
                        "damage": "2d8",
                        "damageType": "fire"
                    }
                },
                "description": {
                    "value": ""
                },
                "rules": [],
                "slug": null,
                "source": {
                    "value": ""
                },
                "traits": {
                    "custom": "",
                    "rarity": {
                        "value": "common"
                    },
                    "value": [
                        "agile",
                        "finesse"
                    ]
                },
                "weaponType": {
                    "value": "melee"
                }
            },
            "effects": [],
            "flags": {},
            "img": "systems/pf2e/icons/default-icons/melee.svg",
            "name": "Claw",
            "sort": 100000,
            "type": "melee"
        },
        {
            "_id": "ctfkkub1hj7misgj",
            "data": {
                "attack": {
                    "value": ""
                },
                "attackEffects": {
                    "custom": "",
                    "value": []
                },
                "bonus": {
                    "value": 25
                },
                "damageRolls": {
                    "F3U55tJmxwTW6BVV": {
                        "damage": "7d6",
                        "damageType": "fire"
                    }
                },
                "description": {
                    "value": ""
                },
                "rules": [],
                "slug": null,
                "source": {
                    "value": ""
                },
                "traits": {
                    "custom": "",
                    "rarity": {
                        "value": "common"
                    },
                    "value": [
                        "range-increment-40"
                    ]
                },
                "weaponType": {
                    "value": "ranged"
                }
            },
            "effects": [],
            "flags": {},
            "img": "systems/pf2e/icons/default-icons/melee.svg",
            "name": "Sunfire",
            "sort": 200000,
            "type": "melee"
        },
        {
            "_id": "dBEIQ00dee0LfsNI",
            "data": {
                "actionCategory": {
                    "value": "interaction"
                },
                "actionType": {
                    "value": "passive"
                },
                "actions": {
                    "value": null
                },
                "description": {
                    "value": "<p>@Localize[PF2E.NPC.Abilities.Glossary.Darkvision]</p>"
                },
                "requirements": {
                    "value": ""
                },
                "rules": [],
                "slug": "darkvision",
                "source": {
                    "value": ""
                },
                "traits": {
                    "custom": "",
                    "rarity": {
                        "value": "common"
                    },
                    "value": []
                },
                "trigger": {
                    "value": ""
                },
                "weapon": {
                    "value": ""
                }
            },
            "effects": [],
            "flags": {
                "core": {
                    "sourceId": "Compendium.pf2e.bestiary-ability-glossary-srd.qCCLZhnp2HhP3Ex6"
                }
            },
            "img": "systems/pf2e/icons/actions/Passive.webp",
            "name": "Darkvision",
            "sort": 300000,
            "type": "action"
        },
        {
            "_id": "s7iuu46czym34fcj",
            "data": {
                "actionCategory": {
                    "value": "defensive"
                },
                "actionType": {
                    "value": "passive"
                },
                "actions": {
                    "value": null
                },
                "description": {
                    "value": "<p>The sunburst corpse is @Compendium[pf2e.conditionitems.Concealed]{Concealed} in areas of natural bright light, such as due to sunlight or torches, even to creatures that can see clearly in bright light. Magical bright light and light from the sunburst corpse's blinding aura don't conceal the sunburst corpse.</p>"
                },
                "requirements": {
                    "value": ""
                },
                "rules": [],
                "slug": null,
                "source": {
                    "value": ""
                },
                "traits": {
                    "custom": "",
                    "rarity": {
                        "value": "common"
                    },
                    "value": []
                },
                "trigger": {
                    "value": ""
                }
            },
            "effects": [],
            "flags": {},
            "img": "systems/pf2e/icons/actions/Passive.webp",
            "name": "Light Camouflage",
            "sort": 400000,
            "type": "action"
        },
        {
            "_id": "6x0bkjezr6333mqm",
            "data": {
                "actionCategory": {
                    "value": "defensive"
                },
                "actionType": {
                    "value": "passive"
                },
                "actions": {
                    "value": null
                },
                "description": {
                    "value": "<p>60 feet. The sunburst corpse sheds bright light. Any creature that starts its turn in the emanation must succeed at a <span data-pf2-check=\"fortitude\" data-pf2-traits=\"aura,evocation,incapacitation,light,occult,visual\" data-pf2-label=\"Blinding Aura DC\" data-pf2-dc=\"31\" data-pf2-show-dc=\"gm\">Fortitude</span> save. If it fails, it's @Compendium[pf2e.conditionitems.Blinded]{Blinded} for 1 minute, and if it critically fails, it's blinded permanently. A creature that succeeds at its save is temporarily immune to this effect for 24 hours.</p>"
                },
                "requirements": {
                    "value": ""
                },
                "rules": [],
                "slug": null,
                "source": {
                    "value": ""
                },
                "traits": {
                    "custom": "",
                    "rarity": {
                        "value": "common"
                    },
                    "value": [
                        "aura",
                        "evocation",
                        "incapacitation",
                        "light",
                        "occult",
                        "visual"
                    ]
                },
                "trigger": {
                    "value": ""
                }
            },
            "effects": [],
            "flags": {},
            "img": "systems/pf2e/icons/actions/Passive.webp",
            "name": "Blinding Aura",
            "sort": 500000,
            "type": "action"
        },
        {
            "_id": "zu8bqkgi8bpopt54",
            "data": {
                "actionCategory": {
                    "value": "defensive"
                },
                "actionType": {
                    "value": "passive"
                },
                "actions": {
                    "value": null
                },
                "description": {
                    "value": "<p>A sunburst corpse is @Compendium[pf2e.conditionitems.Sickened]{Sickened 1} while in areas of magical darkness. If the level of the magical darkness effect is at least half of the sunburst corpse's level (a 7th-level effect against most sunburst corpses), the sunburst corpse is also @Compendium[pf2e.conditionitems.Slowed]{Slowed 1} while in the area.</p>"
                },
                "requirements": {
                    "value": ""
                },
                "rules": [],
                "slug": null,
                "source": {
                    "value": ""
                },
                "traits": {
                    "custom": "",
                    "rarity": {
                        "value": "common"
                    },
                    "value": []
                },
                "trigger": {
                    "value": ""
                }
            },
            "effects": [],
            "flags": {},
            "img": "systems/pf2e/icons/actions/Passive.webp",
            "name": "Darkness Vulnerability",
            "sort": 600000,
            "type": "action"
        },
        {
            "_id": "cizjjpo245cs9rgx",
            "data": {
                "actionCategory": {
                    "value": "offensive"
                },
                "actionType": {
                    "value": "action"
                },
                "actions": {
                    "value": 1
                },
                "description": {
                    "value": "<p>2d6+6 bludgeoning plus 2d8 fire and residual light, DC 34</p>"
                },
                "requirements": {
                    "value": ""
                },
                "rules": [],
                "slug": null,
                "source": {
                    "value": ""
                },
                "traits": {
                    "custom": "",
                    "rarity": {
                        "value": "common"
                    },
                    "value": []
                },
                "trigger": {
                    "value": ""
                }
            },
            "effects": [],
            "flags": {},
            "img": "systems/pf2e/icons/actions/OneAction.webp",
            "name": "Constrict",
            "sort": 700000,
            "type": "action"
        },
        {
            "_id": "pwl8fa1ev5dj8d7q",
            "data": {
                "actionCategory": {
                    "value": "offensive"
                },
                "actionType": {
                    "value": "action"
                },
                "actions": {
                    "value": 3
                },
                "description": {
                    "value": "<p>The sunburst corpse intensifies its light and unleashes a burning blast of energy. It deals [[/r {12d8}[fire]]]{12d8 fire damage} to all creatures in a <span data-pf2-effect-area=\"emanation\" data-pf2-distance=\"20\">20-foot emanation</span> (<span data-pf2-check=\"fortitude\" data-pf2-traits=\"evocation,light,occult,damaging-effect\" data-pf2-label=\"Nova Burst DC\" data-pf2-dc=\"34\" data-pf2-show-dc=\"gm\">basic Fortitude</span> save). A creature that fails its save becomes @Compendium[pf2e.conditionitems.Dazzled]{Dazzled} until the end of its next turn.<span data-visibility=\"gm\"> The sunburst corpse can't use Nova Burst again for [[/br 1d4 #rounds]]{1d4 rounds}, and its blinding aura becomes inactive during this time.</span></p>"
                },
                "requirements": {
                    "value": ""
                },
                "rules": [],
                "slug": null,
                "source": {
                    "value": ""
                },
                "traits": {
                    "custom": "",
                    "rarity": {
                        "value": "common"
                    },
                    "value": [
                        "evocation",
                        "light",
                        "occult"
                    ]
                },
                "trigger": {
                    "value": ""
                }
            },
            "effects": [],
            "flags": {},
            "img": "systems/pf2e/icons/actions/ThreeActions.webp",
            "name": "Nova Burst",
            "sort": 800000,
            "type": "action"
        },
        {
            "_id": "vrzmuimx9amhj6g0",
            "data": {
                "actionCategory": {
                    "value": "offensive"
                },
                "actionType": {
                    "value": "passive"
                },
                "actions": {
                    "value": null
                },
                "description": {
                    "value": "<p>When a sunburst corpse Strikes or Grapples a creature, some of the corpse's light clings to the creature for a moment. The creature must attempt a <span data-pf2-check=\"fortitude\" data-pf2-traits=\"evocation,light,occult\" data-pf2-label=\"Residual Light DC\" data-pf2-dc=\"34\" data-pf2-show-dc=\"gm\">Fortitude</span> save. On a failure, the creature is @Compendium[pf2e.conditionitems.Dazzled]{Dazzled} until the end of its next turn. On a critical failure, the creature is dazzled for 1 minute. A dazzled creature can use an Interact action to wick off the light and remove the dazzled condition.</p>"
                },
                "requirements": {
                    "value": ""
                },
                "rules": [],
                "slug": null,
                "source": {
                    "value": ""
                },
                "traits": {
                    "custom": "",
                    "rarity": {
                        "value": "common"
                    },
                    "value": [
                        "evocation",
                        "light",
                        "occult"
                    ]
                },
                "trigger": {
                    "value": ""
                }
            },
            "effects": [],
            "flags": {},
            "img": "systems/pf2e/icons/actions/Passive.webp",
            "name": "Residual Light",
            "sort": 900000,
            "type": "action"
        },
        {
            "_id": "0m4DwhOD3Wx4suVo",
            "data": {
                "actionCategory": {
                    "value": "offensive"
                },
                "actionType": {
                    "value": "action"
                },
                "actions": {
                    "value": 1
                },
                "description": {
                    "value": "<p>@Localize[PF2E.NPC.Abilities.Glossary.Grab]</p>"
                },
                "requirements": {
                    "value": ""
                },
                "rules": [],
                "slug": "grab",
                "source": {
                    "value": ""
                },
                "traits": {
                    "custom": "",
                    "rarity": {
                        "value": "common"
                    },
                    "value": []
                },
                "trigger": {
                    "value": ""
                },
                "weapon": {
                    "value": ""
                }
            },
            "effects": [],
            "flags": {
                "core": {
                    "sourceId": "Compendium.pf2e.bestiary-ability-glossary-srd.Tkd8sH4pwFIPzqTr"
                }
            },
            "img": "systems/pf2e/icons/actions/OneAction.webp",
            "name": "Grab",
            "sort": 1000000,
            "type": "action"
        },
        {
            "_id": "GwIFweEMjNfnhHBa",
            "data": {
                "actionCategory": {
                    "value": "offensive"
                },
                "actionType": {
                    "value": "action"
                },
                "actions": {
                    "value": 1
                },
                "description": {
                    "value": "<p>[[/r {2d6+6}[bludgeoning] + {2d8}[fire]]]{2d6+6 bludgeoning plus 2d8 fire} and Residual Light, <span data-pf2-check=\"fortitude\" data-pf2-traits=\"damaging-effect\" data-pf2-label=\"Constrict DC\" data-pf2-dc=\"34\" data-pf2-show-dc=\"gm\">basic Fortitude</span></p>\n<hr />\n<p>@Localize[PF2E.NPC.Abilities.Glossary.Constrict]</p>"
                },
                "requirements": {
                    "value": ""
                },
                "rules": [],
                "slug": "constrict",
                "source": {
                    "value": ""
                },
                "traits": {
                    "custom": "",
                    "rarity": {
                        "value": "common"
                    },
                    "value": []
                },
                "trigger": {
                    "value": ""
                },
                "weapon": {
                    "value": ""
                }
            },
            "effects": [],
            "flags": {
                "core": {
                    "sourceId": "Compendium.pf2e.bestiary-ability-glossary-srd.g26YiEIfSHCpLocV"
                }
            },
            "img": "systems/pf2e/icons/actions/OneAction.webp",
            "name": "Constrict",
            "sort": 1100000,
            "type": "action"
        },
        {
            "_id": "7g9ejtamqsw8r40r",
            "data": {
                "description": {
                    "value": ""
                },
                "mod": {
                    "value": 23
                },
                "proficient": {
                    "value": 0
                },
                "rules": [],
                "slug": null,
                "source": {
                    "value": ""
                },
                "traits": {
                    "custom": "",
                    "rarity": {
                        "value": "common"
                    },
                    "value": []
                }
            },
            "effects": [],
            "flags": {},
            "img": "systems/pf2e/icons/default-icons/lore.svg",
            "name": "Athletics",
            "sort": 1200000,
            "type": "lore"
        },
        {
            "_id": "cjtr42plg4ejmce3",
            "data": {
                "description": {
                    "value": ""
                },
                "mod": {
                    "value": 29
                },
                "proficient": {
                    "value": 0
                },
                "rules": [],
                "slug": null,
                "source": {
                    "value": ""
                },
                "traits": {
                    "custom": "",
                    "rarity": {
                        "value": "common"
                    },
                    "value": []
                }
            },
            "effects": [],
            "flags": {},
            "img": "systems/pf2e/icons/default-icons/lore.svg",
            "name": "Intimidation",
            "sort": 1300000,
            "type": "lore"
        },
        {
            "_id": "26p8vn0czfjtk2ix",
            "data": {
                "description": {
                    "value": ""
                },
                "mod": {
                    "value": 25
                },
                "proficient": {
                    "value": 0
                },
                "rules": [],
                "slug": null,
                "source": {
                    "value": ""
                },
                "traits": {
                    "custom": "",
                    "rarity": {
                        "value": "common"
                    },
                    "value": []
                }
            },
            "effects": [],
            "flags": {},
            "img": "systems/pf2e/icons/default-icons/lore.svg",
            "name": "Occultism",
            "sort": 1400000,
            "type": "lore"
        }
    ],
    "name": "Sunburst Corpse",
    "token": {
        "disposition": -1,
        "height": 1,
        "img": "systems/pf2e/icons/default-icons/npc.svg",
        "name": "Sunburst Corpse",
        "width": 1
    },
    "type": "npc"
}
