{
    "_id": "6xioRweZ0T4o4X9e",
    "data": {
        "abilities": {
            "cha": {
                "mod": 6
            },
            "con": {
                "mod": 0
            },
            "dex": {
                "mod": 6
            },
            "int": {
                "mod": 3
            },
            "str": {
                "mod": -5
            },
            "wis": {
                "mod": 3
            }
        },
        "attributes": {
            "ac": {
                "details": "",
                "value": 28
            },
            "allSaves": {
                "value": ""
            },
            "hp": {
                "details": "(negative healing)",
                "max": 125,
                "temp": 0,
                "value": 125
            },
            "initiative": {
                "ability": "perception"
            },
            "perception": {
                "value": 18
            },
            "shield": {
                "ac": 0,
                "brokenThreshold": 0,
                "hardness": 0,
                "max": 0,
                "value": 0
            },
            "speed": {
                "otherSpeeds": [
                    {
                        "exceptions": "",
                        "label": "Fly",
                        "type": "fly",
                        "value": "40"
                    }
                ],
                "value": "0"
            }
        },
        "details": {
            "alignment": {
                "value": "CE"
            },
            "blurb": "",
            "creatureType": "Spirit, Undead",
            "level": {
                "value": 9
            },
            "privateNotes": "",
            "publicNotes": "<p>Manifesting as a sinuous form wreathed in sickly green flames, this incorporeal undead forms when a powerful hag or witch dies in agony or rage. The body at the center of the flames usually resembles the witch's idealized self-image, regardless of their age and appearance at the time of their death.</p>\n<p>A witchfire often resides in a bog or swamp, which slowly blackens and decays around them. These regions are often plagued by will-o'-wisps, which seem to have an uncanny relationship with the resident witchfire. A witchfire might visit villages on the edge of their home terrain to lure away villagers, but always attack victims within earshot to make sure that other villagers hear the screams. A witchfire might also ally with other hags or witches and even join their covens, but a witchfire is incapable of forming covens entirely on their own.</p>",
            "source": {
                "value": "Pathfinder Bestiary 2"
            }
        },
        "resources": {
            "focus": {
                "max": 1,
                "value": 1
            }
        },
        "saves": {
            "fortitude": {
                "saveDetail": "",
                "value": 15
            },
            "reflex": {
                "saveDetail": "",
                "value": 21
            },
            "will": {
                "saveDetail": "",
                "value": 18
            }
        },
        "traits": {
            "attitude": {
                "value": "hostile"
            },
            "ci": [],
            "di": {
                "custom": "",
                "value": [
                    "death-effects",
                    "disease",
                    "fire",
                    "paralyzed",
                    "poison",
                    "precision",
                    "unconscious"
                ]
            },
            "dr": [
                {
                    "exceptions": "force, ghost touch, or positive; double vs non-magical",
                    "label": "All",
                    "type": "all",
                    "value": "10"
                }
            ],
            "dv": [],
            "languages": {
                "custom": "",
                "selected": [],
                "value": [
                    "aklo",
                    "common",
                    "necril"
                ]
            },
            "rarity": {
                "value": "uncommon"
            },
            "senses": {
                "value": "darkvision"
            },
            "size": {
                "value": "med"
            },
            "traits": {
                "custom": "",
                "value": [
                    "incorporeal",
                    "spirit",
                    "undead"
                ]
            }
        }
    },
    "effects": [],
    "flags": {},
    "img": "systems/pf2e/icons/default-icons/npc.svg",
    "items": [
        {
            "_id": "JKiNvFlGcQgCsNsL",
            "data": {
                "ability": {
                    "value": ""
                },
                "autoHeightenLevel": {
                    "value": null
                },
                "description": {
                    "value": ""
                },
                "displayLevel": {},
                "displayLevels": {},
                "item": {
                    "value": 0
                },
                "prepared": {
                    "value": "innate"
                },
                "proficiency": {
                    "value": 0
                },
                "rules": [],
                "showSlotlessLevels": {
                    "value": true
                },
                "showUnpreparedSpells": {
                    "value": false
                },
                "signatureSpells": {
                    "value": []
                },
                "slots": {
                    "slot0": {
                        "max": 0,
                        "prepared": [],
                        "value": 0
                    },
                    "slot1": {
                        "max": 0,
                        "prepared": [],
                        "value": 0
                    },
                    "slot10": {
                        "max": 0,
                        "prepared": [],
                        "value": 0
                    },
                    "slot11": {
                        "max": 0,
                        "prepared": [],
                        "value": 0
                    },
                    "slot2": {
                        "max": 0,
                        "prepared": [],
                        "value": 0
                    },
                    "slot3": {
                        "max": 0,
                        "prepared": [],
                        "value": 0
                    },
                    "slot4": {
                        "max": 0,
                        "prepared": [],
                        "value": 0
                    },
                    "slot5": {
                        "max": 0,
                        "prepared": [],
                        "value": 0
                    },
                    "slot6": {
                        "max": 0,
                        "prepared": [],
                        "value": 0
                    },
                    "slot7": {
                        "max": 0,
                        "prepared": [],
                        "value": 0
                    },
                    "slot8": {
                        "max": 0,
                        "prepared": [],
                        "value": 0
                    },
                    "slot9": {
                        "max": 0,
                        "prepared": [],
                        "value": 0
                    }
                },
                "slug": null,
                "source": {
                    "value": ""
                },
                "spelldc": {
                    "dc": "28",
                    "item": 0,
                    "mod": 0,
                    "value": 18
                },
                "tradition": {
                    "value": "occult"
                },
                "traits": {
                    "custom": "",
                    "rarity": {
                        "value": "common"
                    },
                    "value": []
                }
            },
            "effects": [],
            "flags": {},
            "img": "systems/pf2e/icons/default-icons/spellcastingEntry.svg",
            "name": "Occult Innate Spells",
            "sort": 100000,
            "type": "spellcastingEntry"
        },
        {
            "_id": "870qa6GVk9frGUgZ",
            "data": {
                "ability": {
                    "value": ""
                },
                "area": {
                    "areaType": "",
                    "value": null
                },
                "areasize": {
                    "value": ""
                },
                "autoHeightenLevel": {
                    "value": null
                },
                "category": {
                    "value": "spell"
                },
                "components": {
                    "focus": false,
                    "material": true,
                    "somatic": true,
                    "verbal": true
                },
                "cost": {
                    "value": ""
                },
                "damage": {
                    "value": {}
                },
                "description": {
                    "value": "<p>You conjure an aberration to fight for you. This works like summon animal, except you summon a common creature that has the aberration trait and whose level is 5 or lower.</p>\n<hr />\n<p><strong>Heightened (6th)</strong> Level 7</p>\n<p><strong>Heightened (7th)</strong> Level 9</p>\n<p><strong>Heightened (8th)</strong> Level 11</p>\n<p><strong>Heightened (9th)</strong> Level 13</p>\n<p><strong>Heightened (10th)</strong> Level 15</p>"
                },
                "duration": {
                    "value": "sustained up to 1 minute"
                },
                "hasCounteractCheck": {
                    "value": false
                },
                "level": {
                    "value": 6
                },
                "location": {
                    "value": "JKiNvFlGcQgCsNsL"
                },
                "materials": {
                    "value": ""
                },
                "prepared": {
                    "value": ""
                },
                "primarycheck": {
                    "value": ""
                },
                "range": {
                    "value": ""
                },
                "rules": [],
                "save": {
                    "basic": "",
                    "value": ""
                },
                "school": {
                    "value": "conjuration"
                },
                "secondarycasters": {
                    "value": ""
                },
                "secondarycheck": {
                    "value": ""
                },
                "slug": "summon-entity",
                "source": {
                    "value": ""
                },
                "spellType": {
                    "value": "utility"
                },
                "sustained": {
                    "value": false
                },
                "target": {
                    "value": ""
                },
                "time": {
                    "value": "3"
                },
                "traditions": {
                    "value": [
                        "occult"
                    ]
                },
                "traits": {
                    "custom": "",
                    "rarity": {
                        "value": "common"
                    },
                    "value": []
                }
            },
            "effects": [],
            "flags": {
                "core": {
                    "sourceId": "Compendium.pf2e.spells-srd.i1TvBID5QLyXrUCa"
                }
            },
            "img": "systems/pf2e/icons/spells/summon-entity.webp",
            "name": "Summon Entity (Will-o'-Wisp only)",
            "sort": 200000,
            "type": "spell"
        },
        {
            "_id": "7oNoj1Rns9kMcPEV",
            "data": {
                "ability": {
                    "value": ""
                },
                "area": {
                    "areaType": "",
                    "value": null
                },
                "areasize": {
                    "value": "30-foot cone"
                },
                "autoHeightenLevel": {
                    "value": null
                },
                "category": {
                    "value": "spell"
                },
                "components": {
                    "focus": false,
                    "material": false,
                    "somatic": true,
                    "verbal": true
                },
                "cost": {
                    "value": ""
                },
                "damage": {
                    "value": {}
                },
                "description": {
                    "value": "<p>You inflict despair on creatures in the area. The effects for each creature are determined by its Will save.</p>\n<hr />\n<p><strong>Critical Success</strong> The creature is unaffected.</p>\n<p><strong>Success</strong> For 1 round, the creature can't use reactions and must attempt another save at the start of its turn; on a failure, it is @Compendium[pf2e.conditionitems.Slowed]{Slowed 1} for that turn as it sobs uncontrollably.</p>\n<p><strong>Failure</strong> As success, but the duration is 1 minute.</p>\n<p><strong>Critical Failure</strong> As failure, and the creature is automatically @Compendium[pf2e.conditionitems.Slowed]{Slowed 1} for 1 minute.</p>\n<hr />\n<p><strong>Heightened (7th)</strong> The area increases to a 60-foot cone.</p>"
                },
                "duration": {
                    "value": "1 or more rounds"
                },
                "hasCounteractCheck": {
                    "value": false
                },
                "level": {
                    "value": 5
                },
                "location": {
                    "value": "JKiNvFlGcQgCsNsL"
                },
                "materials": {
                    "value": ""
                },
                "prepared": {
                    "value": ""
                },
                "primarycheck": {
                    "value": ""
                },
                "range": {
                    "value": ""
                },
                "rules": [],
                "save": {
                    "basic": "",
                    "value": "will"
                },
                "school": {
                    "value": "enchantment"
                },
                "secondarycasters": {
                    "value": ""
                },
                "secondarycheck": {
                    "value": ""
                },
                "slug": "crushing-despair",
                "source": {
                    "value": ""
                },
                "spellType": {
                    "value": "save"
                },
                "sustained": {
                    "value": false
                },
                "target": {
                    "value": ""
                },
                "time": {
                    "value": "2"
                },
                "traditions": {
                    "value": [
                        "arcane",
                        "occult"
                    ]
                },
                "traits": {
                    "custom": "",
                    "rarity": {
                        "value": "common"
                    },
                    "value": [
                        "emotion",
                        "mental"
                    ]
                }
            },
            "effects": [],
            "flags": {
                "core": {
                    "sourceId": "Compendium.pf2e.spells-srd.GaRQlC9Yw1BGKHfN"
                }
            },
            "img": "systems/pf2e/icons/spells/chrusing-dispair.webp",
            "name": "Crushing Despair",
            "sort": 300000,
            "type": "spell"
        },
        {
            "_id": "LqNf9lNxgs8eWc2T",
            "data": {
                "ability": {
                    "value": ""
                },
                "area": {
                    "areaType": "",
                    "value": null
                },
                "areasize": {
                    "value": ""
                },
                "autoHeightenLevel": {
                    "value": null
                },
                "category": {
                    "value": "spell"
                },
                "components": {
                    "focus": false,
                    "material": true,
                    "somatic": true,
                    "verbal": false
                },
                "cost": {
                    "value": ""
                },
                "damage": {
                    "value": {}
                },
                "description": {
                    "value": "<p>Cloaked in illusion, the target becomes @Compendium[pf2e.conditionitems.Invisible]{Invisible}. This makes it @Compendium[pf2e.conditionitems.Undetected]{Undetected} to all creatures, though the creatures can attempt to find the target, making it @Compendium[pf2e.conditionitems.Hidden]{Hidden} to them instead. If the target uses a hostile action, the spell ends after that hostile action is completed.</p>\n<hr />\n<p><strong>Heightened (4th)</strong> The spell lasts 1 minute, but it doesn't end if the target uses a hostile action.</p>"
                },
                "duration": {
                    "value": "10 minutes"
                },
                "hasCounteractCheck": {
                    "value": false
                },
                "level": {
                    "value": 4
                },
                "location": {
                    "value": "JKiNvFlGcQgCsNsL"
                },
                "materials": {
                    "value": ""
                },
                "prepared": {
                    "value": ""
                },
                "primarycheck": {
                    "value": ""
                },
                "range": {
                    "value": "touch"
                },
                "rules": [],
                "save": {
                    "basic": "",
                    "value": ""
                },
                "school": {
                    "value": "illusion"
                },
                "secondarycasters": {
                    "value": ""
                },
                "secondarycheck": {
                    "value": ""
                },
                "slug": "invisibility",
                "source": {
                    "value": ""
                },
                "spellType": {
                    "value": "utility"
                },
                "sustained": {
                    "value": false
                },
                "target": {
                    "value": "1 creature"
                },
                "time": {
                    "value": "2"
                },
                "traditions": {
                    "value": [
                        "arcane",
                        "occult"
                    ]
                },
                "traits": {
                    "custom": "",
                    "rarity": {
                        "value": "common"
                    },
                    "value": []
                }
            },
            "effects": [],
            "flags": {
                "core": {
                    "sourceId": "Compendium.pf2e.spells-srd.XXqE1eY3w3z6xJCB"
                }
            },
            "img": "systems/pf2e/icons/spells/invisibility.webp",
            "name": "Invisibility",
            "sort": 400000,
            "type": "spell"
        },
        {
            "_id": "moPhaNKuciL97oIt",
            "data": {
                "ability": {
                    "value": ""
                },
                "area": {
                    "areaType": "",
                    "value": null
                },
                "areasize": {
                    "value": ""
                },
                "autoHeightenLevel": {
                    "value": null
                },
                "category": {
                    "value": "spell"
                },
                "components": {
                    "focus": false,
                    "material": false,
                    "somatic": true,
                    "verbal": true
                },
                "cost": {
                    "value": ""
                },
                "damage": {
                    "value": {
                        "0": {
                            "type": {
                                "categories": [],
                                "value": "mental"
                            },
                            "value": "8d6"
                        }
                    }
                },
                "description": {
                    "value": "<p>You create a phantasmal image of the most fearsome creature imaginable to the target. Only the spell's target can see the killer, though you can see the vague shape of the illusion as it races forth to attack. The effect of the killer is based on the outcome of the target's Will save.</p>\n<hr />\n<p><strong>Critical Success</strong> The target is unaffected.</p>\n<p><strong>Success</strong> The target takes 4d6 mental damage and is @Compendium[pf2e.conditionitems.Frightened]{Frightened 1}.</p>\n<p><strong>Failure</strong> The target takes 8d6 mental damage and is @Compendium[pf2e.conditionitems.Frightened]{Frightened 2}.</p>\n<p><strong>Critical Failure</strong> The target is so afraid it might die. It must attempt a Fortitude save; if the target fails, it dies. On a successful Fortitude save, the target takes 12d6 mental damage, is @Compendium[pf2e.conditionitems.Fleeing]{Fleeing} until the end of its next turn, and is @Compendium[pf2e.conditionitems.Frightened]{Frightened 4}. This effect has the incapacitation trait.</p>\n<hr />\n<p><strong>Heightened (+1)</strong> The damage increases by 2d6 on a failure and by 3d6 on a critical failure.</p>"
                },
                "duration": {
                    "value": ""
                },
                "hasCounteractCheck": {
                    "value": false
                },
                "level": {
                    "value": 4
                },
                "location": {
                    "value": "JKiNvFlGcQgCsNsL"
                },
                "materials": {
                    "value": ""
                },
                "prepared": {
                    "value": ""
                },
                "primarycheck": {
                    "value": ""
                },
                "range": {
                    "value": "120 feet"
                },
                "rules": [],
                "save": {
                    "basic": "",
                    "value": "will"
                },
                "scaling": {
                    "damage": {
                        "0": "2d6"
                    },
                    "interval": 1
                },
                "school": {
                    "value": "illusion"
                },
                "secondarycasters": {
                    "value": ""
                },
                "secondarycheck": {
                    "value": ""
                },
                "slug": "phantasmal-killer",
                "source": {
                    "value": ""
                },
                "spellType": {
                    "value": "save"
                },
                "sustained": {
                    "value": false
                },
                "target": {
                    "value": "1 living creature"
                },
                "time": {
                    "value": "2"
                },
                "traditions": {
                    "value": [
                        "arcane",
                        "occult"
                    ]
                },
                "traits": {
                    "custom": "",
                    "rarity": {
                        "value": "common"
                    },
                    "value": [
                        "death",
                        "emotion",
                        "fear",
                        "mental"
                    ]
                }
            },
            "effects": [],
            "flags": {
                "core": {
                    "sourceId": "Compendium.pf2e.spells-srd.tlcrVRqW1MSKJ5IC"
                }
            },
            "img": "systems/pf2e/icons/spells/phantasmal-killer.webp",
            "name": "Phantasmal Killer",
            "sort": 500000,
            "type": "spell"
        },
        {
            "_id": "lNsz1mbtXKvh6qmW",
            "data": {
                "ability": {
                    "value": ""
                },
                "area": {
                    "areaType": "",
                    "value": null
                },
                "areasize": {
                    "value": ""
                },
                "autoHeightenLevel": {
                    "value": null
                },
                "category": {
                    "value": "spell"
                },
                "components": {
                    "focus": false,
                    "material": false,
                    "somatic": true,
                    "verbal": true
                },
                "cost": {
                    "value": ""
                },
                "damage": {
                    "value": {
                        "0": {
                            "type": {
                                "categories": [],
                                "value": "mental"
                            },
                            "value": "6d4"
                        }
                    }
                },
                "description": {
                    "value": "<p>Illusory pain wracks the target, dealing 2d4 mental damage and [[/r 1d4 #persistent mental]] @Compendium[pf2e.conditionitems.Persistent Damage]{Persistent Mental Damage}. The target must attempt a Will save.</p>\n<hr />\n<p><strong>Critical Success</strong> The target is unaffected.</p>\n<p><strong>Success</strong> The target takes full initial damage but no @Compendium[pf2e.conditionitems.Persistent Damage]{Persistent Damage}, and the spell ends immediately.</p>\n<p><strong>Failure</strong> The target takes full initial and Persistent Damage, and the target is @Compendium[pf2e.conditionitems.Sickened]{Sickened 1}. If the target recovers from being Sickened, the Persistent Damage ends and the spell ends.</p>\n<p><strong>Critical Failure</strong> As failure, but the target is @Compendium[pf2e.conditionitems.Sickened]{Sickened 2}.</p>\n<hr />\n<p><strong>Heightened (+1)</strong> The damage increases by 2d4 and the Persistent Damage by 1d4.</p>"
                },
                "duration": {
                    "value": "1 minute"
                },
                "hasCounteractCheck": {
                    "value": false
                },
                "level": {
                    "value": 3
                },
                "location": {
                    "value": "JKiNvFlGcQgCsNsL"
                },
                "materials": {
                    "value": ""
                },
                "prepared": {
                    "value": ""
                },
                "primarycheck": {
                    "value": ""
                },
                "range": {
                    "value": "30 feet"
                },
                "rules": [],
                "save": {
                    "basic": "",
                    "value": "will"
                },
                "scaling": {
                    "damage": {
                        "0": "2d4"
                    },
                    "interval": 1
                },
                "school": {
                    "value": "illusion"
                },
                "secondarycasters": {
                    "value": ""
                },
                "secondarycheck": {
                    "value": ""
                },
                "slug": "phantom-pain",
                "source": {
                    "value": ""
                },
                "spellType": {
                    "value": "save"
                },
                "sustained": {
                    "value": false
                },
                "target": {
                    "value": "1 creature"
                },
                "time": {
                    "value": "2"
                },
                "traditions": {
                    "value": [
                        "occult"
                    ]
                },
                "traits": {
                    "custom": "",
                    "rarity": {
                        "value": "common"
                    },
                    "value": [
                        "mental",
                        "nonlethal"
                    ]
                }
            },
            "effects": [],
            "flags": {
                "core": {
                    "sourceId": "Compendium.pf2e.spells-srd.R8bqnYiThB6MYTxD"
                }
            },
            "img": "systems/pf2e/icons/spells/phantom-pain.webp",
            "name": "Phantom Pain",
            "sort": 600000,
            "type": "spell"
        },
        {
            "_id": "q8EVhGnLoZro6yDj",
            "data": {
                "ability": {
                    "value": ""
                },
                "area": {
                    "areaType": "",
                    "value": null
                },
                "areasize": {
                    "value": ""
                },
                "autoHeightenLevel": {
                    "value": null
                },
                "category": {
                    "value": "spell"
                },
                "components": {
                    "focus": false,
                    "material": false,
                    "somatic": true,
                    "verbal": true
                },
                "cost": {
                    "value": ""
                },
                "damage": {
                    "value": {}
                },
                "description": {
                    "value": "<p>You create an illusion that causes you to appear as another creature of the same body shape, and with roughly similar height (within 6 inches) and weight (within 50 pounds), as yourself. The disguise is typically good enough to hide your identity, but not to impersonate a specific individual. The spell doesn't change your voice, scent, or mannerisms. You can change the appearance of your clothing and worn items, such as making your armor look like a dress. Held items are unaffected, and any worn item you remove returns to its true appearance.</p>\n<p>Casting illusory disguise counts as setting up a disguise for the @Compendium[pf2e.action-macros.Impersonate: Deception]{Impersonate} use of Deception; it ignores any circumstance penalties you might take for disguising yourself as a dissimilar creature, it gives you a +4 status bonus to Deception checks to prevent others from seeing through your disguise, and you add your level even if you're untrained. You can Dismiss this spell.</p>\n<hr />\n<p><strong>Heightened (2nd)</strong> The spell also disguises your voice and scent, and it gains the auditory trait.</p>\n<p><strong>Heightened (3rd)</strong> You can appear as any creature of the same size, even a specific individual. You must have seen an individual to take on their appearance. The spell also disguises your voice and scent, and it gains the auditory trait.</p>"
                },
                "duration": {
                    "value": "1 hour"
                },
                "hasCounteractCheck": {
                    "value": false
                },
                "level": {
                    "value": 2
                },
                "location": {
                    "value": "JKiNvFlGcQgCsNsL"
                },
                "materials": {
                    "value": ""
                },
                "prepared": {
                    "value": ""
                },
                "primarycheck": {
                    "value": ""
                },
                "range": {
                    "value": ""
                },
                "rules": [],
                "save": {
                    "basic": "",
                    "value": ""
                },
                "school": {
                    "value": "illusion"
                },
                "secondarycasters": {
                    "value": ""
                },
                "secondarycheck": {
                    "value": ""
                },
                "slug": "illusory-disguise",
                "source": {
                    "value": ""
                },
                "spellType": {
                    "value": "utility"
                },
                "sustained": {
                    "value": false
                },
                "target": {
                    "value": ""
                },
                "time": {
                    "value": "2"
                },
                "traditions": {
                    "value": [
                        "arcane",
                        "occult"
                    ]
                },
                "traits": {
                    "custom": "",
                    "rarity": {
                        "value": "common"
                    },
                    "value": [
                        "visual"
                    ]
                }
            },
            "effects": [],
            "flags": {
                "core": {
                    "sourceId": "Compendium.pf2e.spells-srd.i35dpZFI7jZcRoBo"
                }
            },
            "img": "systems/pf2e/icons/spells/illusory-disguise.webp",
            "name": "Illusory Disguise (At will)",
            "sort": 700000,
            "type": "spell"
        },
        {
            "_id": "2fCElnUXPBu777TZ",
            "data": {
                "ability": {
                    "value": ""
                },
                "area": {
                    "areaType": "",
                    "value": null
                },
                "areasize": {
                    "value": ""
                },
                "autoHeightenLevel": {
                    "value": null
                },
                "category": {
                    "value": "spell"
                },
                "components": {
                    "focus": false,
                    "material": false,
                    "somatic": true,
                    "verbal": true
                },
                "cost": {
                    "value": ""
                },
                "damage": {
                    "value": {}
                },
                "description": {
                    "value": "<p>You create up to four floating lights, no two of which are more than 10 feet apart. Each sheds light like a torch. When you Sustain the Spell, you can move any number of lights up to 60 feet. Each light must remain within 120 feet of you and within 10 feet of all others, or it winks out.</p>"
                },
                "duration": {
                    "value": "sustained"
                },
                "hasCounteractCheck": {
                    "value": false
                },
                "level": {
                    "value": 1
                },
                "location": {
                    "value": "JKiNvFlGcQgCsNsL"
                },
                "materials": {
                    "value": ""
                },
                "prepared": {
                    "value": ""
                },
                "primarycheck": {
                    "value": ""
                },
                "range": {
                    "value": "120 feet"
                },
                "rules": [],
                "save": {
                    "basic": "",
                    "value": ""
                },
                "school": {
                    "value": "evocation"
                },
                "secondarycasters": {
                    "value": ""
                },
                "secondarycheck": {
                    "value": ""
                },
                "slug": "dancing-lights",
                "source": {
                    "value": ""
                },
                "spellType": {
                    "value": "utility"
                },
                "sustained": {
                    "value": true
                },
                "target": {
                    "value": ""
                },
                "time": {
                    "value": "2"
                },
                "traditions": {
                    "custom": "",
                    "value": [
                        "arcane",
                        "occult",
                        "primal"
                    ]
                },
                "traits": {
                    "custom": "",
                    "rarity": {
                        "value": "common"
                    },
                    "value": [
                        "light",
                        "cantrip"
                    ]
                }
            },
            "effects": [],
            "flags": {
                "core": {
                    "sourceId": "Compendium.pf2e.spells-srd.kl2q6JvBZwed4B6v"
                }
            },
            "img": "systems/pf2e/icons/spells/dancing-lights.webp",
            "name": "Dancing Lights",
            "sort": 800000,
            "type": "spell"
        },
        {
            "_id": "OfF1Qz8EELRpN1hf",
            "data": {
                "ability": {
                    "value": ""
                },
                "area": {
                    "areaType": "",
                    "value": null
                },
                "areasize": {
                    "value": ""
                },
                "autoHeightenLevel": {
                    "value": null
                },
                "category": {
                    "value": "spell"
                },
                "components": {
                    "focus": false,
                    "material": false,
                    "somatic": true,
                    "verbal": true
                },
                "cost": {
                    "value": ""
                },
                "damage": {
                    "value": {}
                },
                "description": {
                    "value": "<p>You create an auditory illusion of simple sounds that has a maximum volume equal to four normal humans shouting. The sounds emanate from a square you designate within range. You can't create intelligible words or other intricate sounds (such as music).</p>\n<hr />\n<p><strong>Heightened (3rd)</strong> The range increases to 60 feet.</p>\n<p><strong>Heightened (5th)</strong> The range increases to 120 feet.</p>"
                },
                "duration": {
                    "value": "sustained"
                },
                "hasCounteractCheck": {
                    "value": false
                },
                "level": {
                    "value": 1
                },
                "location": {
                    "value": "JKiNvFlGcQgCsNsL"
                },
                "materials": {
                    "value": ""
                },
                "prepared": {
                    "value": ""
                },
                "primarycheck": {
                    "value": ""
                },
                "range": {
                    "value": "30 feet"
                },
                "rules": [],
                "save": {
                    "basic": "",
                    "value": ""
                },
                "school": {
                    "value": "illusion"
                },
                "secondarycasters": {
                    "value": ""
                },
                "secondarycheck": {
                    "value": ""
                },
                "slug": "ghost-sound",
                "source": {
                    "value": ""
                },
                "spellType": {
                    "value": "utility"
                },
                "sustained": {
                    "value": false
                },
                "target": {
                    "value": ""
                },
                "time": {
                    "value": "2"
                },
                "traditions": {
                    "value": [
                        "arcane",
                        "occult"
                    ]
                },
                "traits": {
                    "custom": "",
                    "rarity": {
                        "value": "common"
                    },
                    "value": [
                        "auditory",
                        "cantrip"
                    ]
                }
            },
            "effects": [],
            "flags": {
                "core": {
                    "sourceId": "Compendium.pf2e.spells-srd.atlgGNI1E1Ox3O3a"
                }
            },
            "img": "systems/pf2e/icons/spells/ghost-sound.webp",
            "name": "Ghost Sound",
            "sort": 900000,
            "type": "spell"
        },
        {
            "_id": "9eONvr5by0xfPFcf",
            "data": {
                "attack": {
                    "value": ""
                },
                "attackEffects": {
                    "custom": "",
                    "value": [
                        "witchflame"
                    ]
                },
                "bonus": {
                    "value": 21
                },
                "damageRolls": {
                    "vn1gnur746gdsxuqrvul": {
                        "damage": "3d6",
                        "damageType": "fire"
                    },
                    "7g65xovdzod3zfx7imfg": {
                        "damage": "3d6",
                        "damageType": "negative"
                    }
                },
                "description": {
                    "value": ""
                },
                "rules": [],
                "slug": null,
                "source": {
                    "value": ""
                },
                "traits": {
                    "custom": "",
                    "rarity": {
                        "value": "common"
                    },
                    "value": [
                        "agile",
                        "evil",
                        "finesse",
                        "magical"
                    ]
                },
                "weaponType": {
                    "value": "melee"
                }
            },
            "effects": [],
            "flags": {},
            "img": "systems/pf2e/icons/default-icons/melee.svg",
            "name": "Witchflame Caress",
            "sort": 1000000,
            "type": "melee"
        },
        {
            "_id": "eugKdHe7dmAkjXP0",
            "data": {
                "attack": {
                    "value": ""
                },
                "attackEffects": {
                    "custom": "",
                    "value": [
                        "witchflame"
                    ]
                },
                "bonus": {
                    "value": 21
                },
                "damageRolls": {
                    "7j874svh0xg679p7o0cx": {
                        "damage": "2d6",
                        "damageType": "fire"
                    },
                    "9585ibfwu7nue6oxkceo": {
                        "damage": "2d6",
                        "damageType": "negative"
                    }
                },
                "description": {
                    "value": ""
                },
                "rules": [],
                "slug": null,
                "source": {
                    "value": ""
                },
                "traits": {
                    "custom": "",
                    "rarity": {
                        "value": "common"
                    },
                    "value": [
                        "evil",
                        "magical",
                        "range-increment-100"
                    ]
                },
                "weaponType": {
                    "value": "ranged"
                }
            },
            "effects": [],
            "flags": {},
            "img": "systems/pf2e/icons/default-icons/melee.svg",
            "name": "Witchflame Bolt",
            "sort": 1100000,
            "type": "melee"
        },
        {
            "_id": "UatAhxaZk9Zo9da0",
            "data": {
                "actionCategory": {
                    "value": "interaction"
                },
                "actionType": {
                    "value": "passive"
                },
                "actions": {
                    "value": null
                },
                "description": {
                    "value": "<p>The witchfire adds <em>@Compendium[pf2e.spells-srd.Nightmare]{Nightmare}</em>, <em>@Compendium[pf2e.spells-srd.Phantasmal Killer]{Phantasmal Killer}</em>, <em>@Compendium[pf2e.spells-srd.Phantasmal Calamity]{Phantasmal Calamity}</em>, and <em>@Compendium[pf2e.spells-srd.Summon Entity]{Summon Entity}</em> to their coven's spells.</p>\n<p>A coven can contain one or more witchfires, but it must also include at least one living creature capable of forming a coven; three witchfires cannot form a coven.</p>\n<hr />\n<p>@Localize[PF2E.NPC.Abilities.Glossary.Coven]</p>"
                },
                "requirements": {
                    "value": ""
                },
                "rules": [],
                "slug": "coven",
                "source": {
                    "value": ""
                },
                "traits": {
                    "custom": "",
                    "rarity": {
                        "value": "common"
                    },
                    "value": [
                        "divination",
                        "mental",
                        "occult"
                    ]
                },
                "trigger": {
                    "value": ""
                },
                "weapon": {
                    "value": ""
                }
            },
            "effects": [],
            "flags": {
                "core": {
                    "sourceId": "Compendium.pf2e.bestiary-ability-glossary-srd.52CdldlWMiVTZk1F"
                }
            },
            "img": "systems/pf2e/icons/default-icons/mystery-man.svg",
            "name": "Coven",
            "sort": 1200000,
            "type": "action"
        },
        {
            "_id": "ZFxl4Vr0gR7v2Vms",
            "data": {
                "actionCategory": {
                    "value": "interaction"
                },
                "actionType": {
                    "value": "passive"
                },
                "actions": {
                    "value": null
                },
                "description": {
                    "value": "<p>@Localize[PF2E.NPC.Abilities.Glossary.Darkvision]</p>"
                },
                "requirements": {
                    "value": ""
                },
                "rules": [],
                "slug": "darkvision",
                "source": {
                    "value": ""
                },
                "traits": {
                    "custom": "",
                    "rarity": {
                        "value": "common"
                    },
                    "value": []
                },
                "trigger": {
                    "value": ""
                },
                "weapon": {
                    "value": ""
                }
            },
            "effects": [],
            "flags": {
                "core": {
                    "sourceId": "Compendium.pf2e.bestiary-ability-glossary-srd.qCCLZhnp2HhP3Ex6"
                }
            },
            "img": "systems/pf2e/icons/default-icons/action.svg",
            "name": "Darkvision",
            "sort": 1300000,
            "type": "action"
        },
        {
            "_id": "dsZl9DioIJswY3Gs",
            "data": {
                "actionCategory": {
                    "value": "interaction"
                },
                "actionType": {
                    "value": "passive"
                },
                "actions": {
                    "value": null
                },
                "description": {
                    "value": "<p>@Localize[PF2E.NPC.Abilities.Glossary.AtWillSpells]</p>"
                },
                "requirements": {
                    "value": ""
                },
                "rules": [],
                "slug": "at-will-spells",
                "source": {
                    "value": ""
                },
                "traits": {
                    "custom": "",
                    "rarity": {
                        "value": "common"
                    },
                    "value": []
                },
                "trigger": {
                    "value": ""
                },
                "weapon": {
                    "value": ""
                }
            },
            "effects": [],
            "flags": {
                "core": {
                    "sourceId": "Compendium.pf2e.bestiary-ability-glossary-srd.2YRDYVnC1eljaXKK"
                }
            },
            "img": "systems/pf2e/icons/default-icons/action.svg",
            "name": "At-Will Spells",
            "sort": 1400000,
            "type": "action"
        },
        {
            "_id": "t9ReCb126y5KXuru",
            "data": {
                "actionCategory": {
                    "value": "defensive"
                },
                "actionType": {
                    "value": "reaction"
                },
                "actions": {
                    "value": null
                },
                "description": {
                    "value": "<p data-visibility=\"gm\"><strong>Trigger</strong> A creature makes a melee Strike against or touches the witchfire;</p>\n<p><strong>Effect</strong> The witchfire makes a witchflame caress Strike against the triggering creature.</p>"
                },
                "requirements": {
                    "value": ""
                },
                "rules": [],
                "slug": null,
                "source": {
                    "value": ""
                },
                "traits": {
                    "custom": "",
                    "rarity": {
                        "value": "common"
                    },
                    "value": []
                },
                "trigger": {
                    "value": ""
                },
                "weapon": {
                    "value": ""
                }
            },
            "effects": [],
            "flags": {},
            "img": "systems/pf2e/icons/actions/Reaction.webp",
            "name": "Opportune Witchflame",
            "sort": 1500000,
            "type": "action"
        },
        {
            "_id": "lc7e1FfD0zeKHSkz",
            "data": {
                "actionCategory": {
                    "value": "defensive"
                },
                "actionType": {
                    "value": "passive"
                },
                "actions": {
                    "value": null
                },
                "description": {
                    "value": "<p>@Localize[PF2E.NPC.Abilities.Glossary.NegativeHealing]</p>"
                },
                "requirements": {
                    "value": ""
                },
                "rules": [
                    {
                        "key": "ActiveEffectLike",
                        "mode": "override",
                        "path": "data.attributes.hp.negativeHealing",
                        "value": true
                    }
                ],
                "slug": "negative-healing",
                "source": {
                    "value": ""
                },
                "traits": {
                    "custom": "",
                    "rarity": {
                        "value": "common"
                    },
                    "value": []
                },
                "trigger": {
                    "value": ""
                },
                "weapon": {
                    "value": ""
                }
            },
            "effects": [],
            "flags": {
                "core": {
                    "sourceId": "Compendium.pf2e.bestiary-ability-glossary-srd.TTCw5NusiSSkJU1x"
                }
            },
            "img": "systems/pf2e/icons/default-icons/action.svg",
            "name": "Negative Healing",
            "sort": 1600000,
            "type": "action"
        },
        {
            "_id": "GCu6OFgRjem6F0sI",
            "data": {
                "actionCategory": {
                    "value": "offensive"
                },
                "actionType": {
                    "value": "passive"
                },
                "actions": {
                    "value": null
                },
                "description": {
                    "value": "<p>Any creature that takes negative damage from a witchfire's Strike must attempt a <span data-pf2-check=\"will\" data-pf2-dc=\"26\" data-pf2-traits=\"curse,fire,necromancy,occult\" data-pf2-label=\"Witchflame DC\" data-pf2-show-dc=\"gm\">Will</span> save.</p>\n<hr />\n<p><strong>Critical Success</strong> The creature is unaffected and is temporarily immune to witchflame for 1 hour.</p>\n<p><strong>Success</strong> The creature appears to catch fire with sickly green flames. These flames deal no damage on their own, but as long as the flames burn, the creature can't be @Compendium[pf2e.conditionitems.Concealed]{Concealed} (invisible creatures are concealed rather than being undetected) and gains weakness 5 to fire for 1 round.</p>\n<p><strong>Failure</strong> As success, but the effect is permanent until removed.</p>\n<p><strong>Critical Failure</strong> As failure, but the creature gains weakness 10 to fire.</p>"
                },
                "requirements": {
                    "value": ""
                },
                "rules": [],
                "slug": null,
                "source": {
                    "value": ""
                },
                "traits": {
                    "custom": "",
                    "rarity": {
                        "value": "common"
                    },
                    "value": [
                        "curse",
                        "fire",
                        "necromancy",
                        "occult"
                    ]
                },
                "trigger": {
                    "value": ""
                },
                "weapon": {
                    "value": ""
                }
            },
            "effects": [],
            "flags": {},
            "img": "systems/pf2e/icons/default-icons/mystery-man.svg",
            "name": "Witchflame",
            "sort": 1700000,
            "type": "action"
        },
        {
            "_id": "tjQCRx8UN4LQPnwJ",
            "data": {
                "actionCategory": {
                    "value": "offensive"
                },
                "actionType": {
                    "value": "action"
                },
                "actions": {
                    "value": 2
                },
                "description": {
                    "value": "<p><strong>Requirements</strong> A creature within 30 feet of the witchfire burns with witchflame;</p>\n<p><strong>Effect</strong> The witchfire's eyes and mouth glow brightly, and the witchflame on the target creature momentarily burns much hotter, dealing [[/r {5d6}[fire]]]{5d6 fire damage} and [[/r {5d6}[negative]]]{5d6 negative damage} to that creature (<span data-pf2-check=\"fortitude\" data-pf2-dc=\"28\" data-pf2-traits=\"fire,necromancy,occult,damaging-effect\" data-pf2-label=\"Witchflame Kindling DC\" data-pf2-show-dc=\"gm\">basic Fortitude</span> save).</p>\n<p>The witchfire can't use Witchflame Kindling for [[/br 1d4 #rounds]]{1d4 rounds}.</p>"
                },
                "requirements": {
                    "value": ""
                },
                "rules": [],
                "slug": null,
                "source": {
                    "value": ""
                },
                "traits": {
                    "custom": "",
                    "rarity": {
                        "value": "common"
                    },
                    "value": [
                        "fire",
                        "necromancy",
                        "occult"
                    ]
                },
                "trigger": {
                    "value": ""
                },
                "weapon": {
                    "value": ""
                }
            },
            "effects": [],
            "flags": {},
            "img": "systems/pf2e/icons/actions/TwoActions.webp",
            "name": "Witchflame Kindling",
            "sort": 1800000,
            "type": "action"
        },
        {
            "_id": "XrgT17TM6CPhwPRt",
            "data": {
                "description": {
                    "value": ""
                },
                "item": {
                    "value": 0
                },
                "mod": {
                    "value": 17
                },
                "proficient": {
                    "value": 0
                },
                "rules": [],
                "slug": null,
                "source": {
                    "value": ""
                },
                "traits": {
                    "custom": "",
                    "rarity": {
                        "value": "common"
                    },
                    "value": []
                }
            },
            "effects": [],
            "flags": {},
            "img": "systems/pf2e/icons/default-icons/lore.svg",
            "name": "Acrobatics",
            "sort": 1900000,
            "type": "lore"
        },
        {
            "_id": "Vy1vmMm70zp1UyvJ",
            "data": {
                "description": {
                    "value": ""
                },
                "item": {
                    "value": 0
                },
                "mod": {
                    "value": 19
                },
                "proficient": {
                    "value": 0
                },
                "rules": [],
                "slug": null,
                "source": {
                    "value": ""
                },
                "traits": {
                    "custom": "",
                    "rarity": {
                        "value": "common"
                    },
                    "value": []
                }
            },
            "effects": [],
            "flags": {},
            "img": "systems/pf2e/icons/default-icons/lore.svg",
            "name": "Deception",
            "sort": 2000000,
            "type": "lore"
        },
        {
            "_id": "RTwFEBzqp9GCqv9Z",
            "data": {
                "description": {
                    "value": ""
                },
                "item": {
                    "value": 0
                },
                "mod": {
                    "value": 21
                },
                "proficient": {
                    "value": 0
                },
                "rules": [],
                "slug": null,
                "source": {
                    "value": ""
                },
                "traits": {
                    "custom": "",
                    "rarity": {
                        "value": "common"
                    },
                    "value": []
                }
            },
            "effects": [],
            "flags": {},
            "img": "systems/pf2e/icons/default-icons/lore.svg",
            "name": "Intimidation",
            "sort": 2100000,
            "type": "lore"
        },
        {
            "_id": "5lHQYGDmVnH5Un9p",
            "data": {
                "description": {
                    "value": ""
                },
                "item": {
                    "value": 0
                },
                "mod": {
                    "value": 18
                },
                "proficient": {
                    "value": 0
                },
                "rules": [],
                "slug": null,
                "source": {
                    "value": ""
                },
                "traits": {
                    "custom": "",
                    "rarity": {
                        "value": "common"
                    },
                    "value": []
                }
            },
            "effects": [],
            "flags": {},
            "img": "systems/pf2e/icons/default-icons/lore.svg",
            "name": "Occultism",
            "sort": 2200000,
            "type": "lore"
        },
        {
            "_id": "xtZq1SUyiX8eHGGp",
            "data": {
                "description": {
                    "value": ""
                },
                "item": {
                    "value": 0
                },
                "mod": {
                    "value": 19
                },
                "proficient": {
                    "value": 0
                },
                "rules": [],
                "slug": null,
                "source": {
                    "value": ""
                },
                "traits": {
                    "custom": "",
                    "rarity": {
                        "value": "common"
                    },
                    "value": []
                }
            },
            "effects": [],
            "flags": {},
            "img": "systems/pf2e/icons/default-icons/lore.svg",
            "name": "Stealth",
            "sort": 2300000,
            "type": "lore"
        }
    ],
    "name": "Witchfire",
    "token": {
        "disposition": -1,
        "height": 1,
        "img": "systems/pf2e/icons/default-icons/npc.svg",
        "name": "Witchfire",
        "width": 1
    },
    "type": "npc"
}
