{
    "_id": "ZeftDoh0nFAXBAWY",
    "data": {
        "ability": {
            "value": ""
        },
        "area": {
            "areaType": "",
            "value": null
        },
        "areasize": {
            "value": "5-foot burst"
        },
        "category": {
            "value": "focus"
        },
        "components": {
            "material": true,
            "somatic": false,
            "verbal": true
        },
        "cost": {
            "value": ""
        },
        "damage": {
            "value": {}
        },
        "description": {
            "value": "<p>You create a brief vision of immense wealth filling the spell's area. Each creature within 20 feet of the area that could be enticed by material wealth must attempt a Will saving throw. A creature that enters the area automatically disbelieves the illusion, and disbelieving the illusion ends any @Compendium[pf2e.conditionitems.Fascinated]{Fascinated} condition imposed by the spell. As long as you Sustain the Spell, other creatures react to the treasure like they would any other illusion, but they are not at risk of becoming Fascinated.</p>\n<hr />\n<p><strong>Critical Success</strong> The creature disbelieves the illusion and is unaffected by it.</p>\n<p><strong>Success</strong> The creature is Fascinated by the wealth until it has completed its first action on its next turn.</p>\n<p><strong>Failure</strong> The creature is Fascinated by the illusion.</p>"
        },
        "duration": {
            "value": "sustained up to 1 minute"
        },
        "hasCounteractCheck": {
            "value": false
        },
        "level": {
            "value": 1
        },
        "location": {
            "value": ""
        },
        "materials": {
            "value": ""
        },
        "prepared": {
            "value": ""
        },
        "primarycheck": {
            "value": ""
        },
        "range": {
            "value": "30 feet"
        },
        "rules": [],
        "save": {
            "basic": "",
            "value": "will"
        },
        "school": {
            "value": "illusion"
        },
        "secondarycasters": {
            "value": ""
        },
        "secondarycheck": {
            "value": ""
        },
        "source": {
            "value": "Pathfinder Core Rulebook"
        },
        "spellType": {
            "value": "save"
        },
        "sustained": {
            "value": false
        },
        "target": {
            "value": ""
        },
        "time": {
            "value": "2"
        },
        "traditions": {
            "value": []
        },
        "traits": {
            "custom": "",
            "rarity": {
                "value": "uncommon"
            },
            "value": [
                "cleric"
            ]
        }
    },
    "effects": [],
    "flags": {},
    "img": "systems/pf2e/icons/spells/appearance-of-wealth.webp",
    "name": "Appearance of Wealth",
    "type": "spell"
}
