{
    "_id": "kWDt0JcKPgX6MvdD",
    "data": {
        "ability": {
            "value": ""
        },
        "area": {
            "areaType": "burst",
            "value": "60"
        },
        "autoHeightenLevel": {
            "value": null
        },
        "category": {
            "value": "spell"
        },
        "components": {
            "focus": false,
            "material": false,
            "somatic": true,
            "verbal": true
        },
        "cost": {
            "value": ""
        },
        "damage": {
            "applyMod": false,
            "value": {
                "0": {
                    "applyMod": false,
                    "type": {
                        "subtype": "",
                        "value": "fire"
                    },
                    "value": "6d6"
                }
            }
        },
        "description": {
            "value": "<p><strong>Area</strong> 30-foot radius, 100-foot tall cylinder</p>\n<hr />\n<p>An intangible hollow tree sprouts from the ground and grows to towering height, radiating a fiery passion and fascinating viewers. The base of the tree takes up a single square and grows 100 feet upwards, while its branches extend outwards 30 feet, forming the spell's cylindrical area. The tree then blossoms, growing delicate white flowers that burn with white-hot fire. As the tree's branches gently rustle in the wind, flower petals drift to the ground in a shower of flame. Any creature that ends its turn under the tree's branches takes 6d6 fire damage from the burning petals. Any enemy that can see the tree, even if the enemy is outside the spell's area, must attempt a <span data-pf2-check=\"will\" data-pf2-traits=\"enchantment,emotion,mental,visual\" data-pf2-label=\"Burning Blossoms DC\" data-pf2-show-dc=\"gm\">Will</span> save. This is an emotion, mental, and visual effect. Creatures fascinated with the tree must use at least one of their actions on each of their turns to move toward the tree.</p>\n<hr />\n<p><strong>Critical Success</strong> The creature is unaffected and is temporarily immune for 24 hours.</p>\n<p><strong>Success</strong> The creature is unaffected, but it must attempt a new save at the end of its turn if it can still see the tree.</p>\n<p><strong>Failure</strong> The creature is @Compendium[pf2e.conditionitems.Fascinated]{Fascinated} with the tree until the end of its next turn. If it can still see the tree then, it must attempt a save again.</p>\n<p><strong>Critical Failure</strong> The creature is fascinated with the tree until the spell ends. The tree's fire damage doesn't end the fascination; other hostile actions end it, as normal. If the fascination ends, the creature must attempt a new save at the end of its turn if it can still see the tree.</p>\n<hr />\n<p><strong>Heightened (+1)</strong> The damage increases by 1d6</p>"
        },
        "duration": {
            "value": "1 minute"
        },
        "hasCounteractCheck": {
            "value": false
        },
        "level": {
            "value": 8
        },
        "location": {
            "value": ""
        },
        "materials": {
            "value": ""
        },
        "prepared": {
            "value": ""
        },
        "range": {
            "value": "120 feet"
        },
        "rules": [],
        "save": {
            "basic": "",
            "value": ""
        },
        "scaling": {
            "damage": {
                "0": "1d6"
            },
            "interval": 1
        },
        "school": {
            "value": "enchantment"
        },
        "source": {
            "value": "Pathfinder Secrets of Magic"
        },
        "spellType": {
            "value": "utility"
        },
        "sustained": {
            "value": false
        },
        "target": {
            "value": ""
        },
        "time": {
            "value": "3"
        },
        "traditions": {
            "custom": "",
            "value": [
                "arcane",
                "primal"
            ]
        },
        "traits": {
            "custom": "",
            "rarity": {
                "value": "common"
            },
            "value": [
                "fire",
                "plant"
            ]
        }
    },
    "effects": [],
    "flags": {},
    "img": "systems/pf2e/icons/spells/burning-blossoms.webp",
    "name": "Burning Blossoms",
    "type": "spell"
}
