{
    "_id": "Dbd5W6G8U2vzWolN",
    "data": {
        "ability": {
            "value": ""
        },
        "area": {
            "areaType": "burst",
            "value": 40
        },
        "areasize": {
            "value": ""
        },
        "category": {
            "value": "ritual"
        },
        "components": {
            "material": false,
            "somatic": false,
            "verbal": false
        },
        "cost": {
            "value": "rare incense and offerings worth a total value of 20 gp × the spell level"
        },
        "damage": {
            "value": {}
        },
        "description": {
            "value": "<p>You consecrate a site to your deity, chanting praises and creating a sacred space. While within the area, worshippers of your deity gain a +1 status bonus to attack rolls, skill checks, saving throws, and Perception checks, and creatures anathema to your deity (such as undead for @Compendium[pf2e.deities.Pharasma]{Pharasma} or @Compendium[pf2e.deities.Sarenrae]{Sarenrae}) take a -1 status penalty to those checks. Attacks made by worshippers of your deity within the area deal 1 damage of one of your deity's alignment types (your choice); if your deity is true neutral, you don't gain this benefit.</p>\n<hr />\n<p><strong>Critical Success</strong> The consecration succeeds, and it either lasts for 10 years instead of 1 or covers an area with twice the radius. Occasionally, with your deity's favor, this might produce an even more amazing effect, such as a permanently consecrated area or the effect covering an entire cathedral.</p>\n<p><strong>Success</strong> The consecration succeeds.</p>\n<p><strong>Failure</strong> The consecration fails.</p>\n<p><strong>Critical Failure</strong> The consecration fails spectacularly and angers your deity, who sends a sign of displeasure. For at least 1 year, further attempts to consecrate the site fail.</p>\n<hr />\n<p><strong>Heightened (7th)</strong> The consecrated area also gains the effects of the <em>@Compendium[pf2e.spells-srd.Dimensional Lock]{Dimensional Lock}</em> spell, but the effect doesn't attempt to counteract teleportation by worshippers of your deity. The cost increases to 200 gp × the spell level.</p>"
        },
        "duration": {
            "value": "1 year"
        },
        "hasCounteractCheck": {
            "value": false
        },
        "level": {
            "value": 2
        },
        "location": {
            "value": ""
        },
        "materials": {
            "value": ""
        },
        "prepared": {
            "value": ""
        },
        "primarycheck": {
            "value": "Religion"
        },
        "range": {
            "value": "40 feet"
        },
        "rules": [],
        "save": {
            "basic": "",
            "value": ""
        },
        "school": {
            "value": "evocation"
        },
        "secondarycasters": {
            "value": "2, must be worshippers of your religion"
        },
        "secondarycheck": {
            "value": "Crafting, Performance"
        },
        "source": {
            "value": "Pathfinder Secrets of Magic"
        },
        "spellType": {
            "value": "utility"
        },
        "sustained": {
            "value": false
        },
        "target": {
            "value": ""
        },
        "time": {
            "value": "3 days"
        },
        "traditions": {
            "custom": "",
            "value": []
        },
        "traits": {
            "custom": "",
            "rarity": {
                "value": "uncommon"
            },
            "value": []
        }
    },
    "effects": [],
    "flags": {},
    "img": "systems/pf2e/icons/spells/consecrate.webp",
    "name": "Consecrate",
    "type": "spell"
}
