{
    "_id": "xFY9RtDE4DQKlWNR",
    "data": {
        "ability": {
            "value": ""
        },
        "area": {
            "areaType": "",
            "value": null
        },
        "areasize": {
            "value": ""
        },
        "category": {
            "value": "spell"
        },
        "components": {
            "material": false,
            "somatic": true,
            "verbal": true
        },
        "cost": {
            "value": ""
        },
        "damage": {
            "value": {}
        },
        "description": {
            "value": "<p>You issue a divine mandate or proclaim a cause to the targets. It can be to attain an item, claim a patch of land, slay a creature, war with a group, or be entirely peaceful. Your cause can't force the targets to harm one another or themselves. The targets become completely dedicated to that cause, depending on their levels. They choose their own actions, but they favor direct action over inaction or indirect action.</p>\n<ul>\n<li><strong>13th or Lower</strong> The target is so dedicated to the cause that it pursues the cause to the death (unless you say otherwise).</li>\n<li><strong>14th</strong> The target is dedicated to the cause, but the spell ends for the target if it's reduced to half its maximum Hit Points or fewer.</li>\n<li><strong>15th</strong> As 14th, plus the target can attempt a Will save at the end of each of its turns to end the spell for itself.</li>\n</ul>\n<p>The spell ends for all creatures if you or one of your allies uses a hostile action against a target, or when the cause is completed. The GM might determine this spell has alignment traits befitting the cause.</p>\n<hr />\n<p><strong>Heightened (10th)</strong> The level for each category increases by 2.</p>"
        },
        "duration": {
            "value": "10 minutes"
        },
        "hasCounteractCheck": {
            "value": false
        },
        "level": {
            "value": 9
        },
        "location": {
            "value": ""
        },
        "materials": {
            "value": ""
        },
        "prepared": {
            "value": ""
        },
        "primarycheck": {
            "value": ""
        },
        "range": {
            "value": "60 feet"
        },
        "rules": [],
        "save": {
            "basic": "",
            "value": ""
        },
        "school": {
            "value": "enchantment"
        },
        "secondarycasters": {
            "value": ""
        },
        "secondarycheck": {
            "value": ""
        },
        "source": {
            "value": "Pathfinder Core Rulebook"
        },
        "spellType": {
            "value": "utility"
        },
        "sustained": {
            "value": false
        },
        "target": {
            "value": "up to 4 creatures"
        },
        "time": {
            "value": "2"
        },
        "traditions": {
            "value": [
                "divine"
            ]
        },
        "traits": {
            "custom": "",
            "rarity": {
                "value": "uncommon"
            },
            "value": [
                "linguistic",
                "mental"
            ]
        }
    },
    "effects": [],
    "flags": {},
    "img": "systems/pf2e/icons/spells/crusade.webp",
    "name": "Crusade",
    "type": "spell"
}
