{
    "_id": "x0rWq0wS06dns4G2",
    "data": {
        "ability": {
            "value": ""
        },
        "area": {
            "value": ""
        },
        "areasize": {
            "value": ""
        },
        "category": {
            "value": "spell"
        },
        "components": {
            "material": false,
            "somatic": true,
            "verbal": true
        },
        "cost": {
            "value": ""
        },
        "damage": {
            "value": {
                "0": {
                    "type": {
                        "categories": [],
                        "value": "fire"
                    },
                    "value": "6d6"
                }
            }
        },
        "description": {
            "value": "<p>You channel disruptive energies through the bond between you and your minion, causing it to violently explode. The target is immediately slain, and creatures within 20 feet of it take <a class=\"inline-roll roll\" data-mode=\"roll\" data-flavor=\"fire\" data-formula=\"6d6\" title=\"fire\"><i class=\"fas fa-dice-d20\"></i> 6d6</a> fire damage (basic Reflex save). If the target has the cold or water trait, the spell instead deals cold damage and gains the cold trait in place of the fire trait. If used on a creature that isn't mindless, this spell has the evil trait. Attempting to cast this spell targeting a creature that you temporarily seized control of, such as an undead commanded by @Compendium[pf2e.feats-srd.Command Undead]{Command Undead}, automatically fails and breaks the controlling effect.</p>\n<hr />\n<p><strong>Heightened (+1)</strong> The damage increases by <a class=\"inline-roll roll\" data-mode=\"roll\" data-flavor=\"fire\" data-formula=\"2d6\" title=\"fire\"><i class=\"fas fa-dice-d20\"></i> 2d6</a>.</p>"
        },
        "duration": {
            "value": ""
        },
        "hasCounteractCheck": {
            "value": false
        },
        "level": {
            "value": 2
        },
        "location": {
            "value": ""
        },
        "materials": {
            "value": ""
        },
        "prepared": {
            "value": false
        },
        "primarycheck": {
            "value": ""
        },
        "range": {
            "value": "120 feet"
        },
        "rules": [],
        "save": {
            "basic": "basic",
            "value": "reflex"
        },
        "scaling": {
            "damage": {
                "0": "2d6"
            },
            "interval": 1
        },
        "school": {
            "value": "evocation"
        },
        "secondarycasters": {
            "value": ""
        },
        "secondarycheck": {
            "value": ""
        },
        "source": {
            "value": "Pathfinder Advanced Player's Guide"
        },
        "spellType": {
            "value": "save"
        },
        "sustained": {
            "value": false
        },
        "target": {
            "value": "1 creature with the minion trait that you summoned or permanently control"
        },
        "time": {
            "value": "2"
        },
        "traditions": {
            "value": [
                "arcane",
                "divine",
                "occult",
                "primal"
            ]
        },
        "traits": {
            "custom": "",
            "rarity": {
                "value": "common"
            },
            "value": [
                "fire"
            ]
        }
    },
    "effects": [],
    "flags": {},
    "img": "systems/pf2e/icons/spells/final-sacrifice.webp",
    "name": "Final Sacrifice",
    "type": "spell"
}
