{
    "_id": "rTvNWcKNpOnGklGF",
    "data": {
        "ability": {
            "value": ""
        },
        "area": {
            "areaType": "",
            "value": ""
        },
        "autoHeightenLevel": {
            "value": null
        },
        "category": {
            "value": "spell"
        },
        "components": {
            "focus": false,
            "material": false,
            "somatic": true,
            "verbal": true
        },
        "cost": {
            "value": ""
        },
        "damage": {
            "value": {}
        },
        "description": {
            "value": "<p>You pray over a dying creature, drawing its shadow into your service as long as its owner is stooped at death's door.</p>\n<p>You summon a @Compendium[pf2e.pathfinder-bestiary.Greater Shadow]{Greater Shadow} in a space adjacent to the dying creature. The greater shadow has its usual stats, with the following modifications:</p>\n<ul>\n<li>The greater shadow's shadow hand Strike deals an additional 1d8 poison damage.</li>\n<li>When you Cast a Spell, you can use the greater shadow's location as the origin point instead of your own location. Upon doing so, the greater shadow immediately disappears. If the dying creature targeted by this spell dies or regains consciousness, the greater shadow disappears and this spell ends.</li>\n</ul>\n<hr />\n<p>@Compendium[pf2e.spell-effects.Spell Effect: Gray Shadow]{Spell Effect: Gray Shadow} (Place on the Greater Shadow)</p>"
        },
        "duration": {
            "value": "sustained, up to 1 minute"
        },
        "hasCounteractCheck": {
            "value": false
        },
        "level": {
            "value": 6
        },
        "location": {
            "value": ""
        },
        "materials": {
            "value": ""
        },
        "range": {
            "value": "30 feet"
        },
        "rules": [],
        "save": {
            "basic": "",
            "value": ""
        },
        "school": {
            "value": "necromancy"
        },
        "source": {
            "value": "Pathfinder #171: Hurricane's Howl"
        },
        "spellType": {
            "value": "utility"
        },
        "sustained": {
            "value": false
        },
        "target": {
            "value": "1 dying creature"
        },
        "time": {
            "value": "3"
        },
        "traditions": {
            "custom": "",
            "value": [
                "divine"
            ]
        },
        "traits": {
            "custom": "",
            "rarity": {
                "value": "uncommon"
            },
            "value": [
                "shadow"
            ]
        }
    },
    "effects": [],
    "flags": {},
    "img": "systems/pf2e/icons/default-icons/spell.svg",
    "name": "Gray Shadow",
    "type": "spell"
}
