{
    "_id": "dZV8nZUKRhGIr6g9",
    "data": {
        "ability": {
            "value": ""
        },
        "area": {
            "value": ""
        },
        "areasize": {
            "value": ""
        },
        "category": {
            "value": "ritual"
        },
        "components": {
            "material": false,
            "somatic": false,
            "verbal": false
        },
        "cost": {
            "value": "fine wine and a set of matching rings or other  tokens worth 40 gp total"
        },
        "damage": {
            "value": {}
        },
        "description": {
            "value": "<p>You create a magical bond between two willing creatures, who are secondary casters of the ritual and must share genuine affection for one another. As part of the ritual, both members of the bond receive a ring, amulet, or similar token to symbolize their shared connection. They lose the effects of the ritual when not wearing the token, and the bond is broken if either token is destroyed.</p>\n<p>Creatures benefiting from a successful heartbond ritual can later participate in a heightened version of the ritual without requiring new checks by spending the required time and paying the difference of the two costs. A creature can be under the effects of multiple heartbond rituals at once.</p>\n<hr />\n<p><strong>Critical Success</strong> Once per day, each bonded creature can use a 2-action activity, which has the concentrate trait, to learn the present state of the other bonded creature. The creature knows the other creature's direction and distance and any conditions affecting them. Both of the participants can cast <em>@Compendium[pf2e.spells-srd.Message]{Message}</em> as a divine innate spell at will, but can only target the other participant.</p>\n<p><strong>Success</strong> As a critical success, except the bonded creatures can't cast message as a divine innate spell.</p>\n<p><strong>Failure</strong> The ritual has no effect.</p>\n<p><strong>Critical Failure</strong> Magical backlash creates discordant energy among the participants. For 1 week, each ritual participant is @Compendium[pf2e.conditionitems.Clumsy]{Clumsy 2} and @Compendium[pf2e.conditionitems.Stupefied]{Stupefied 2} whenever they are within 30 feet of another ritual participant.</p>\n<hr />\n<p><strong>Heightened (6th)</strong> Increase the cost to a total value of 600 gp. On a success, secondary casters in the ritual permanently gain the effects of a 6th-level <em>@Compendium[pf2e.spells-srd.Telepathy]{Telepathy}</em> spell, but only with each other.</p>"
        },
        "duration": {
            "value": ""
        },
        "hasCounteractCheck": {
            "value": false
        },
        "level": {
            "value": 2
        },
        "location": {
            "value": ""
        },
        "materials": {
            "value": ""
        },
        "prepared": {
            "value": ""
        },
        "primarycheck": {
            "value": "Nature or Religion (expert)"
        },
        "range": {
            "value": "20 feet"
        },
        "rules": [],
        "save": {
            "basic": "",
            "value": ""
        },
        "school": {
            "value": "abjuration"
        },
        "secondarycasters": {
            "value": "2"
        },
        "secondarycheck": {
            "value": "Diplomacy, Society"
        },
        "source": {
            "value": "Pathfinder Secrets of Magic"
        },
        "spellType": {
            "value": "utility"
        },
        "sustained": {
            "value": false
        },
        "target": {
            "value": ""
        },
        "time": {
            "value": "1 hour"
        },
        "traditions": {
            "value": []
        },
        "traits": {
            "custom": "",
            "rarity": {
                "value": "uncommon"
            },
            "value": []
        }
    },
    "effects": [],
    "flags": {},
    "img": "systems/pf2e/icons/spells/heartbond.webp",
    "name": "Heartbond",
    "type": "spell"
}
