{
    "_id": "RbORUmnwlB8b3mNf",
    "data": {
        "ability": {
            "value": ""
        },
        "area": {
            "areaType": "",
            "value": ""
        },
        "autoHeightenLevel": {
            "value": null
        },
        "category": {
            "value": "spell"
        },
        "components": {
            "material": false,
            "somatic": true,
            "verbal": true
        },
        "cost": {
            "value": ""
        },
        "damage": {
            "value": {}
        },
        "description": {
            "value": "<p>You afflict the target with the supernatural disease known as internal insurrection, causing portions of their body to rebel against the whole, leading to painful agonies and, in time, death. The target must attempt a Fortitude save.</p>\n<hr />\n<p><strong>Critical Success</strong> The target is unaffected.</p>\n<p><strong>Success</strong> The target becomes @Compendium[pf2e.conditionitems.Clumsy]{Clumsy} for 1 round as pain wracks their body.</p>\n<p><strong>Failure</strong> The target is afflicted with internal insurrection at stage 1.</p>\n<p><strong>Critical Failure</strong> The target is afflicted with internal insurrection at stage 2.</p>\n<hr />\n<p><span style=\"text-decoration: underline;\">Internal Insurrection (disease)</span>; Level 7.</p>\n<p>The target can't recover from the clumsy condition from internal insurrection until the disease is cured;</p>\n<p><strong>Stage 1</strong> @Compendium[pf2e.conditionitems.Clumsy]{Clumsy 1} (1 day);</p>\n<p><strong>Stage 2</strong> @Compendium[pf2e.conditionitems.Clumsy]{Clumsy 2} (1 day);</p>\n<p><strong>Stage 3</strong> clumsy 2 and @Compendium[pf2e.conditionitems.Flat-Footed]{Flat-Footed} (1 day);</p>\n<p><strong>Stage 4</strong> @Compendium[pf2e.conditionitems.Clumsy]{Clumsy 3} and flat-footed (1 day);</p>\n<p><strong>Stage 5</strong> death, and the target's body splits apart into a mass of fragments that crawls outward in a 10-foot-emanation before perishing, leaving a bare skeleton surrounded by gore.</p>"
        },
        "duration": {
            "value": ""
        },
        "hasCounteractCheck": {
            "value": false
        },
        "level": {
            "value": 4
        },
        "location": {
            "value": ""
        },
        "materials": {
            "value": ""
        },
        "prepared": {
            "value": ""
        },
        "range": {
            "value": "touch"
        },
        "rules": [],
        "save": {
            "basic": "",
            "value": "fortitude"
        },
        "school": {
            "value": "necromancy"
        },
        "source": {
            "value": "Pathfinder Adventure: Malevolence"
        },
        "spellType": {
            "value": "save"
        },
        "sustained": {
            "value": false
        },
        "target": {
            "value": "1 creature"
        },
        "time": {
            "value": "2"
        },
        "traditions": {
            "custom": "",
            "value": [
                "divine",
                "occult"
            ]
        },
        "traits": {
            "custom": "",
            "rarity": {
                "value": "rare"
            },
            "value": [
                "disease"
            ]
        }
    },
    "effects": [],
    "flags": {},
    "img": "systems/pf2e/icons/default-icons/spell.svg",
    "name": "Internal Insurrection",
    "type": "spell"
}
