{
    "_id": "JAaETUBg0xlttpCH",
    "data": {
        "ability": {
            "value": ""
        },
        "area": {
            "areaType": "",
            "value": ""
        },
        "autoHeightenLevel": {
            "value": null
        },
        "category": {
            "value": "spell"
        },
        "components": {
            "focus": false,
            "material": true,
            "somatic": true,
            "verbal": true
        },
        "cost": {
            "value": ""
        },
        "damage": {
            "applyMod": false,
            "value": {
                "0": {
                    "applyMod": false,
                    "type": {
                        "categories": [],
                        "subtype": "",
                        "value": "force"
                    },
                    "value": "3d4+3"
                }
            }
        },
        "description": {
            "value": "<p>You briefly call forth the spirit of a legendary wizard from ages long past, which manifests as an immense humanoid figure (typically an elf or a human). The archmage occupies the space of a Large creature and has a Speed of 60 feet.</p>\n<p><strong>Arrive</strong> (evocation, force) <em>Archmage's Amplification</em> The archmage arrives in a fierce burst of magical force, automatically dealing 3d4+3 force damage to up to 5 creatures it chooses within 100 feet of it. Like <em>@Compendium[pf2e.spells-srd.Magic Missile]{Magic Missiles}</em>, this can be blocked by the <em>@Compendium[pf2e.spells-srd.Shield]{Shield}</em> spell. The archmage also feeds magical power into some spells. Beneficial spells last longer due to the archmage's influence. When the remaining duration of a beneficial spell affecting you or one of your allies would decrease (usually at the start of the caster's turn), it doesn't decrease if the subject of the spell is within 100 feet of the archmage. This applies only if the spell's maximum duration was 3 rounds or longer.</p>\n<p><strong>Depart</strong> (abjuration) <em>Archmage's Rebuke</em> The archmage drains the magic from your foes. Each of your enemies within 100 feet of the archmage must attempt a Will save. On a failure, the creature is @Compendium[pf2e.conditionitems.Stupefied]{Stupefied 2} for 1 round, and if it's currently benefiting from any spells of a lower level than <em>summon archmage</em>, the archmage can choose any one of them and end the spell.</p>"
        },
        "duration": {
            "value": "until the end of your next turn"
        },
        "hasCounteractCheck": {
            "value": false
        },
        "level": {
            "value": 8
        },
        "location": {
            "value": ""
        },
        "materials": {
            "value": ""
        },
        "range": {
            "value": "100 feet"
        },
        "rules": [],
        "save": {
            "basic": "",
            "value": "will"
        },
        "school": {
            "value": "conjuration"
        },
        "source": {
            "value": "Pathfinder Secrets of Magic"
        },
        "spellType": {
            "value": "save"
        },
        "sustained": {
            "value": false
        },
        "target": {
            "value": ""
        },
        "time": {
            "value": "3"
        },
        "traditions": {
            "custom": "",
            "value": [
                "arcane"
            ]
        },
        "traits": {
            "custom": "",
            "rarity": {
                "value": "common"
            },
            "value": [
                "incarnate"
            ]
        }
    },
    "effects": [],
    "flags": {},
    "img": "systems/pf2e/icons/spells/summon-archmage.webp",
    "name": "Summon Archmage",
    "type": "spell"
}
