{
    "_id": "rQJBtQ9uKUzK9ktK",
    "data": {
        "actionCategory": {
            "value": ""
        },
        "actionType": {
            "value": "passive"
        },
        "actions": {
            "value": null
        },
        "description": {
            "value": "<p>You have a longer torso and broader shoulders than most hobgoblins, making your legs seem short by comparison. This gives you a strong, muscular core and lowers your center of gravity—features that assist you in riding and climbing—and you've trained at riding in a saddle from an extremely early age. You gain the @Compendium[pf2e.feats-srd.Ride]{Ride} feat. Additionally, you are not @Compendium[pf2e.conditionitems.Flat-Footed]{Flat-Footed} while you Climb.</p>"
        },
        "featType": {
            "value": "heritage"
        },
        "level": {
            "value": 1
        },
        "location": "",
        "prerequisites": {
            "value": []
        },
        "rules": [],
        "source": {
            "value": ""
        },
        "traits": {
            "custom": "",
            "rarity": {
                "value": "common"
            },
            "value": [
                "hobgoblin"
            ]
        }
    },
    "effects": [],
    "flags": {},
    "img": "systems/pf2e/icons/default-icons/feat.svg",
    "name": "Shortshanks Hobgoblin",
    "type": "feat"
}
