{
    "_id": "8cMFcCa3h9XfWNkZ",
    "data": {
        "actionCategory": {
            "value": ""
        },
        "actionType": {
            "value": "passive"
        },
        "actions": {
            "value": null
        },
        "description": {
            "value": "<p>Your adventures have earned you special training in a particular field. Check the box next to one of the following options and cross the other off your Chronicle Sheet.</p>\n<p><strong>□ Poisoner Training:</strong> You have been trained in rare poisoning techniques and have access to the following feats: @Compendium[pf2e.feats-srd.Deadly Poison Weapon]{Deadly Poison Weapons}, @Compendium[pf2e.feats-srd.Pesh Skin]{Pesh Skin}, and @Compendium[pf2e.feats-srd.Shaped Contaminant]{Shaped Contaminant}.</p>\n<p><strong>□ Zephyr Guard Membership:</strong> You are a member of the Zephyr Guard and gain access to the @Compendium[pf2e.archetypes.Zephyr Guard]{Zephyr Guard} archetype and its associated feats.</p>"
        },
        "featType": {
            "value": "pfsboon"
        },
        "identified": {
            "value": true
        },
        "level": {
            "value": 0
        },
        "prerequisites": {
            "value": []
        },
        "rules": [],
        "source": {
            "value": ""
        },
        "traits": {
            "custom": "",
            "rarity": {
                "value": "common"
            },
            "selected": {},
            "value": []
        }
    },
    "effects": [],
    "flags": {},
    "img": "systems/pf2e/icons/default-icons/mystery-man.webp",
    "name": "AoA #149: Boon A - Advanced Training",
    "type": "feat"
}
