{
    "_id": "DhvSMIFs6xifgQHX",
    "data": {
        "description": {
            "value": "<p>Granted by @Compendium[pf2e.feats-srd.Current Spell]{Current Spell} if you cast a spell with the water trait.</p>\n<p>You gain a +1 circumstance bonus to AC or a +2 circumstance bonus against ranged attacks. You also gain a +1 circumstance bonus to all saves against effects with the water trait.</p>\n<p>This effect has the water trait.</p>"
        },
        "duration": {
            "expiry": "turn-start",
            "sustained": false,
            "unit": "unlimited",
            "value": -1
        },
        "level": {
            "value": 6
        },
        "rules": [
            {
                "key": "FlatModifier",
                "selector": "ac",
                "type": "circumstance",
                "value": 1
            },
            {
                "key": "FlatModifier",
                "predicate": {
                    "all": [
                        "ranged"
                    ]
                },
                "selector": "ac",
                "type": "circumstance",
                "value": 2
            },
            {
                "key": "FlatModifier",
                "predicate": {
                    "all": [
                        "water"
                    ]
                },
                "selector": "saving-throw",
                "type": "circumstance",
                "value": 1
            }
        ],
        "source": {
            "value": ""
        },
        "start": {
            "initiative": null,
            "value": 0
        },
        "target": null,
        "tokenIcon": {
            "show": true
        },
        "traits": {
            "custom": "",
            "rarity": {
                "value": "common"
            },
            "value": []
        }
    },
    "effects": [],
    "flags": {},
    "img": "systems/pf2e/icons/spells/crashing-wave.webp",
    "name": "Effect: Current Spell (Water)",
    "type": "effect"
}
