{
    "_id": "w6X7io56B2HHTOvs",
    "data": {
        "description": {
            "value": "<p>Granted by @Compendium[pf2e.feats-srd.Guardian's Deflection (Fighter)]{Guardian's Deflection (Fighter)} or @Compendium[pf2e.feats-srd.Guardian's Deflection (Swashbuckler)]{Guardian's Deflection (Swashbuckler)}.</p>\n<p>You gain a +2 circumstance bonus to AC against the triggering attack.</p>"
        },
        "duration": {
            "expiry": "turn-start",
            "sustained": false,
            "unit": "unlimited",
            "value": -1
        },
        "level": {
            "value": 4
        },
        "rules": [
            {
                "key": "FlatModifier",
                "label": "Guardian's Deflection",
                "selector": "ac",
                "type": "circumstance",
                "value": 2
            }
        ],
        "source": {
            "value": ""
        },
        "start": {
            "initiative": null,
            "value": 0
        },
        "target": null,
        "tokenIcon": {
            "show": true
        },
        "traits": {
            "custom": "",
            "rarity": {
                "value": "common"
            },
            "value": []
        }
    },
    "effects": [],
    "flags": {},
    "img": "systems/pf2e/icons/spells/scintillating-safeguard.webp",
    "name": "Effect: Guardian's Deflection",
    "type": "effect"
}
