{
    "_id": "bV70ZxnUAoYnfXaZ",
    "data": {
        "description": {
            "value": "<p>When the rock hits, the giant can Push the target back 10 feet, or 20 feet on a critical hit.</p>"
        },
        "duration": {
            "expiry": "turn-start",
            "sustained": false,
            "unit": "minutes",
            "value": 1
        },
        "level": {
            "value": 16
        },
        "rules": [
            {
                "key": "Note",
                "selector": "rock-attack",
                "text": "<div data-visibility='gm'><p><strong>Rune of Smiting</strong></p><p class='compact-text'>When the attack hits, the giant can Push the target back 10 feet, or 20 feet on a critical hit.</p></div>"
            }
        ],
        "source": {
            "value": "Pathfinder Bestiary"
        },
        "start": {
            "initiative": null,
            "value": 0
        },
        "target": null,
        "tokenIcon": {
            "show": true
        },
        "traits": {
            "custom": "",
            "rarity": {
                "value": "common"
            },
            "value": []
        }
    },
    "effects": [],
    "flags": {},
    "img": "systems/pf2e/icons/equipment/runes/weapon-property-runes/weapon-property-runes.webp",
    "name": "Effect: Rune of Smiting (Rock)",
    "type": "effect"
}
