{
    "_id": "0oZJXOPw0OfkaMMU",
    "data": {
        "attributes": {
            "ac": {
                "value": 16
            },
            "hardness": 5,
            "hasHealth": true,
            "hp": {
                "details": "",
                "max": 10,
                "temp": 0,
                "value": 10
            },
            "stealth": {
                "details": "<p>(trained)</p>",
                "value": 10
            }
        },
        "creatureType": "",
        "details": {
            "description": "<p>Pressure sensitive panels in the floor connect to a barrel of debris hidden in the hallway's ceiling</p>",
            "disable": "<p><span data-pf2-check=\"skill\" data-pf2-traits=\"mechanical,trap\" data-pf2-label=\"Disable Floor Panels DC\" data-pf2-dc=\"23\" data-pf2-show-dc=\"gm\">Thievery</span> (trained) on the floor panels before the barrel falls</p>",
            "isComplex": false,
            "level": {
                "value": 3
            },
            "reset": "",
            "routine": ""
        },
        "saves": {
            "fortitude": {
                "saveDetail": "",
                "value": 10
            },
            "reflex": {
                "saveDetail": "",
                "value": 2
            },
            "will": {
                "saveDetail": "",
                "value": 0
            }
        },
        "source": {
            "value": ""
        },
        "statusEffects": [],
        "traits": {
            "ci": [],
            "di": {
                "custom": "",
                "selected": {},
                "value": [
                    "critical-hits",
                    "object-immunities",
                    "precision"
                ]
            },
            "dr": [],
            "dv": [],
            "rarity": {
                "value": "common"
            },
            "size": {
                "value": "med"
            },
            "traits": {
                "custom": "",
                "value": []
            }
        }
    },
    "effects": [],
    "flags": {},
    "img": "systems/pf2e/icons/default-icons/hazard.svg",
    "items": [
        {
            "_id": "gUO04W6BePc1HrZr",
            "data": {
                "actionCategory": {
                    "value": "offensive"
                },
                "actionType": {
                    "value": "reaction"
                },
                "actions": {
                    "value": null
                },
                "description": {
                    "value": "<p data-visibility=\"gm\"><strong>Trigger</strong> Pressure is placed on any floor tile;</p>\n<p><strong>Effect</strong> The barrel of debris tips over and showers broken glass down. The glass deals [[/r {3d8}[slashing]]]{3d8 slashing damage} and [[/r 2 #persistent bleed]] @Compendium[pf2e.conditionitems.Persistent Damage]{Persistent Bleed Damage}(<span data-pf2-check=\"reflex\" data-pf2-traits=\"mechanical,trap,damaging-effect\" data-pf2-label=\"Dodge Falling Debris DC\" data-pf2-dc=\"22\" data-pf2-show-dc=\"gm\">basic Reflex</span> save) to all creatures within 10 feet.</p>"
                },
                "requirements": {
                    "value": ""
                },
                "rules": [],
                "slug": null,
                "source": {
                    "value": ""
                },
                "traits": {
                    "custom": "",
                    "rarity": {
                        "value": "common"
                    },
                    "value": []
                },
                "trigger": {
                    "value": ""
                },
                "weapon": {
                    "value": ""
                }
            },
            "effects": [],
            "flags": {},
            "img": "systems/pf2e/icons/actions/Reaction.webp",
            "name": "Falling Debris",
            "sort": 0,
            "type": "action"
        }
    ],
    "name": "Trapmaster Tok's Surprise (3-4)",
    "token": {
        "disposition": 0,
        "height": 1,
        "img": "systems/pf2e/icons/default-icons/hazard.svg",
        "name": "Trapmaster Tok's Surprise",
        "width": 1
    },
    "type": "hazard"
}
